<?xml version="1.0" encoding="UTF-8" standalone="no"?>
<!DOCTYPE svg PUBLIC "-//W3C//DTD SVG 1.1//EN"
 "http://www.w3.org/Graphics/SVG/1.1/DTD/svg11.dtd">
<!-- Generated by graphviz version 2.38.0 (20140413.2041)
 -->
<!-- Title: sigma odd Pages: 1 -->
<svg width="3768pt" height="3758pt"
 viewBox="0.00 0.00 3768.19 3757.90" xmlns="http://www.w3.org/2000/svg" xmlns:xlink="http://www.w3.org/1999/xlink">
<g id="graph0" class="graph" transform="scale(1 1) rotate(0) translate(4 3753.9)">
<title>sigma odd</title>
<polygon fill="white" stroke="none" points="-4,4 -4,-3753.9 3764.19,-3753.9 3764.19,4 -4,4"/>
<!-- 1 -->
<g id="node1" class="node"><title>1</title>
<ellipse fill="lightgrey" stroke="black" cx="1550.78" cy="-1654.07" rx="108" ry="108"/>
<text text-anchor="middle" x="1550.78" y="-1650.37" font-family="Times,serif" font-size="14.00">1</text>
</g>
<!-- 1&#45;&gt;1 -->
<g id="edge1" class="edge"><title>1&#45;&gt;1</title>
<path fill="none" stroke="black" d="M1658.77,-1659.61C1669.76,-1658.52 1676.78,-1656.67 1676.78,-1654.07 1676.78,-1652.4 1673.9,-1651.04 1668.94,-1649.99"/>
<polygon fill="black" stroke="black" points="1669.17,-1646.49 1658.77,-1648.52 1668.16,-1653.42 1669.17,-1646.49"/>
</g>
<!-- 3 -->
<g id="node2" class="node"><title>3</title>
<ellipse fill="none" stroke="black" cx="3143.78" cy="-1654.07" rx="27" ry="18"/>
<text text-anchor="middle" x="3143.78" y="-1650.37" font-family="Times,serif" font-size="14.00">3</text>
</g>
<!-- 3&#45;&gt;1 -->
<g id="edge2" class="edge"><title>3&#45;&gt;1</title>
<path fill="none" stroke="black" d="M3116.47,-1654.07C2944.14,-1654.07 2004.09,-1654.07 1669.27,-1654.07"/>
<polygon fill="black" stroke="black" points="1669.06,-1650.57 1659.06,-1654.07 1669.06,-1657.57 1669.06,-1650.57"/>
</g>
<!-- 5 -->
<g id="node3" class="node"><title>5</title>
<ellipse fill="none" stroke="black" cx="2721.05" cy="-1363.97" rx="27" ry="18"/>
<text text-anchor="middle" x="2721.05" y="-1360.27" font-family="Times,serif" font-size="14.00">5</text>
</g>
<!-- 5&#45;&gt;3 -->
<g id="edge3" class="edge"><title>5&#45;&gt;3</title>
<path fill="none" stroke="black" d="M2740.03,-1377C2807.64,-1423.39 3036.82,-1580.67 3116.34,-1635.23"/>
<polygon fill="black" stroke="black" points="3114.62,-1638.3 3124.85,-1641.07 3118.59,-1632.53 3114.62,-1638.3"/>
</g>
<!-- 7 -->
<g id="node4" class="node"><title>7</title>
<ellipse fill="none" stroke="black" cx="810.437" cy="-3064.58" rx="27" ry="18"/>
<text text-anchor="middle" x="810.437" y="-3060.88" font-family="Times,serif" font-size="14.00">7</text>
</g>
<!-- 7&#45;&gt;1 -->
<g id="edge4" class="edge"><title>7&#45;&gt;1</title>
<path fill="none" stroke="black" d="M819.398,-3047.5C888.451,-2915.94 1337.45,-2060.51 1495.69,-1759.02"/>
<polygon fill="black" stroke="black" points="1498.97,-1760.31 1500.52,-1749.83 1492.77,-1757.06 1498.97,-1760.31"/>
</g>
<!-- 9 -->
<g id="node5" class="node"><title>9</title>
<ellipse fill="orange" stroke="orange" cx="1561.66" cy="-2677.18" rx="27" ry="18"/>
<text text-anchor="middle" x="1561.66" y="-2673.48" font-family="Times,serif" font-size="14.00">9</text>
</g>
<!-- 13 -->
<g id="node6" class="node"><title>13</title>
<ellipse fill="none" stroke="black" cx="1566.38" cy="-3055.15" rx="27" ry="18"/>
<text text-anchor="middle" x="1566.38" y="-3051.45" font-family="Times,serif" font-size="14.00">13</text>
</g>
<!-- 9&#45;&gt;13 -->
<g id="edge5" class="edge"><title>9&#45;&gt;13</title>
<path fill="none" stroke="orange" stroke-width="3" d="M1561.89,-2695.41C1562.65,-2756.28 1565.1,-2952.85 1566.02,-3026.73"/>
<polygon fill="orange" stroke="orange" stroke-width="3" points="1562.53,-3027.15 1566.15,-3037.1 1569.53,-3027.06 1562.53,-3027.15"/>
</g>
<!-- 13&#45;&gt;7 -->
<g id="edge7" class="edge"><title>13&#45;&gt;7</title>
<path fill="none" stroke="black" d="M1539.03,-3055.49C1424.09,-3056.92 980.027,-3062.46 847.795,-3064.11"/>
<polygon fill="black" stroke="black" points="847.707,-3060.61 837.751,-3064.23 847.794,-3067.61 847.707,-3060.61"/>
</g>
<!-- 11 -->
<g id="node7" class="node"><title>11</title>
<ellipse fill="none" stroke="black" cx="3300.66" cy="-1232.62" rx="27" ry="18"/>
<text text-anchor="middle" x="3300.66" y="-1228.92" font-family="Times,serif" font-size="14.00">11</text>
</g>
<!-- 11&#45;&gt;3 -->
<g id="edge6" class="edge"><title>11&#45;&gt;3</title>
<path fill="none" stroke="black" d="M3294.12,-1250.19C3269.7,-1315.79 3183.76,-1546.68 3154.01,-1626.6"/>
<polygon fill="black" stroke="black" points="3150.56,-1625.83 3150.35,-1636.42 3157.12,-1628.27 3150.56,-1625.83"/>
</g>
<!-- 15 -->
<g id="node8" class="node"><title>15</title>
<ellipse fill="none" stroke="black" cx="3616.56" cy="-1455.73" rx="27" ry="18"/>
<text text-anchor="middle" x="3616.56" y="-1452.03" font-family="Times,serif" font-size="14.00">15</text>
</g>
<!-- 15&#45;&gt;3 -->
<g id="edge8" class="edge"><title>15&#45;&gt;3</title>
<path fill="none" stroke="black" d="M3593.44,-1465.43C3516.07,-1497.89 3266.05,-1602.77 3176.27,-1640.44"/>
<polygon fill="black" stroke="black" points="3174.73,-1637.29 3166.86,-1644.38 3177.44,-1643.74 3174.73,-1637.29"/>
</g>
<!-- 17 -->
<g id="node9" class="node"><title>17</title>
<ellipse fill="none" stroke="black" cx="1473.69" cy="-2767.38" rx="27" ry="18"/>
<text text-anchor="middle" x="1473.69" y="-2763.68" font-family="Times,serif" font-size="14.00">17</text>
</g>
<!-- 17&#45;&gt;9 -->
<g id="edge9" class="edge"><title>17&#45;&gt;9</title>
<path fill="none" stroke="black" d="M1488.61,-2752.08C1502.51,-2737.82 1523.43,-2716.38 1539.32,-2700.09"/>
<polygon fill="black" stroke="black" points="1542.19,-2702.16 1546.67,-2692.55 1537.18,-2697.27 1542.19,-2702.16"/>
</g>
<!-- 19 -->
<g id="node10" class="node"><title>19</title>
<ellipse fill="none" stroke="black" cx="2753.64" cy="-1494.67" rx="27" ry="18"/>
<text text-anchor="middle" x="2753.64" y="-1490.97" font-family="Times,serif" font-size="14.00">19</text>
</g>
<!-- 19&#45;&gt;5 -->
<g id="edge10" class="edge"><title>19&#45;&gt;5</title>
<path fill="none" stroke="black" d="M2749.18,-1476.77C2743.72,-1454.9 2734.43,-1417.63 2728.03,-1391.96"/>
<polygon fill="black" stroke="black" points="2731.38,-1390.93 2725.56,-1382.08 2724.59,-1392.63 2731.38,-1390.93"/>
</g>
<!-- 21 -->
<g id="node11" class="node"><title>21</title>
<ellipse fill="none" stroke="black" cx="138.691" cy="-916.743" rx="27" ry="18"/>
<text text-anchor="middle" x="138.691" y="-913.043" font-family="Times,serif" font-size="14.00">21</text>
</g>
<!-- 21&#45;&gt;1 -->
<g id="edge11" class="edge"><title>21&#45;&gt;1</title>
<path fill="none" stroke="black" d="M160.026,-927.883C304.866,-1003.51 1147.06,-1443.26 1445.77,-1599.23"/>
<polygon fill="black" stroke="black" points="1444.39,-1602.46 1454.87,-1603.99 1447.63,-1596.26 1444.39,-1602.46"/>
</g>
<!-- 23 -->
<g id="node12" class="node"><title>23</title>
<ellipse fill="none" stroke="black" cx="3634.01" cy="-1804.18" rx="27" ry="18"/>
<text text-anchor="middle" x="3634.01" y="-1800.48" font-family="Times,serif" font-size="14.00">23</text>
</g>
<!-- 23&#45;&gt;3 -->
<g id="edge12" class="edge"><title>23&#45;&gt;3</title>
<path fill="none" stroke="black" d="M3609.36,-1796.64C3528.61,-1771.91 3271.83,-1693.28 3178.29,-1664.63"/>
<polygon fill="black" stroke="black" points="3179.06,-1661.21 3168.48,-1661.63 3177.02,-1667.9 3179.06,-1661.21"/>
</g>
<!-- 25 -->
<g id="node13" class="node"><title>25</title>
<ellipse fill="orange" stroke="orange" cx="977.431" cy="-231.366" rx="27" ry="18"/>
<text text-anchor="middle" x="977.431" y="-227.666" font-family="Times,serif" font-size="14.00">25</text>
</g>
<!-- 31 -->
<g id="node14" class="node"><title>31</title>
<ellipse fill="none" stroke="black" cx="1061.95" cy="-137.921" rx="27" ry="18"/>
<text text-anchor="middle" x="1061.95" y="-134.221" font-family="Times,serif" font-size="14.00">31</text>
</g>
<!-- 25&#45;&gt;31 -->
<g id="edge13" class="edge"><title>25&#45;&gt;31</title>
<path fill="none" stroke="orange" stroke-width="3" d="M991.388,-215.935C1004.85,-201.056 1025.39,-178.341 1040.85,-161.253"/>
<polygon fill="orange" stroke="orange" stroke-width="3" points="1043.86,-163.139 1047.98,-153.375 1038.67,-158.443 1043.86,-163.139"/>
</g>
<!-- 31&#45;&gt;1 -->
<g id="edge16" class="edge"><title>31&#45;&gt;1</title>
<path fill="none" stroke="black" d="M1067.7,-155.737C1112.71,-295.355 1409.83,-1216.89 1514.43,-1541.31"/>
<polygon fill="black" stroke="black" points="1511.22,-1542.76 1517.62,-1551.2 1517.88,-1540.61 1511.22,-1542.76"/>
</g>
<!-- 27 -->
<g id="node15" class="node"><title>27</title>
<ellipse fill="none" stroke="black" cx="2477.55" cy="-1457.08" rx="27" ry="18"/>
<text text-anchor="middle" x="2477.55" y="-1453.38" font-family="Times,serif" font-size="14.00">27</text>
</g>
<!-- 27&#45;&gt;5 -->
<g id="edge14" class="edge"><title>27&#45;&gt;5</title>
<path fill="none" stroke="black" d="M2501.34,-1447.99C2545.09,-1431.26 2638.4,-1395.58 2688.17,-1376.55"/>
<polygon fill="black" stroke="black" points="2689.43,-1379.81 2697.52,-1372.97 2686.93,-1373.27 2689.43,-1379.81"/>
</g>
<!-- 29 -->
<g id="node16" class="node"><title>29</title>
<ellipse fill="none" stroke="black" cx="3499.94" cy="-1408.04" rx="27" ry="18"/>
<text text-anchor="middle" x="3499.94" y="-1404.34" font-family="Times,serif" font-size="14.00">29</text>
</g>
<!-- 29&#45;&gt;15 -->
<g id="edge15" class="edge"><title>29&#45;&gt;15</title>
<path fill="none" stroke="black" d="M3522.98,-1417.46C3540.36,-1424.57 3564.43,-1434.41 3583.81,-1442.34"/>
<polygon fill="black" stroke="black" points="3582.59,-1445.62 3593.17,-1446.17 3585.24,-1439.14 3582.59,-1445.62"/>
</g>
<!-- 33 -->
<g id="node17" class="node"><title>33</title>
<ellipse fill="none" stroke="black" cx="3520.4" cy="-2001.95" rx="27" ry="18"/>
<text text-anchor="middle" x="3520.4" y="-1998.25" font-family="Times,serif" font-size="14.00">33</text>
</g>
<!-- 33&#45;&gt;3 -->
<g id="edge17" class="edge"><title>33&#45;&gt;3</title>
<path fill="none" stroke="black" d="M3504.21,-1987C3444.7,-1932.02 3237.78,-1740.89 3167.42,-1675.9"/>
<polygon fill="black" stroke="black" points="3169.63,-1673.17 3159.91,-1668.96 3164.88,-1678.31 3169.63,-1673.17"/>
</g>
<!-- 35 -->
<g id="node18" class="node"><title>35</title>
<ellipse fill="none" stroke="black" cx="3332.25" cy="-2130.86" rx="27" ry="18"/>
<text text-anchor="middle" x="3332.25" y="-2127.16" font-family="Times,serif" font-size="14.00">35</text>
</g>
<!-- 35&#45;&gt;3 -->
<g id="edge18" class="edge"><title>35&#45;&gt;3</title>
<path fill="none" stroke="black" d="M3325.32,-2113.33C3296.86,-2041.33 3188.87,-1768.13 3154.41,-1680.96"/>
<polygon fill="black" stroke="black" points="3157.61,-1679.52 3150.68,-1671.51 3151.1,-1682.09 3157.61,-1679.52"/>
</g>
<!-- 37 -->
<g id="node19" class="node"><title>37</title>
<ellipse fill="none" stroke="black" cx="2784.13" cy="-1616.92" rx="27" ry="18"/>
<text text-anchor="middle" x="2784.13" y="-1613.22" font-family="Times,serif" font-size="14.00">37</text>
</g>
<!-- 37&#45;&gt;19 -->
<g id="edge19" class="edge"><title>37&#45;&gt;19</title>
<path fill="none" stroke="black" d="M2779.7,-1599.15C2774.66,-1578.96 2766.38,-1545.76 2760.51,-1522.21"/>
<polygon fill="black" stroke="black" points="2763.89,-1521.32 2758.08,-1512.47 2757.1,-1523.02 2763.89,-1521.32"/>
</g>
<!-- 39 -->
<g id="node20" class="node"><title>39</title>
<ellipse fill="none" stroke="black" cx="218.233" cy="-3534.5" rx="27" ry="18"/>
<text text-anchor="middle" x="218.233" y="-3530.8" font-family="Times,serif" font-size="14.00">39</text>
</g>
<!-- 39&#45;&gt;7 -->
<g id="edge20" class="edge"><title>39&#45;&gt;7</title>
<path fill="none" stroke="black" d="M235.636,-3520.69C319.824,-3453.89 684.871,-3164.21 784.97,-3084.78"/>
<polygon fill="black" stroke="black" points="787.375,-3087.34 793.033,-3078.39 783.024,-3081.86 787.375,-3087.34"/>
</g>
<!-- 41 -->
<g id="node21" class="node"><title>41</title>
<ellipse fill="none" stroke="black" cx="144.03" cy="-1042.63" rx="27" ry="18"/>
<text text-anchor="middle" x="144.03" y="-1038.93" font-family="Times,serif" font-size="14.00">41</text>
</g>
<!-- 41&#45;&gt;21 -->
<g id="edge21" class="edge"><title>41&#45;&gt;21</title>
<path fill="none" stroke="black" d="M143.265,-1024.59C142.381,-1003.75 140.915,-969.189 139.882,-944.818"/>
<polygon fill="black" stroke="black" points="143.375,-944.589 139.454,-934.746 136.381,-944.885 143.375,-944.589"/>
</g>
<!-- 43 -->
<g id="node22" class="node"><title>43</title>
<ellipse fill="none" stroke="black" cx="3344.62" cy="-1114.54" rx="27" ry="18"/>
<text text-anchor="middle" x="3344.62" y="-1110.84" font-family="Times,serif" font-size="14.00">43</text>
</g>
<!-- 43&#45;&gt;11 -->
<g id="edge22" class="edge"><title>43&#45;&gt;11</title>
<path fill="none" stroke="black" d="M3338.04,-1132.22C3330.85,-1151.52 3319.25,-1182.68 3310.88,-1205.17"/>
<polygon fill="black" stroke="black" points="3307.5,-1204.23 3307.29,-1214.82 3314.06,-1206.67 3307.5,-1204.23"/>
</g>
<!-- 45 -->
<g id="node23" class="node"><title>45</title>
<ellipse fill="none" stroke="black" cx="296.554" cy="-3633.2" rx="27" ry="18"/>
<text text-anchor="middle" x="296.554" y="-3629.5" font-family="Times,serif" font-size="14.00">45</text>
</g>
<!-- 45&#45;&gt;39 -->
<g id="edge23" class="edge"><title>45&#45;&gt;39</title>
<path fill="none" stroke="black" d="M283.621,-3616.9C270.961,-3600.95 251.534,-3576.47 237.142,-3558.33"/>
<polygon fill="black" stroke="black" points="239.883,-3556.15 230.926,-3550.5 234.4,-3560.51 239.883,-3556.15"/>
</g>
<!-- 47 -->
<g id="node24" class="node"><title>47</title>
<ellipse fill="none" stroke="black" cx="3106.81" cy="-2165.43" rx="27" ry="18"/>
<text text-anchor="middle" x="3106.81" y="-2161.73" font-family="Times,serif" font-size="14.00">47</text>
</g>
<!-- 47&#45;&gt;3 -->
<g id="edge24" class="edge"><title>47&#45;&gt;3</title>
<path fill="none" stroke="black" d="M3108.13,-2147.23C3113.66,-2070.73 3135.05,-1774.91 3141.76,-1682.09"/>
<polygon fill="black" stroke="black" points="3145.25,-1682.27 3142.48,-1672.05 3138.27,-1681.77 3145.25,-1682.27"/>
</g>
<!-- 49 -->
<g id="node25" class="node"><title>49</title>
<ellipse fill="orange" stroke="orange" cx="2599.27" cy="-1133.47" rx="27" ry="18"/>
<text text-anchor="middle" x="2599.27" y="-1129.77" font-family="Times,serif" font-size="14.00">49</text>
</g>
<!-- 57 -->
<g id="node26" class="node"><title>57</title>
<ellipse fill="none" stroke="black" cx="2658.13" cy="-1244.88" rx="27" ry="18"/>
<text text-anchor="middle" x="2658.13" y="-1241.18" font-family="Times,serif" font-size="14.00">57</text>
</g>
<!-- 49&#45;&gt;57 -->
<g id="edge25" class="edge"><title>49&#45;&gt;57</title>
<path fill="none" stroke="orange" stroke-width="3" d="M2608.46,-1150.88C2618.05,-1169.03 2633.2,-1197.69 2644.24,-1218.6"/>
<polygon fill="orange" stroke="orange" stroke-width="3" points="2641.23,-1220.39 2648.99,-1227.59 2647.42,-1217.12 2641.23,-1220.39"/>
</g>
<!-- 57&#45;&gt;5 -->
<g id="edge29" class="edge"><title>57&#45;&gt;5</title>
<path fill="none" stroke="black" d="M2667.14,-1261.94C2677.66,-1281.84 2695.15,-1314.95 2707.34,-1338.03"/>
<polygon fill="black" stroke="black" points="2704.28,-1339.74 2712.05,-1346.94 2710.47,-1336.47 2704.28,-1339.74"/>
</g>
<!-- 51 -->
<g id="node27" class="node"><title>51</title>
<ellipse fill="none" stroke="black" cx="1505.22" cy="-2564.53" rx="27" ry="18"/>
<text text-anchor="middle" x="1505.22" y="-2560.83" font-family="Times,serif" font-size="14.00">51</text>
</g>
<!-- 51&#45;&gt;9 -->
<g id="edge26" class="edge"><title>51&#45;&gt;9</title>
<path fill="none" stroke="black" d="M1513.79,-2581.64C1522.99,-2600 1537.72,-2629.4 1548.42,-2650.74"/>
<polygon fill="black" stroke="black" points="1545.4,-2652.54 1553.01,-2659.91 1551.66,-2649.4 1545.4,-2652.54"/>
</g>
<!-- 53 -->
<g id="node28" class="node"><title>53</title>
<ellipse fill="none" stroke="black" cx="2522.55" cy="-1574.77" rx="27" ry="18"/>
<text text-anchor="middle" x="2522.55" y="-1571.07" font-family="Times,serif" font-size="14.00">53</text>
</g>
<!-- 53&#45;&gt;27 -->
<g id="edge27" class="edge"><title>53&#45;&gt;27</title>
<path fill="none" stroke="black" d="M2515.81,-1557.15C2508.45,-1537.91 2496.58,-1506.86 2488.01,-1484.44"/>
<polygon fill="black" stroke="black" points="2491.17,-1482.91 2484.33,-1474.82 2484.63,-1485.41 2491.17,-1482.91"/>
</g>
<!-- 55 -->
<g id="node29" class="node"><title>55</title>
<ellipse fill="none" stroke="black" cx="1730.64" cy="-2592.5" rx="27" ry="18"/>
<text text-anchor="middle" x="1730.64" y="-2588.8" font-family="Times,serif" font-size="14.00">55</text>
</g>
<!-- 55&#45;&gt;9 -->
<g id="edge28" class="edge"><title>55&#45;&gt;9</title>
<path fill="none" stroke="black" d="M1708.89,-2603.4C1679.24,-2618.26 1625.95,-2644.96 1592.27,-2661.84"/>
<polygon fill="black" stroke="black" points="1590.7,-2658.71 1583.33,-2666.32 1593.83,-2664.97 1590.7,-2658.71"/>
</g>
<!-- 59 -->
<g id="node30" class="node"><title>59</title>
<ellipse fill="none" stroke="black" cx="3664.26" cy="-1339.11" rx="27" ry="18"/>
<text text-anchor="middle" x="3664.26" y="-1335.41" font-family="Times,serif" font-size="14.00">59</text>
</g>
<!-- 59&#45;&gt;15 -->
<g id="edge30" class="edge"><title>59&#45;&gt;15</title>
<path fill="none" stroke="black" d="M3657.12,-1356.57C3649.32,-1375.63 3636.73,-1406.41 3627.65,-1428.62"/>
<polygon fill="black" stroke="black" points="3624.3,-1427.57 3623.75,-1438.15 3630.78,-1430.22 3624.3,-1427.57"/>
</g>
<!-- 61 -->
<g id="node31" class="node"><title>61</title>
<ellipse fill="none" stroke="black" cx="1023.29" cy="-18" rx="27" ry="18"/>
<text text-anchor="middle" x="1023.29" y="-14.3" font-family="Times,serif" font-size="14.00">61</text>
</g>
<!-- 61&#45;&gt;31 -->
<g id="edge31" class="edge"><title>61&#45;&gt;31</title>
<path fill="none" stroke="black" d="M1028.99,-35.6948C1035.36,-55.4451 1045.74,-87.6435 1053.15,-110.626"/>
<polygon fill="black" stroke="black" points="1049.83,-111.71 1056.23,-120.154 1056.49,-109.562 1049.83,-111.71"/>
</g>
<!-- 63 -->
<g id="node32" class="node"><title>63</title>
<ellipse fill="none" stroke="black" cx="1571.09" cy="-3433.12" rx="27" ry="18"/>
<text text-anchor="middle" x="1571.09" y="-3429.42" font-family="Times,serif" font-size="14.00">63</text>
</g>
<!-- 63&#45;&gt;13 -->
<g id="edge32" class="edge"><title>63&#45;&gt;13</title>
<path fill="none" stroke="black" d="M1570.86,-3414.89C1570.11,-3354.02 1567.65,-3157.45 1566.73,-3083.57"/>
<polygon fill="black" stroke="black" points="1570.23,-3083.15 1566.6,-3073.2 1563.23,-3083.24 1570.23,-3083.15"/>
</g>
<!-- 65 -->
<g id="node33" class="node"><title>65</title>
<ellipse fill="none" stroke="black" cx="27" cy="-858.424" rx="27" ry="18"/>
<text text-anchor="middle" x="27" y="-854.724" font-family="Times,serif" font-size="14.00">65</text>
</g>
<!-- 65&#45;&gt;21 -->
<g id="edge33" class="edge"><title>65&#45;&gt;21</title>
<path fill="none" stroke="black" d="M48.2711,-869.53C65.2416,-878.391 89.2347,-890.919 108.241,-900.844"/>
<polygon fill="black" stroke="black" points="106.634,-903.953 117.119,-905.479 109.874,-897.748 106.634,-903.953"/>
</g>
<!-- 67 -->
<g id="node34" class="node"><title>67</title>
<ellipse fill="none" stroke="black" cx="1385.71" cy="-2857.58" rx="27" ry="18"/>
<text text-anchor="middle" x="1385.71" y="-2853.88" font-family="Times,serif" font-size="14.00">67</text>
</g>
<!-- 67&#45;&gt;17 -->
<g id="edge34" class="edge"><title>67&#45;&gt;17</title>
<path fill="none" stroke="black" d="M1400.63,-2842.28C1414.54,-2828.02 1435.45,-2806.58 1451.34,-2790.29"/>
<polygon fill="black" stroke="black" points="1454.21,-2792.36 1458.69,-2782.75 1449.2,-2787.47 1454.21,-2792.36"/>
</g>
<!-- 69 -->
<g id="node35" class="node"><title>69</title>
<ellipse fill="none" stroke="black" cx="2888.69" cy="-2098.8" rx="27" ry="18"/>
<text text-anchor="middle" x="2888.69" y="-2095.1" font-family="Times,serif" font-size="14.00">69</text>
</g>
<!-- 69&#45;&gt;3 -->
<g id="edge35" class="edge"><title>69&#45;&gt;3</title>
<path fill="none" stroke="black" d="M2898.38,-2081.91C2937.21,-2014.21 3081.73,-1762.24 3128.84,-1680.12"/>
<polygon fill="black" stroke="black" points="3132.15,-1681.39 3134.08,-1670.97 3126.07,-1677.91 3132.15,-1681.39"/>
</g>
<!-- 71 -->
<g id="node36" class="node"><title>71</title>
<ellipse fill="none" stroke="black" cx="1696.96" cy="-2809.14" rx="27" ry="18"/>
<text text-anchor="middle" x="1696.96" y="-2805.44" font-family="Times,serif" font-size="14.00">71</text>
</g>
<!-- 71&#45;&gt;9 -->
<g id="edge36" class="edge"><title>71&#45;&gt;9</title>
<path fill="none" stroke="black" d="M1681.71,-2794.26C1657.95,-2771.1 1612,-2726.27 1584.35,-2699.31"/>
<polygon fill="black" stroke="black" points="1586.68,-2696.68 1577.07,-2692.21 1581.79,-2701.7 1586.68,-2696.68"/>
</g>
<!-- 73 -->
<g id="node37" class="node"><title>73</title>
<ellipse fill="none" stroke="black" cx="2814.62" cy="-1739.18" rx="27" ry="18"/>
<text text-anchor="middle" x="2814.62" y="-1735.48" font-family="Times,serif" font-size="14.00">73</text>
</g>
<!-- 73&#45;&gt;37 -->
<g id="edge37" class="edge"><title>73&#45;&gt;37</title>
<path fill="none" stroke="black" d="M2810.18,-1721.4C2805.15,-1701.21 2796.87,-1668.02 2791,-1644.47"/>
<polygon fill="black" stroke="black" points="2794.38,-1643.58 2788.57,-1634.72 2787.59,-1645.27 2794.38,-1643.58"/>
</g>
<!-- 75 -->
<g id="node38" class="node"><title>75</title>
<ellipse fill="none" stroke="black" cx="1185.14" cy="-164.397" rx="27" ry="18"/>
<text text-anchor="middle" x="1185.14" y="-160.697" font-family="Times,serif" font-size="14.00">75</text>
</g>
<!-- 75&#45;&gt;31 -->
<g id="edge38" class="edge"><title>75&#45;&gt;31</title>
<path fill="none" stroke="black" d="M1159.32,-158.847C1141.41,-154.999 1117.34,-149.825 1097.61,-145.584"/>
<polygon fill="black" stroke="black" points="1098.26,-142.144 1087.74,-143.464 1096.79,-148.987 1098.26,-142.144"/>
</g>
<!-- 77 -->
<g id="node39" class="node"><title>77</title>
<ellipse fill="none" stroke="black" cx="2721.05" cy="-1944.16" rx="27" ry="18"/>
<text text-anchor="middle" x="2721.05" y="-1940.46" font-family="Times,serif" font-size="14.00">77</text>
</g>
<!-- 77&#45;&gt;3 -->
<g id="edge39" class="edge"><title>77&#45;&gt;3</title>
<path fill="none" stroke="black" d="M2740.03,-1931.13C2807.64,-1884.74 3036.82,-1727.46 3116.34,-1672.9"/>
<polygon fill="black" stroke="black" points="3118.59,-1675.6 3124.85,-1667.06 3114.62,-1669.83 3118.59,-1675.6"/>
</g>
<!-- 79 -->
<g id="node40" class="node"><title>79</title>
<ellipse fill="none" stroke="black" cx="2841.57" cy="-1132.81" rx="27" ry="18"/>
<text text-anchor="middle" x="2841.57" y="-1129.11" font-family="Times,serif" font-size="14.00">79</text>
</g>
<!-- 79&#45;&gt;5 -->
<g id="edge40" class="edge"><title>79&#45;&gt;5</title>
<path fill="none" stroke="black" d="M2832.51,-1150.19C2811.56,-1190.36 2759.67,-1289.89 2734.79,-1337.62"/>
<polygon fill="black" stroke="black" points="2731.57,-1336.23 2730.05,-1346.71 2737.77,-1339.46 2731.57,-1336.23"/>
</g>
<!-- 81 -->
<g id="node41" class="node"><title>81</title>
<ellipse fill="orange" stroke="orange" cx="3104.8" cy="-1316.32" rx="27" ry="18"/>
<text text-anchor="middle" x="3104.8" y="-1312.62" font-family="Times,serif" font-size="14.00">81</text>
</g>
<!-- 121 -->
<g id="node42" class="node"><title>121</title>
<ellipse fill="orange" stroke="orange" cx="2979.76" cy="-1331.84" rx="27" ry="18"/>
<text text-anchor="middle" x="2979.76" y="-1328.14" font-family="Times,serif" font-size="14.00">121</text>
</g>
<!-- 81&#45;&gt;121 -->
<g id="edge41" class="edge"><title>81&#45;&gt;121</title>
<path fill="none" stroke="orange" stroke-width="3" d="M3077.97,-1319.65C3060.09,-1321.87 3036.35,-1324.82 3016.68,-1327.26"/>
<polygon fill="orange" stroke="orange" stroke-width="3" points="3016.03,-1323.81 3006.54,-1328.52 3016.89,-1330.76 3016.03,-1323.81"/>
</g>
<!-- 133 -->
<g id="node53" class="node"><title>133</title>
<ellipse fill="none" stroke="black" cx="2854.72" cy="-1347.37" rx="27" ry="18"/>
<text text-anchor="middle" x="2854.72" y="-1343.67" font-family="Times,serif" font-size="14.00">133</text>
</g>
<!-- 121&#45;&gt;133 -->
<g id="edge52" class="edge"><title>121&#45;&gt;133</title>
<path fill="none" stroke="orange" stroke-width="3" d="M2952.93,-1335.18C2935.05,-1337.4 2911.31,-1340.35 2891.65,-1342.79"/>
<polygon fill="orange" stroke="orange" stroke-width="3" points="2890.99,-1339.34 2881.5,-1344.05 2891.85,-1346.29 2890.99,-1339.34"/>
</g>
<!-- 83 -->
<g id="node43" class="node"><title>83</title>
<ellipse fill="none" stroke="black" cx="245.042" cy="-849.175" rx="27" ry="18"/>
<text text-anchor="middle" x="245.042" y="-845.475" font-family="Times,serif" font-size="14.00">83</text>
</g>
<!-- 83&#45;&gt;21 -->
<g id="edge42" class="edge"><title>83&#45;&gt;21</title>
<path fill="none" stroke="black" d="M225.038,-861.884C208.595,-872.331 185.105,-887.255 166.776,-898.9"/>
<polygon fill="black" stroke="black" points="164.809,-896.003 158.246,-904.319 168.563,-901.911 164.809,-896.003"/>
</g>
<!-- 85 -->
<g id="node44" class="node"><title>85</title>
<ellipse fill="none" stroke="black" cx="2432.55" cy="-1339.39" rx="27" ry="18"/>
<text text-anchor="middle" x="2432.55" y="-1335.69" font-family="Times,serif" font-size="14.00">85</text>
</g>
<!-- 85&#45;&gt;27 -->
<g id="edge43" class="edge"><title>85&#45;&gt;27</title>
<path fill="none" stroke="black" d="M2439.28,-1357.01C2446.64,-1376.25 2458.52,-1407.31 2467.09,-1429.73"/>
<polygon fill="black" stroke="black" points="2463.92,-1431.25 2470.76,-1439.34 2470.46,-1428.75 2463.92,-1431.25"/>
</g>
<!-- 87 -->
<g id="node45" class="node"><title>87</title>
<ellipse fill="none" stroke="black" cx="3733.19" cy="-1503.43" rx="27" ry="18"/>
<text text-anchor="middle" x="3733.19" y="-1499.73" font-family="Times,serif" font-size="14.00">87</text>
</g>
<!-- 87&#45;&gt;15 -->
<g id="edge44" class="edge"><title>87&#45;&gt;15</title>
<path fill="none" stroke="black" d="M3710.15,-1494C3692.77,-1486.9 3668.7,-1477.05 3649.32,-1469.13"/>
<polygon fill="black" stroke="black" points="3650.54,-1465.84 3639.96,-1465.3 3647.89,-1472.32 3650.54,-1465.84"/>
</g>
<!-- 89 -->
<g id="node46" class="node"><title>89</title>
<ellipse fill="none" stroke="black" cx="374.875" cy="-3731.9" rx="27" ry="18"/>
<text text-anchor="middle" x="374.875" y="-3728.2" font-family="Times,serif" font-size="14.00">89</text>
</g>
<!-- 89&#45;&gt;45 -->
<g id="edge45" class="edge"><title>89&#45;&gt;45</title>
<path fill="none" stroke="black" d="M361.942,-3715.6C349.283,-3699.65 329.855,-3675.17 315.463,-3657.03"/>
<polygon fill="black" stroke="black" points="318.204,-3654.86 309.247,-3649.2 312.721,-3659.21 318.204,-3654.86"/>
</g>
<!-- 91 -->
<g id="node47" class="node"><title>91</title>
<ellipse fill="none" stroke="black" cx="388.809" cy="-2437.07" rx="27" ry="18"/>
<text text-anchor="middle" x="388.809" y="-2433.37" font-family="Times,serif" font-size="14.00">91</text>
</g>
<!-- 91&#45;&gt;7 -->
<g id="edge46" class="edge"><title>91&#45;&gt;7</title>
<path fill="none" stroke="black" d="M399.869,-2453.53C457.566,-2539.4 724.015,-2935.95 793.714,-3039.69"/>
<polygon fill="black" stroke="black" points="790.815,-3041.65 799.297,-3048 796.625,-3037.74 790.815,-3041.65"/>
</g>
<!-- 93 -->
<g id="node48" class="node"><title>93</title>
<ellipse fill="none" stroke="black" cx="2151.56" cy="-178.698" rx="27" ry="18"/>
<text text-anchor="middle" x="2151.56" y="-174.998" font-family="Times,serif" font-size="14.00">93</text>
</g>
<!-- 93&#45;&gt;1 -->
<g id="edge47" class="edge"><title>93&#45;&gt;1</title>
<path fill="none" stroke="black" d="M2144.4,-196.295C2088.73,-333.011 1724.07,-1228.53 1595.53,-1544.17"/>
<polygon fill="black" stroke="black" points="1592.14,-1543.21 1591.61,-1553.8 1598.63,-1545.85 1592.14,-1543.21"/>
</g>
<!-- 95 -->
<g id="node49" class="node"><title>95</title>
<ellipse fill="none" stroke="black" cx="3568.87" cy="-1572.36" rx="27" ry="18"/>
<text text-anchor="middle" x="3568.87" y="-1568.66" font-family="Times,serif" font-size="14.00">95</text>
</g>
<!-- 95&#45;&gt;15 -->
<g id="edge48" class="edge"><title>95&#45;&gt;15</title>
<path fill="none" stroke="black" d="M3576.01,-1554.9C3583.81,-1535.83 3596.39,-1505.06 3605.48,-1482.84"/>
<polygon fill="black" stroke="black" points="3608.83,-1483.89 3609.37,-1473.31 3602.35,-1481.24 3608.83,-1483.89"/>
</g>
<!-- 97 -->
<g id="node50" class="node"><title>97</title>
<ellipse fill="none" stroke="black" cx="2540.41" cy="-1022.06" rx="27" ry="18"/>
<text text-anchor="middle" x="2540.41" y="-1018.36" font-family="Times,serif" font-size="14.00">97</text>
</g>
<!-- 97&#45;&gt;49 -->
<g id="edge49" class="edge"><title>97&#45;&gt;49</title>
<path fill="none" stroke="black" d="M2549.6,-1039.47C2559.19,-1057.62 2574.34,-1086.29 2585.38,-1107.19"/>
<polygon fill="black" stroke="black" points="2582.37,-1108.98 2590.14,-1116.19 2588.56,-1105.71 2582.37,-1108.98"/>
</g>
<!-- 99 -->
<g id="node51" class="node"><title>99</title>
<ellipse fill="none" stroke="black" cx="100.752" cy="-3386.45" rx="27" ry="18"/>
<text text-anchor="middle" x="100.752" y="-3382.75" font-family="Times,serif" font-size="14.00">99</text>
</g>
<!-- 99&#45;&gt;39 -->
<g id="edge50" class="edge"><title>99&#45;&gt;39</title>
<path fill="none" stroke="black" d="M113.548,-3402.58C134.204,-3428.61 175.014,-3480.04 199.125,-3510.42"/>
<polygon fill="black" stroke="black" points="196.495,-3512.74 205.453,-3518.4 201.978,-3508.39 196.495,-3512.74"/>
</g>
<!-- 101 -->
<g id="node52" class="node"><title>101</title>
<ellipse fill="none" stroke="black" cx="1448.77" cy="-2451.88" rx="27" ry="18"/>
<text text-anchor="middle" x="1448.77" y="-2448.18" font-family="Times,serif" font-size="14.00">101</text>
</g>
<!-- 101&#45;&gt;51 -->
<g id="edge51" class="edge"><title>101&#45;&gt;51</title>
<path fill="none" stroke="black" d="M1457.34,-2468.99C1466.54,-2487.35 1481.27,-2516.75 1491.97,-2538.09"/>
<polygon fill="black" stroke="black" points="1488.95,-2539.89 1496.56,-2547.26 1495.21,-2536.75 1488.95,-2539.89"/>
</g>
<!-- 133&#45;&gt;5 -->
<g id="edge53" class="edge"><title>133&#45;&gt;5</title>
<path fill="none" stroke="black" d="M2827.99,-1350.69C2807.86,-1353.19 2780.04,-1356.65 2757.81,-1359.41"/>
<polygon fill="black" stroke="black" points="2757.22,-1355.96 2747.73,-1360.66 2758.09,-1362.9 2757.22,-1355.96"/>
</g>
</g>
</svg>
