%!PS-Adobe-3.0 EPSF-3.0
%%Creator: cairo 1.14.8 (http://cairographics.org)
%%CreationDate: Fri Aug 25 02:13:32 2017
%%Pages: 1
%%DocumentData: Clean7Bit
%%LanguageLevel: 2
%%BoundingBox: 0 0 192 192
%%EndComments
%%BeginProlog
save
50 dict begin
/q { gsave } bind def
/Q { grestore } bind def
/cm { 6 array astore concat } bind def
/w { setlinewidth } bind def
/J { setlinecap } bind def
/j { setlinejoin } bind def
/M { setmiterlimit } bind def
/d { setdash } bind def
/m { moveto } bind def
/l { lineto } bind def
/c { curveto } bind def
/h { closepath } bind def
/re { exch dup neg 3 1 roll 5 3 roll moveto 0 rlineto
      0 exch rlineto 0 rlineto closepath } bind def
/S { stroke } bind def
/f { fill } bind def
/f* { eofill } bind def
/n { newpath } bind def
/W { clip } bind def
/W* { eoclip } bind def
/BT { } bind def
/ET { } bind def
/pdfmark where { pop globaldict /?pdfmark /exec load put }
    { globaldict begin /?pdfmark /pop load def /pdfmark
    /cleartomark load def end } ifelse
/BDC { mark 3 1 roll /BDC pdfmark } bind def
/EMC { mark /EMC pdfmark } bind def
/cairo_store_point { /cairo_point_y exch def /cairo_point_x exch def } def
/Tj { show currentpoint cairo_store_point } bind def
/TJ {
  {
    dup
    type /stringtype eq
    { show } { -0.001 mul 0 cairo_font_matrix dtransform rmoveto } ifelse
  } forall
  currentpoint cairo_store_point
} bind def
/cairo_selectfont { cairo_font_matrix aload pop pop pop 0 0 6 array astore
    cairo_font exch selectfont cairo_point_x cairo_point_y moveto } bind def
/Tf { pop /cairo_font exch def /cairo_font_matrix where
      { pop cairo_selectfont } if } bind def
/Td { matrix translate cairo_font_matrix matrix concatmatrix dup
      /cairo_font_matrix exch def dup 4 get exch 5 get cairo_store_point
      /cairo_font where { pop cairo_selectfont } if } bind def
/Tm { 2 copy 8 2 roll 6 array astore /cairo_font_matrix exch def
      cairo_store_point /cairo_font where { pop cairo_selectfont } if } bind def
/g { setgray } bind def
/rg { setrgbcolor } bind def
/d1 { setcachedevice } bind def
%%EndProlog
%%BeginSetup
%%EndSetup
%%Page: 1 1
%%BeginPageSetup
%%PageBoundingBox: 0 0 192 192
%%EndPageSetup
q 0 0 192 192 rectclip q
0.65098 0.807843 0.223529 rg
192 96 m 192 42.977 149.023 0 96 0 c 42.977 0 0 42.977 0 96 c 0 149.023
 42.977 192 96 192 c 149.023 192 192 149.023 192 96 c h
192 96 m f
1 g
53.176 132.676 11.551 -80.324 re f
81.676 132.676 m 112.875 132.676 l 142.574 132.676 155.625 111.449 155.625
 92.477 c 155.625 71.852 139.5 52.273 113.023 52.273 c 81.676 52.273 l h
93.227 62.699 m 111.602 62.699 l 137.773 62.699 143.773 82.574 143.773 
92.477 c 143.773 108.602 133.5 122.25 111 122.25 c 93.227 122.25 l h
93.227 62.699 m f
66.523 149.398 m 66.523 145.273 63.148 141.824 58.949 141.824 c 54.75 141.824
 51.375 145.273 51.375 149.398 c 51.375 153.602 54.75 156.977 58.949 156.977
 c 63.148 156.977 66.523 153.523 66.523 149.398 c h
66.523 149.398 m f
Q Q
showpage
%%Trailer
end restore
%%EOF
