%!PS-Adobe-3.0 EPSF-3.0
%%Creator: cairo 1.14.8 (http://cairographics.org)
%%CreationDate: Thu Mar 21 22:47:26 2019
%%Pages: 1
%%DocumentData: Clean7Bit
%%LanguageLevel: 2
%%BoundingBox: 0 0 24 15
%%EndComments
%%BeginProlog
save
50 dict begin
/q { gsave } bind def
/Q { grestore } bind def
/cm { 6 array astore concat } bind def
/w { setlinewidth } bind def
/J { setlinecap } bind def
/j { setlinejoin } bind def
/M { setmiterlimit } bind def
/d { setdash } bind def
/m { moveto } bind def
/l { lineto } bind def
/c { curveto } bind def
/h { closepath } bind def
/re { exch dup neg 3 1 roll 5 3 roll moveto 0 rlineto
      0 exch rlineto 0 rlineto closepath } bind def
/S { stroke } bind def
/f { fill } bind def
/f* { eofill } bind def
/n { newpath } bind def
/W { clip } bind def
/W* { eoclip } bind def
/BT { } bind def
/ET { } bind def
/pdfmark where { pop globaldict /?pdfmark /exec load put }
    { globaldict begin /?pdfmark /pop load def /pdfmark
    /cleartomark load def end } ifelse
/BDC { mark 3 1 roll /BDC pdfmark } bind def
/EMC { mark /EMC pdfmark } bind def
/cairo_store_point { /cairo_point_y exch def /cairo_point_x exch def } def
/Tj { show currentpoint cairo_store_point } bind def
/TJ {
  {
    dup
    type /stringtype eq
    { show } { -0.001 mul 0 cairo_font_matrix dtransform rmoveto } ifelse
  } forall
  currentpoint cairo_store_point
} bind def
/cairo_selectfont { cairo_font_matrix aload pop pop pop 0 0 6 array astore
    cairo_font exch selectfont cairo_point_x cairo_point_y moveto } bind def
/Tf { pop /cairo_font exch def /cairo_font_matrix where
      { pop cairo_selectfont } if } bind def
/Td { matrix translate cairo_font_matrix matrix concatmatrix dup
      /cairo_font_matrix exch def dup 4 get exch 5 get cairo_store_point
      /cairo_font where { pop cairo_selectfont } if } bind def
/Tm { 2 copy 8 2 roll 6 array astore /cairo_font_matrix exch def
      cairo_store_point /cairo_font where { pop cairo_selectfont } if } bind def
/g { setgray } bind def
/rg { setrgbcolor } bind def
/d1 { setcachedevice } bind def
%%EndProlog
%%BeginSetup
%%EndSetup
%%Page: 1 1
%%BeginPageSetup
%%PageBoundingBox: 0 0 24 15
%%EndPageSetup
q 0 0 24 15 rectclip q
0 0.572549 0.529412 rg
10.023 5.625 m 4.688 5.625 l 2.098 5.625 0 7.723 0 10.312 c 0 12.902 2.098
 15 4.688 15 c 10.914 15 l 11.949 15 12.789 14.16 12.789 13.125 c 12.789
 12.09 11.949 11.25 10.914 11.25 c 4.59 11.25 l 4.074 11.25 3.652 10.832
 3.652 10.312 c 3.652 9.793 4.074 9.375 4.59 9.375 c 9.93 9.375 l 12.52 
9.375 14.617 7.277 14.617 4.688 c 14.617 2.098 12.52 0 9.93 0 c 1.875 0 
l 0.84 0 0 0.84 0 1.875 c 0 2.91 0.84 3.75 1.875 3.75 c 10.023 3.75 l 10.543
 3.75 10.961 4.168 10.961 4.688 c 10.961 5.207 10.543 5.625 10.023 5.625
 c h
13.969 0 m 15.219 0.844 16.109 2.188 16.367 3.75 c 19.391 3.75 l 19.902
 3.75 20.312 4.168 20.312 4.688 c 20.312 10.312 l 20.312 10.832 19.902 11.25
 19.391 11.25 c 13.895 11.25 l 14.332 11.746 14.598 12.406 14.598 13.125
 c 14.598 13.844 14.332 14.504 13.895 15 c 20.312 15 l 22.348 15 24 13.32
 24 11.25 c 24 3.75 l 24 1.68 22.348 0 20.312 0 c h
13.969 0 m f*
Q Q
showpage
%%Trailer
end restore
%%EOF
