digraph "sigma odd" {
  layout="circo";

  1 [style=filled, height=3, width=3];
1 -> 1;
3 -> 1;
5 -> 3;
7 -> 1;
  9 [color=orange, style=filled];
9 -> 13 [color=orange, penwidth=3];
11 -> 3;
13 -> 7;
15 -> 3;
17 -> 9;
19 -> 5;
21 -> 1;
23 -> 3;
  25 [color=orange, style=filled];
25 -> 31 [color=orange, penwidth=3];
27 -> 5;
29 -> 15;
31 -> 1;
33 -> 3;
35 -> 3;
37 -> 19;
39 -> 7;
41 -> 21;
43 -> 11;
45 -> 39;
47 -> 3;
  49 [color=orange, style=filled];
49 -> 57 [color=orange, penwidth=3];
51 -> 9;
53 -> 27;
55 -> 9;
57 -> 5;
59 -> 15;
61 -> 31;
63 -> 13;
65 -> 21;
67 -> 17;
69 -> 3;
71 -> 9;
73 -> 37;
75 -> 31;
77 -> 3;
79 -> 5;
  81 [color=orange, style=filled];
81 -> 121 [color=orange, penwidth=3];
83 -> 21;
85 -> 27;
87 -> 15;
89 -> 45;
91 -> 7;
93 -> 1;
95 -> 15;
97 -> 49;
99 -> 39;
101 -> 51;
103 -> 13;
105 -> 3;
107 -> 27;
109 -> 55;
111 -> 19;
113 -> 57;
115 -> 9;
117 -> 91;
119 -> 9;
  121 [color=orange, style=filled];
121 -> 133 [color=orange, penwidth=3];
123 -> 21;
125 -> 39;
127 -> 1;
129 -> 11;
131 -> 33;
133 -> 5;
135 -> 15;
137 -> 69;
139 -> 35;
141 -> 3;
143 -> 21;
145 -> 45;
147 -> 57;
149 -> 75;
151 -> 19;
153 -> 117;
155 -> 3;
157 -> 79;
159 -> 27;
161 -> 3;
163 -> 41;
165 -> 9;
167 -> 21;
  169 [color=orange, style=filled];
169 -> 183 [color=orange, penwidth=3];
171 -> 65;
173 -> 87;
175 -> 31;
177 -> 15;
179 -> 45;
181 -> 91;
183 -> 31;
185 -> 57;
187 -> 27;
189 -> 5;
191 -> 3;
193 -> 97;
195 -> 21;
197 -> 99;
199 -> 25;
201 -> 17;
203 -> 15;
205 -> 63;
207 -> 39;
209 -> 15;
211 -> 53;
213 -> 9;
215 -> 33;
217 -> 1;
219 -> 37;
221 -> 63;
223 -> 7;
  225 [color=orange, style=filled];
225 -> 403 [color=orange, penwidth=3];
227 -> 57;
229 -> 115;
231 -> 3;
233 -> 117;
235 -> 9;
237 -> 5;
239 -> 15;
241 -> 121;
243 -> 91;
245 -> 171;
247 -> 35;
249 -> 21;
251 -> 63;
253 -> 9;
255 -> 27;
257 -> 129;
259 -> 19;
261 -> 195;
263 -> 33;
265 -> 81;
267 -> 45;
269 -> 135;
271 -> 17;
273 -> 7;
275 -> 93;
277 -> 139;
279 -> 13;
281 -> 141;
283 -> 71;
285 -> 15;
287 -> 21;
  289 [color=orange, style=filled];
289 -> 307 [color=orange, penwidth=3];
291 -> 49;
293 -> 147;
295 -> 45;
297 -> 15;
299 -> 21;
301 -> 11;
303 -> 51;
305 -> 93;
307 -> 77;
309 -> 13;
311 -> 39;
313 -> 157;
315 -> 39;
317 -> 159;
319 -> 45;
321 -> 27;
323 -> 45;
325 -> 217;
327 -> 55;
329 -> 3;
331 -> 83;
333 -> 247;
335 -> 51;
337 -> 169;
339 -> 57;
341 -> 3;
343 -> 25;
345 -> 9;
347 -> 87;
349 -> 175;
351 -> 35;
353 -> 177;
355 -> 27;
357 -> 9;
359 -> 45;
  361 [color=orange, style=filled];
361 -> 381 [color=orange, penwidth=3];
363 -> 133;
365 -> 111;
367 -> 23;
369 -> 273;
371 -> 27;
373 -> 187;
375 -> 39;
377 -> 105;
379 -> 95;
381 -> 1;
383 -> 3;
385 -> 9;
387 -> 143;
389 -> 195;
391 -> 27;
393 -> 33;
395 -> 15;
397 -> 199;
399 -> 5;
401 -> 201;
403 -> 7;
405 -> 363;
407 -> 57;
409 -> 205;
411 -> 69;
413 -> 15;
415 -> 63;
417 -> 35;
419 -> 105;
421 -> 211;
423 -> 39;
425 -> 279;
427 -> 31;
429 -> 21;
431 -> 27;
433 -> 217;
435 -> 45;
437 -> 15;
439 -> 55;
  441 [color=orange, style=filled];
441 -> 741 [color=orange, penwidth=3];
443 -> 111;
445 -> 135;
447 -> 75;
449 -> 225;
451 -> 63;
453 -> 19;
455 -> 21;
457 -> 229;
459 -> 45;
461 -> 231;
463 -> 29;
465 -> 3;
467 -> 117;
469 -> 17;
471 -> 79;
473 -> 33;
475 -> 155;
477 -> 351;
479 -> 15;
481 -> 133;
483 -> 3;
485 -> 147;
487 -> 61;
489 -> 41;
491 -> 123;
493 -> 135;
495 -> 117;
497 -> 9;
499 -> 125;
501 -> 21;
503 -> 63;
505 -> 153;
507 -> 183;
509 -> 255;
511 -> 37;
513 -> 25;
515 -> 39;
517 -> 9;
519 -> 87;
521 -> 261;
523 -> 131;
525 -> 31;
527 -> 9;
  529 [color=orange, style=filled];
529 -> 553 [color=orange, penwidth=3];
531 -> 195;
533 -> 147;
535 -> 81;
537 -> 45;
539 -> 171;
541 -> 271;
543 -> 91;
545 -> 165;
547 -> 137;
549 -> 403;
551 -> 75;
553 -> 5;
555 -> 57;
557 -> 279;
559 -> 77;
561 -> 27;
563 -> 141;
565 -> 171;
567 -> 121;
569 -> 285;
571 -> 143;
573 -> 3;
575 -> 93;
577 -> 289;
579 -> 97;
581 -> 21;
583 -> 81;
585 -> 273;
587 -> 147;
589 -> 5;
591 -> 99;
593 -> 297;
595 -> 27;
597 -> 25;
599 -> 75;
601 -> 301;
603 -> 221;
605 -> 399;
607 -> 19;
609 -> 15;
611 -> 21;
613 -> 307;
615 -> 63;
617 -> 309;
619 -> 155;
621 -> 15;
623 -> 45;
  625 [color=orange, style=filled];
625 -> 781 [color=orange, penwidth=3];
627 -> 15;
629 -> 171;
631 -> 79;
633 -> 53;
635 -> 3;
637 -> 399;
639 -> 117;
641 -> 321;
643 -> 161;
645 -> 33;
647 -> 81;
649 -> 45;
651 -> 1;
653 -> 327;
655 -> 99;
657 -> 481;
659 -> 165;
661 -> 331;
663 -> 63;
665 -> 15;
667 -> 45;
669 -> 7;
671 -> 93;
673 -> 337;
675 -> 155;
677 -> 339;
679 -> 49;
681 -> 57;
683 -> 171;
685 -> 207;
687 -> 115;
689 -> 189;
691 -> 173;
693 -> 39;
695 -> 105;
697 -> 189;
699 -> 117;
701 -> 351;
703 -> 95;
705 -> 9;
707 -> 51;
709 -> 355;
711 -> 65;
713 -> 3;
715 -> 63;
717 -> 15;
719 -> 45;
721 -> 13;
723 -> 121;
725 -> 465;
727 -> 91;
  729 [color=orange, style=filled];
729 -> 1093 [color=orange, penwidth=3];
731 -> 99;
733 -> 367;
735 -> 171;
737 -> 51;
739 -> 185;
741 -> 35;
743 -> 93;
745 -> 225;
747 -> 273;
749 -> 27;
751 -> 47;
753 -> 63;
755 -> 57;
757 -> 379;
759 -> 9;
761 -> 381;
763 -> 55;
765 -> 351;
767 -> 105;
769 -> 385;
771 -> 129;
773 -> 387;
775 -> 31;
777 -> 19;
779 -> 105;
781 -> 27;
783 -> 75;
785 -> 237;
787 -> 197;
789 -> 33;
791 -> 57;
793 -> 217;
795 -> 81;
797 -> 399;
799 -> 27;
801 -> 585;
803 -> 111;
805 -> 9;
807 -> 135;
809 -> 405;
811 -> 203;
813 -> 17;
815 -> 123;
817 -> 55;
819 -> 91;
821 -> 411;
823 -> 103;
825 -> 93;
827 -> 207;
829 -> 415;
831 -> 139;
833 -> 513;
835 -> 63;
837 -> 5;
839 -> 105;
  841 [color=orange, style=filled];
841 -> 871 [color=orange, penwidth=3];
843 -> 141;
845 -> 549;
847 -> 133;
849 -> 71;
851 -> 57;
853 -> 427;
855 -> 195;
857 -> 429;
859 -> 215;
861 -> 21;
863 -> 27;
865 -> 261;
867 -> 307;
869 -> 15;
871 -> 119;
873 -> 637;
875 -> 39;
877 -> 439;
879 -> 147;
881 -> 441;
883 -> 221;
885 -> 45;
887 -> 111;
889 -> 1;
891 -> 363;
893 -> 15;
895 -> 135;
897 -> 21;
899 -> 15;
901 -> 243;
903 -> 11;
905 -> 273;
907 -> 227;
909 -> 663;
911 -> 57;
913 -> 63;
915 -> 93;
917 -> 33;
919 -> 115;
921 -> 77;
923 -> 63;
925 -> 589;
927 -> 169;
929 -> 465;
931 -> 285;
933 -> 39;
935 -> 81;
937 -> 469;
939 -> 157;
941 -> 471;
943 -> 63;
945 -> 15;
947 -> 237;
949 -> 259;
951 -> 159;
953 -> 477;
955 -> 9;
957 -> 45;
959 -> 69;
  961 [color=orange, style=filled];
961 -> 993 [color=orange, penwidth=3];
963 -> 351;
965 -> 291;
967 -> 121;
969 -> 45;
971 -> 243;
973 -> 35;
975 -> 217;
977 -> 489;
979 -> 135;
981 -> 715;
983 -> 123;
985 -> 297;
987 -> 3;
989 -> 33;
991 -> 31;
993 -> 83;
995 -> 75;
997 -> 499;
999 -> 95;
1001 -> 21;
1003 -> 135;
1005 -> 51;
1007 -> 135;
1009 -> 505;
1011 -> 169;
1013 -> 507;
1015 -> 45;
1017 -> 741;
1019 -> 255;
1021 -> 511;
1023 -> 3;
1025 -> 651;
1027 -> 35;
1029 -> 25;
1031 -> 129;
1033 -> 517;
1035 -> 117;
1037 -> 279;
1039 -> 65;
1041 -> 87;
1043 -> 75;
1045 -> 45;
1047 -> 175;
1049 -> 525;
1051 -> 263;
1053 -> 847;
1055 -> 159;
1057 -> 19;
1059 -> 177;
1061 -> 531;
1063 -> 133;
1065 -> 27;
1067 -> 147;
1069 -> 535;
1071 -> 117;
1073 -> 285;
1075 -> 341;
1077 -> 45;
1079 -> 147;
1081 -> 9;
1083 -> 381;
1085 -> 3;
1087 -> 17;
  1089 [color=orange, style=filled];
1089 -> 1729 [color=orange, penwidth=3];
1091 -> 273;
1093 -> 547;
1095 -> 111;
1097 -> 549;
1099 -> 79;
1101 -> 23;
1103 -> 69;
1105 -> 189;
1107 -> 105;
1109 -> 555;
1111 -> 153;
1113 -> 27;
1115 -> 21;
1117 -> 559;
1119 -> 187;
1121 -> 75;
1123 -> 281;
1125 -> 507;
1127 -> 171;
1129 -> 565;
1131 -> 105;
1133 -> 39;
1135 -> 171;
1137 -> 95;
1139 -> 153;
1141 -> 41;
1143 -> 13;
1145 -> 345;
1147 -> 19;
1149 -> 3;
1151 -> 9;
1153 -> 577;
1155 -> 9;
1157 -> 315;
1159 -> 155;
1161 -> 55;
1163 -> 291;
1165 -> 351;
1167 -> 195;
1169 -> 21;
1171 -> 293;
1173 -> 27;
1175 -> 93;
1177 -> 81;
1179 -> 429;
1181 -> 591;
1183 -> 183;
1185 -> 15;
1187 -> 297;
1189 -> 315;
1191 -> 199;
1193 -> 597;
1195 -> 45;
1197 -> 65;
1199 -> 165;
1201 -> 601;
1203 -> 201;
1205 -> 363;
1207 -> 81;
1209 -> 7;
1211 -> 87;
1213 -> 607;
1215 -> 273;
1217 -> 609;
1219 -> 81;
1221 -> 57;
1223 -> 153;
  1225 [color=orange, style=filled];
1225 -> 1767 [color=orange, penwidth=3];
1227 -> 205;
1229 -> 615;
1231 -> 77;
1233 -> 897;
1235 -> 105;
1237 -> 619;
1239 -> 15;
1241 -> 333;
1243 -> 171;
1245 -> 63;
1247 -> 165;
1249 -> 625;
1251 -> 455;
1253 -> 45;
1255 -> 189;
1257 -> 105;
1259 -> 315;
1261 -> 343;
1263 -> 211;
1265 -> 27;
1267 -> 91;
1269 -> 15;
1271 -> 21;
1273 -> 85;
1275 -> 279;
1277 -> 639;
1279 -> 5;
1281 -> 31;
1283 -> 321;
1285 -> 387;
1287 -> 273;
1289 -> 645;
1291 -> 323;
1293 -> 27;
1295 -> 57;
1297 -> 649;
1299 -> 217;
1301 -> 651;
1303 -> 163;
1305 -> 585;
1307 -> 327;
1309 -> 27;
1311 -> 15;
1313 -> 357;
1315 -> 99;
1317 -> 55;
1319 -> 165;
1321 -> 661;
1323 -> 285;
1325 -> 837;
1327 -> 83;
1329 -> 111;
1331 -> 183;
1333 -> 11;
1335 -> 135;
1337 -> 3;
1339 -> 91;
1341 -> 975;
1343 -> 45;
1345 -> 405;
1347 -> 225;
1349 -> 45;
1351 -> 97;
1353 -> 63;
1355 -> 51;
1357 -> 45;
1359 -> 247;
1361 -> 681;
1363 -> 45;
1365 -> 21;
1367 -> 171;
  1369 [color=orange, style=filled];
1369 -> 1407 [color=orange, penwidth=3];
1371 -> 229;
1373 -> 687;
1375 -> 117;
1377 -> 1089;
1379 -> 99;
1381 -> 691;
1383 -> 231;
1385 -> 417;
1387 -> 185;
1389 -> 29;
1391 -> 189;
1393 -> 25;
1395 -> 39;
1397 -> 3;
1399 -> 175;
1401 -> 117;
1403 -> 93;
1405 -> 423;
1407 -> 17;
1409 -> 705;
1411 -> 189;
1413 -> 1027;
1415 -> 213;
1417 -> 385;
1419 -> 33;
1421 -> 855;
1423 -> 89;
1425 -> 155;
1427 -> 357;
1429 -> 715;
1431 -> 135;
1433 -> 717;
1435 -> 63;
1437 -> 15;
1439 -> 45;
1441 -> 99;
1443 -> 133;
1445 -> 921;
1447 -> 181;
1449 -> 39;
1451 -> 363;
1453 -> 727;
1455 -> 147;
1457 -> 3;
1459 -> 365;
1461 -> 61;
1463 -> 15;
1465 -> 441;
1467 -> 533;
1469 -> 399;
1471 -> 23;
1473 -> 123;
1475 -> 465;
1477 -> 53;
1479 -> 135;
1481 -> 741;
1483 -> 371;
1485 -> 45;
1487 -> 93;
1489 -> 745;
1491 -> 9;
1493 -> 747;
1495 -> 63;
1497 -> 125;
1499 -> 375;
1501 -> 25;
1503 -> 273;
1505 -> 33;
1507 -> 207;
1509 -> 63;
1511 -> 189;
1513 -> 405;
1515 -> 153;
1517 -> 399;
1519 -> 57;
  1521 [color=orange, style=filled];
1521 -> 2379 [color=orange, penwidth=3];
1523 -> 381;
1525 -> 961;
1527 -> 255;
1529 -> 105;
1531 -> 383;
1533 -> 37;
1535 -> 231;
1537 -> 405;
1539 -> 605;
1541 -> 51;
1543 -> 193;
1545 -> 39;
1547 -> 63;
1549 -> 775;
1551 -> 9;
1553 -> 777;
1555 -> 117;
1557 -> 1131;
1559 -> 195;
1561 -> 7;
1563 -> 261;
1565 -> 471;
1567 -> 49;
1569 -> 131;
1571 -> 393;
1573 -> 931;
1575 -> 403;
1577 -> 105;
1579 -> 395;
1581 -> 9;
1583 -> 99;
1585 -> 477;
1587 -> 553;
1589 -> 57;
1591 -> 209;
1593 -> 75;
1595 -> 135;
1597 -> 799;
1599 -> 147;
1601 -> 801;
1603 -> 115;
1605 -> 81;
1607 -> 201;
1609 -> 805;
1611 -> 585;
1613 -> 807;
1615 -> 135;
1617 -> 171;
1619 -> 405;
1621 -> 811;
1623 -> 271;
1625 -> 273;
1627 -> 407;
1629 -> 1183;
1631 -> 117;
1633 -> 27;
1635 -> 165;
1637 -> 819;
1639 -> 225;
1641 -> 137;
1643 -> 27;
1645 -> 9;
1647 -> 155;
1649 -> 441;
1651 -> 7;
1653 -> 75;
1655 -> 249;
1657 -> 829;
1659 -> 5;
1661 -> 57;
1663 -> 13;
1665 -> 741;
1667 -> 417;
1669 -> 835;
1671 -> 279;
1673 -> 15;
1675 -> 527;
1677 -> 77;
1679 -> 111;
  1681 [color=orange, style=filled];
1681 -> 1723 [color=orange, penwidth=3];
1683 -> 351;
1685 -> 507;
1687 -> 121;
1689 -> 141;
1691 -> 225;
1693 -> 847;
1695 -> 171;
1697 -> 849;
1699 -> 425;
1701 -> 91;
1703 -> 231;
1705 -> 9;
1707 -> 285;
1709 -> 855;
1711 -> 225;
1713 -> 143;
1715 -> 75;
1717 -> 459;
1719 -> 39;
1721 -> 861;
1723 -> 431;
1725 -> 93;
1727 -> 237;
1729 -> 35;
1731 -> 289;
1733 -> 867;
1735 -> 261;
1737 -> 1261;
1739 -> 57;
1741 -> 871;
1743 -> 21;
1745 -> 525;
1747 -> 437;
1749 -> 81;
1751 -> 117;
1753 -> 877;
1755 -> 105;
1757 -> 63;
1759 -> 55;
1761 -> 147;
1763 -> 231;
1765 -> 531;
1767 -> 5;
1769 -> 465;
1771 -> 9;
1773 -> 1287;
1775 -> 279;
1777 -> 889;
1779 -> 297;
1781 -> 483;
1783 -> 223;
1785 -> 27;
1787 -> 447;
1789 -> 895;
1791 -> 325;
1793 -> 123;
1795 -> 135;
1797 -> 75;
1799 -> 129;
1801 -> 901;
1803 -> 301;
1805 -> 1143;
1807 -> 245;
1809 -> 85;
1811 -> 453;
1813 -> 1083;
1815 -> 399;
1817 -> 15;
1819 -> 243;
1821 -> 19;
1823 -> 57;
1825 -> 1147;
1827 -> 195;
1829 -> 15;
1831 -> 229;
1833 -> 21;
1835 -> 69;
1837 -> 63;
1839 -> 307;
1841 -> 33;
1843 -> 245;
1845 -> 819;
1847 -> 231;
  1849 [color=orange, style=filled];
1849 -> 1893 [color=orange, penwidth=3];
1851 -> 309;
1853 -> 495;
1855 -> 81;
1857 -> 155;
1859 -> 549;
1861 -> 931;
1863 -> 363;
1865 -> 561;
1867 -> 467;
1869 -> 45;
1871 -> 117;
1873 -> 937;
1875 -> 781;
1877 -> 939;
1879 -> 235;
1881 -> 195;
1883 -> 135;
1885 -> 315;
1887 -> 171;
1889 -> 945;
1891 -> 31;
1893 -> 79;
1895 -> 285;
1897 -> 17;
1899 -> 689;
1901 -> 951;
1903 -> 261;
1905 -> 3;
1907 -> 477;
1909 -> 63;
1911 -> 399;
1913 -> 957;
1915 -> 9;
1917 -> 45;
1919 -> 255;
1921 -> 513;
1923 -> 321;
1925 -> 93;
1927 -> 63;
1929 -> 161;
1931 -> 483;
1933 -> 967;
1935 -> 429;
1937 -> 525;
1939 -> 139;
1941 -> 81;
1943 -> 255;
1945 -> 585;
1947 -> 45;
1949 -> 975;
1951 -> 61;
1953 -> 13;
1955 -> 81;
1957 -> 65;
1959 -> 327;
1961 -> 513;
1963 -> 133;
1965 -> 99;
1967 -> 141;
1969 -> 135;
1971 -> 185;
1973 -> 987;
1975 -> 155;
1977 -> 165;
1979 -> 495;
1981 -> 71;
1983 -> 331;
1985 -> 597;
1987 -> 497;
1989 -> 819;
1991 -> 273;
1993 -> 997;
1995 -> 15;
1997 -> 999;
1999 -> 125;
2001 -> 45;
2003 -> 501;
2005 -> 603;
2007 -> 91;
2009 -> 1197;
2011 -> 503;
2013 -> 93;
2015 -> 21;
2017 -> 1009;
2019 -> 337;
2021 -> 33;
2023 -> 307;
  2025 [color=orange, style=filled];
2025 -> 3751 [color=orange, penwidth=3];
2027 -> 507;
2029 -> 1015;
2031 -> 339;
2033 -> 135;
2035 -> 171;
2037 -> 49;
2039 -> 255;
2041 -> 553;
2043 -> 741;
2045 -> 615;
2047 -> 135;
2049 -> 171;
2051 -> 147;
2053 -> 1027;
2055 -> 207;
2057 -> 1197;
2059 -> 135;
2061 -> 1495;
2063 -> 129;
2065 -> 45;
2067 -> 189;
2069 -> 1035;
2071 -> 275;
2073 -> 173;
2075 -> 651;
2077 -> 17;
2079 -> 15;
2081 -> 1041;
2083 -> 521;
2085 -> 105;
2087 -> 261;
2089 -> 1045;
2091 -> 189;
2093 -> 21;
2095 -> 315;
2097 -> 1521;
2099 -> 525;
2101 -> 9;
2103 -> 351;
2105 -> 633;
2107 -> 627;
2109 -> 95;
2111 -> 33;
2113 -> 1057;
2115 -> 117;
2117 -> 555;
2119 -> 287;
2121 -> 51;
2123 -> 291;
2125 -> 351;
2127 -> 355;
2129 -> 1065;
2131 -> 533;
2133 -> 25;
2135 -> 93;
2137 -> 1069;
2139 -> 3;
2141 -> 1071;
2143 -> 67;
2145 -> 63;
2147 -> 285;
2149 -> 77;
2151 -> 195;
2153 -> 1077;
2155 -> 81;
2157 -> 45;
2159 -> 9;
2161 -> 1081;
2163 -> 13;
2165 -> 651;
2167 -> 297;
2169 -> 1573;
2171 -> 147;
2173 -> 567;
2175 -> 465;
2177 -> 39;
2179 -> 545;
2181 -> 91;
2183 -> 285;
2185 -> 45;
2187 -> 205;
2189 -> 75;
2191 -> 157;
2193 -> 99;
2195 -> 165;
2197 -> 595;
2199 -> 367;
2201 -> 9;
2203 -> 551;
  2205 [color=red, style=filled];
2205 -> 2223 [color=red, penwidth=5];
2207 -> 69;
  2209 [color=orange, style=filled];
2209 -> 2257 [color=orange, penwidth=3];
2211 -> 51;
2213 -> 1107;
2215 -> 333;
2217 -> 185;
2219 -> 159;
2221 -> 1111;
2223 -> 455;
2225 -> 1395;
2227 -> 297;
2229 -> 93;
2231 -> 147;
2233 -> 45;
2235 -> 225;
2237 -> 1119;
2239 -> 35;
2241 -> 105;
2243 -> 561;
2245 -> 675;
2247 -> 27;
2249 -> 609;
2251 -> 563;
2253 -> 47;
2255 -> 189;
2257 -> 589;
2259 -> 819;
2261 -> 45;
2263 -> 37;
2265 -> 57;
2267 -> 567;
2269 -> 1135;
2271 -> 379;
2273 -> 1137;
2275 -> 217;
2277 -> 117;
2279 -> 297;
2281 -> 1141;
2283 -> 381;
2285 -> 687;
2287 -> 143;
2289 -> 55;
2291 -> 75;
2293 -> 1147;
2295 -> 135;
2297 -> 1149;
2299 -> 665;
2301 -> 105;
2379 -> 217;
3751 -> 133;
}
