digraph "sigma odd" {
  rankdir="LR";

  1 [style=filled];
1 -> 1;
3 -> 1;
5 -> 3;
7 -> 1;
  9 [color=orange, style=filled];
9 -> 13 [color=orange, penwidth=3];
11 -> 3;
13 -> 7;
15 -> 3;
17 -> 9;
19 -> 5;
21 -> 1;
23 -> 3;
  25 [color=orange, style=filled];
25 -> 31 [color=orange, penwidth=3];
27 -> 5;
29 -> 15;
31 -> 1;
33 -> 3;
35 -> 3;
37 -> 19;
39 -> 7;
41 -> 21;
43 -> 11;
45 -> 39;
47 -> 3;
  49 [color=orange, style=filled];
49 -> 57 [color=orange, penwidth=3];
51 -> 9;
53 -> 27;
55 -> 9;
57 -> 5;
59 -> 15;
61 -> 31;
63 -> 13;
65 -> 21;
67 -> 17;
69 -> 3;
71 -> 9;
73 -> 37;
75 -> 31;
77 -> 3;
79 -> 5;
  81 [color=orange, style=filled];
81 -> 121 [color=orange, penwidth=3];
83 -> 21;
85 -> 27;
87 -> 15;
89 -> 45;
91 -> 7;
93 -> 1;
95 -> 15;
97 -> 49;
99 -> 39;
101 -> 51;
103 -> 13;
105 -> 3;
107 -> 27;
109 -> 55;
111 -> 19;
113 -> 57;
115 -> 9;
117 -> 91;
119 -> 9;
  121 [color=orange, style=filled];
121 -> 133 [color=orange, penwidth=3];
123 -> 21;
125 -> 39;
127 -> 1;
129 -> 11;
131 -> 33;
133 -> 5;
135 -> 15;
137 -> 69;
139 -> 35;
141 -> 3;
143 -> 21;
145 -> 45;
147 -> 57;
149 -> 75;
151 -> 19;
153 -> 117;
155 -> 3;
157 -> 79;
159 -> 27;
161 -> 3;
163 -> 41;
165 -> 9;
167 -> 21;
  169 [color=orange, style=filled];
169 -> 183 [color=orange, penwidth=3];
171 -> 65;
173 -> 87;
175 -> 31;
177 -> 15;
179 -> 45;
181 -> 91;
183 -> 31;
185 -> 57;
187 -> 27;
189 -> 5;
191 -> 3;
193 -> 97;
195 -> 21;
197 -> 99;
199 -> 25;
201 -> 17;
203 -> 15;
205 -> 63;
207 -> 39;
209 -> 15;
211 -> 53;
213 -> 9;
215 -> 33;
217 -> 1;
219 -> 37;
221 -> 63;
223 -> 7;
  225 [color=orange, style=filled];
225 -> 403 [color=orange, penwidth=3];
227 -> 57;
229 -> 115;
231 -> 3;
233 -> 117;
235 -> 9;
237 -> 5;
239 -> 15;
241 -> 121;
243 -> 91;
245 -> 171;
247 -> 35;
249 -> 21;
251 -> 63;
253 -> 9;
255 -> 27;
257 -> 129;
259 -> 19;
261 -> 195;
263 -> 33;
265 -> 81;
267 -> 45;
269 -> 135;
271 -> 17;
273 -> 7;
275 -> 93;
277 -> 139;
279 -> 13;
281 -> 141;
283 -> 71;
285 -> 15;
287 -> 21;
  289 [color=orange, style=filled];
289 -> 307 [color=orange, penwidth=3];
291 -> 49;
293 -> 147;
295 -> 45;
297 -> 15;
299 -> 21;
301 -> 11;
303 -> 51;
305 -> 93;
307 -> 77;
309 -> 13;
311 -> 39;
313 -> 157;
315 -> 39;
317 -> 159;
319 -> 45;
321 -> 27;
323 -> 45;
325 -> 217;
327 -> 55;
329 -> 3;
331 -> 83;
333 -> 247;
335 -> 51;
337 -> 169;
339 -> 57;
341 -> 3;
343 -> 25;
345 -> 9;
347 -> 87;
349 -> 175;
351 -> 35;
353 -> 177;
355 -> 27;
357 -> 9;
359 -> 45;
  361 [color=orange, style=filled];
361 -> 381 [color=orange, penwidth=3];
363 -> 133;
365 -> 111;
367 -> 23;
369 -> 273;
371 -> 27;
373 -> 187;
375 -> 39;
377 -> 105;
379 -> 95;
381 -> 1;
383 -> 3;
385 -> 9;
387 -> 143;
389 -> 195;
391 -> 27;
393 -> 33;
395 -> 15;
397 -> 199;
399 -> 5;
401 -> 201;
403 -> 7;
405 -> 363;
407 -> 57;
409 -> 205;
411 -> 69;
413 -> 15;
415 -> 63;
417 -> 35;
419 -> 105;
421 -> 211;
423 -> 39;
425 -> 279;
427 -> 31;
429 -> 21;
431 -> 27;
433 -> 217;
435 -> 45;
437 -> 15;
439 -> 55;
  441 [color=orange, style=filled];
441 -> 741 [color=orange, penwidth=3];
443 -> 111;
445 -> 135;
447 -> 75;
449 -> 225;
451 -> 63;
453 -> 19;
455 -> 21;
457 -> 229;
459 -> 45;
461 -> 231;
463 -> 29;
465 -> 3;
467 -> 117;
469 -> 17;
471 -> 79;
473 -> 33;
475 -> 155;
477 -> 351;
479 -> 15;
481 -> 133;
483 -> 3;
485 -> 147;
487 -> 61;
489 -> 41;
491 -> 123;
493 -> 135;
495 -> 117;
497 -> 9;
499 -> 125;
501 -> 21;
503 -> 63;
505 -> 153;
507 -> 183;
509 -> 255;
511 -> 37;
513 -> 25;
515 -> 39;
517 -> 9;
519 -> 87;
521 -> 261;
523 -> 131;
525 -> 31;
527 -> 9;
  529 [color=orange, style=filled];
529 -> 553 [color=orange, penwidth=3];
531 -> 195;
533 -> 147;
535 -> 81;
537 -> 45;
539 -> 171;
541 -> 271;
543 -> 91;
545 -> 165;
547 -> 137;
549 -> 403;
551 -> 75;
553 -> 5;
555 -> 57;
557 -> 279;
559 -> 77;
561 -> 27;
563 -> 141;
565 -> 171;
567 -> 121;
569 -> 285;
571 -> 143;
573 -> 3;
575 -> 93;
577 -> 289;
579 -> 97;
581 -> 21;
583 -> 81;
585 -> 273;
587 -> 147;
589 -> 5;
591 -> 99;
593 -> 297;
595 -> 27;
597 -> 25;
599 -> 75;
601 -> 301;
603 -> 221;
605 -> 399;
607 -> 19;
609 -> 15;
611 -> 21;
613 -> 307;
615 -> 63;
617 -> 309;
619 -> 155;
621 -> 15;
623 -> 45;
  625 [color=orange, style=filled];
625 -> 781 [color=orange, penwidth=3];
627 -> 15;
629 -> 171;
631 -> 79;
633 -> 53;
635 -> 3;
637 -> 399;
639 -> 117;
641 -> 321;
643 -> 161;
645 -> 33;
647 -> 81;
649 -> 45;
651 -> 1;
653 -> 327;
655 -> 99;
657 -> 481;
659 -> 165;
661 -> 331;
663 -> 63;
665 -> 15;
667 -> 45;
669 -> 7;
671 -> 93;
673 -> 337;
675 -> 155;
677 -> 339;
679 -> 49;
681 -> 57;
683 -> 171;
685 -> 207;
687 -> 115;
689 -> 189;
691 -> 173;
693 -> 39;
695 -> 105;
697 -> 189;
699 -> 117;
701 -> 351;
703 -> 95;
705 -> 9;
707 -> 51;
709 -> 355;
711 -> 65;
713 -> 3;
715 -> 63;
717 -> 15;
719 -> 45;
721 -> 13;
723 -> 121;
725 -> 465;
727 -> 91;
  729 [color=orange, style=filled];
729 -> 1093 [color=orange, penwidth=3];
731 -> 99;
733 -> 367;
735 -> 171;
737 -> 51;
739 -> 185;
741 -> 35;
743 -> 93;
745 -> 225;
747 -> 273;
749 -> 27;
751 -> 47;
753 -> 63;
755 -> 57;
757 -> 379;
759 -> 9;
761 -> 381;
763 -> 55;
765 -> 351;
767 -> 105;
769 -> 385;
771 -> 129;
773 -> 387;
775 -> 31;
777 -> 19;
779 -> 105;
781 -> 27;
783 -> 75;
785 -> 237;
787 -> 197;
789 -> 33;
791 -> 57;
793 -> 217;
795 -> 81;
797 -> 399;
799 -> 27;
801 -> 585;
803 -> 111;
805 -> 9;
807 -> 135;
809 -> 405;
811 -> 203;
813 -> 17;
815 -> 123;
817 -> 55;
819 -> 91;
821 -> 411;
823 -> 103;
825 -> 93;
827 -> 207;
829 -> 415;
831 -> 139;
833 -> 513;
835 -> 63;
837 -> 5;
839 -> 105;
  841 [color=orange, style=filled];
841 -> 871 [color=orange, penwidth=3];
843 -> 141;
845 -> 549;
847 -> 133;
849 -> 71;
851 -> 57;
853 -> 427;
855 -> 195;
857 -> 429;
859 -> 215;
861 -> 21;
863 -> 27;
865 -> 261;
867 -> 307;
869 -> 15;
871 -> 119;
873 -> 637;
875 -> 39;
877 -> 439;
879 -> 147;
881 -> 441;
883 -> 221;
885 -> 45;
887 -> 111;
889 -> 1;
891 -> 363;
893 -> 15;
895 -> 135;
897 -> 21;
899 -> 15;
901 -> 243;
903 -> 11;
905 -> 273;
907 -> 227;
909 -> 663;
911 -> 57;
913 -> 63;
915 -> 93;
917 -> 33;
919 -> 115;
921 -> 77;
923 -> 63;
925 -> 589;
927 -> 169;
929 -> 465;
931 -> 285;
933 -> 39;
935 -> 81;
937 -> 469;
939 -> 157;
941 -> 471;
943 -> 63;
945 -> 15;
947 -> 237;
949 -> 259;
951 -> 159;
953 -> 477;
955 -> 9;
957 -> 45;
959 -> 69;
  961 [color=orange, style=filled];
961 -> 993 [color=orange, penwidth=3];
963 -> 351;
965 -> 291;
967 -> 121;
969 -> 45;
971 -> 243;
973 -> 35;
975 -> 217;
977 -> 489;
979 -> 135;
981 -> 715;
983 -> 123;
985 -> 297;
987 -> 3;
989 -> 33;
991 -> 31;
993 -> 83;
995 -> 75;
997 -> 499;
999 -> 95;
1001 -> 21;
1093 -> 547;
}
