OpenCL	powers of 2	64	119917.703	119.918	0.057	0.00089	7667879.541
OpenCL	powers of 2	128	65359.923	65.360	0.105	0.00082	8359216.723
OpenCL	powers of 2	256	36547.044	36.547	0.188	0.00073	9349189.863
OpenCL	powers of 2	512	18983.252	18.983	0.361	0.00071	9712571.781
OpenCL	powers of 2	1024	10184.440	10.184	0.673	0.00066	10422012.896
OpenCL	powers of 2	2048	9033.202	9.033	0.759	0.00037	18493143.642
OpenCL	powers of 2	4096	8203.167	8.203	0.835	0.00020	33593316.851
OpenCL	powers of 2	8192	7406.677	7.407	0.925	0.00011	60668647.350
OpenCL	powers of 2	16384	6490.476	6.490	1.056	0.00006	106333100.097
OpenCL	powers of 2	32768	5589.443	5.589	1.226	0.00004	183148027.592
OpenCL	powers of 2	65536	5140.756	5.141	1.333	0.00002	336897704.640
OpenCL	powers of 2	131072	5207.756	5.208	1.316	0.00001	682584188.174
OpenCL	powers of 2	262144	4885.427	4.885	1.403	0.00001	1280678502.121
