%!PS-Adobe-3.0 EPSF-3.0
%%Creator: graphviz version 2.38.0 (20140413.2041)
%%Title: sigma odd
%%Pages: 1
%%BoundingBox: 36 36 3807 3814
%%EndComments
save
%%BeginProlog
/DotDict 200 dict def
DotDict begin

/setupLatin1 {
mark
/EncodingVector 256 array def
 EncodingVector 0

ISOLatin1Encoding 0 255 getinterval putinterval
EncodingVector 45 /hyphen put

% Set up ISO Latin 1 character encoding
/starnetISO {
        dup dup findfont dup length dict begin
        { 1 index /FID ne { def }{ pop pop } ifelse
        } forall
        /Encoding EncodingVector def
        currentdict end definefont
} def
/Times-Roman starnetISO def
/Times-Italic starnetISO def
/Times-Bold starnetISO def
/Times-BoldItalic starnetISO def
/Helvetica starnetISO def
/Helvetica-Oblique starnetISO def
/Helvetica-Bold starnetISO def
/Helvetica-BoldOblique starnetISO def
/Courier starnetISO def
/Courier-Oblique starnetISO def
/Courier-Bold starnetISO def
/Courier-BoldOblique starnetISO def
cleartomark
} bind def

%%BeginResource: procset graphviz 0 0
/coord-font-family /Times-Roman def
/default-font-family /Times-Roman def
/coordfont coord-font-family findfont 8 scalefont def

/InvScaleFactor 1.0 def
/set_scale {
       dup 1 exch div /InvScaleFactor exch def
       scale
} bind def

% styles
/solid { [] 0 setdash } bind def
/dashed { [9 InvScaleFactor mul dup ] 0 setdash } bind def
/dotted { [1 InvScaleFactor mul 6 InvScaleFactor mul] 0 setdash } bind def
/invis {/fill {newpath} def /stroke {newpath} def /show {pop newpath} def} bind def
/bold { 2 setlinewidth } bind def
/filled { } bind def
/unfilled { } bind def
/rounded { } bind def
/diagonals { } bind def
/tapered { } bind def

% hooks for setting color 
/nodecolor { sethsbcolor } bind def
/edgecolor { sethsbcolor } bind def
/graphcolor { sethsbcolor } bind def
/nopcolor {pop pop pop} bind def

/beginpage {	% i j npages
	/npages exch def
	/j exch def
	/i exch def
	/str 10 string def
	npages 1 gt {
		gsave
			coordfont setfont
			0 0 moveto
			(\() show i str cvs show (,) show j str cvs show (\)) show
		grestore
	} if
} bind def

/set_font {
	findfont exch
	scalefont setfont
} def

% draw text fitted to its expected width
/alignedtext {			% width text
	/text exch def
	/width exch def
	gsave
		width 0 gt {
			[] 0 setdash
			text stringwidth pop width exch sub text length div 0 text ashow
		} if
	grestore
} def

/boxprim {				% xcorner ycorner xsize ysize
		4 2 roll
		moveto
		2 copy
		exch 0 rlineto
		0 exch rlineto
		pop neg 0 rlineto
		closepath
} bind def

/ellipse_path {
	/ry exch def
	/rx exch def
	/y exch def
	/x exch def
	matrix currentmatrix
	newpath
	x y translate
	rx ry scale
	0 0 1 0 360 arc
	setmatrix
} bind def

/endpage { showpage } bind def
/showpage { } def

/layercolorseq
	[	% layer color sequence - darkest to lightest
		[0 0 0]
		[.2 .8 .8]
		[.4 .8 .8]
		[.6 .8 .8]
		[.8 .8 .8]
	]
def

/layerlen layercolorseq length def

/setlayer {/maxlayer exch def /curlayer exch def
	layercolorseq curlayer 1 sub layerlen mod get
	aload pop sethsbcolor
	/nodecolor {nopcolor} def
	/edgecolor {nopcolor} def
	/graphcolor {nopcolor} def
} bind def

/onlayer { curlayer ne {invis} if } def

/onlayers {
	/myupper exch def
	/mylower exch def
	curlayer mylower lt
	curlayer myupper gt
	or
	{invis} if
} def

/curlayer 0 def

%%EndResource
%%EndProlog
%%BeginSetup
14 default-font-family set_font
1 setmiterlimit
% /arrowlength 10 def
% /arrowwidth 5 def

% make sure pdfmark is harmless for PS-interpreters other than Distiller
/pdfmark where {pop} {userdict /pdfmark /cleartomark load put} ifelse
% make '<<' and '>>' safe on PS Level 1 devices
/languagelevel where {pop languagelevel}{1} ifelse
2 lt {
    userdict (<<) cvn ([) cvn load put
    userdict (>>) cvn ([) cvn load put
} if

%%EndSetup
setupLatin1
%%Page: 1 1
%%PageBoundingBox: 36 36 3807 3814
%%PageOrientation: Portrait
0 0 1 beginpage
gsave
36 36 3771 3778 boxprim clip newpath
1 1 set_scale 0 rotate 40 40 translate
% 1
gsave
0 0 0.82745 nodecolor
1629.5 1715.54 108 108 ellipse_path fill
1 setlinewidth
filled
0 0 0 nodecolor
1629.5 1715.54 108 108 ellipse_path stroke
0 0 0 nodecolor
14 /Times-Roman set_font
1626 1711.84 moveto 7 (1) alignedtext
grestore
% 1->1
gsave
1 setlinewidth
0 0 0 edgecolor
newpath 1737.49 1721.08 moveto
1748.48 1719.99 1755.5 1718.14 1755.5 1715.54 curveto
1755.5 1713.87 1752.62 1712.51 1747.66 1711.46 curveto
stroke
0 0 0 edgecolor
newpath 1747.89 1707.96 moveto
1737.49 1709.99 lineto
1746.88 1714.89 lineto
closepath fill
1 setlinewidth
solid
0 0 0 edgecolor
newpath 1747.89 1707.96 moveto
1737.49 1709.99 lineto
1746.88 1714.89 lineto
closepath stroke
grestore
% 3
gsave
1 setlinewidth
0 0 0 nodecolor
3222.5 1715.54 27 18 ellipse_path stroke
0 0 0 nodecolor
14 /Times-Roman set_font
3219 1711.84 moveto 7 (3) alignedtext
grestore
% 3->1
gsave
1 setlinewidth
0 0 0 edgecolor
newpath 3195.19 1715.54 moveto
3022.86 1715.54 2082.81 1715.54 1747.99 1715.54 curveto
stroke
0 0 0 edgecolor
newpath 1747.78 1712.04 moveto
1737.78 1715.54 lineto
1747.78 1719.04 lineto
closepath fill
1 setlinewidth
solid
0 0 0 edgecolor
newpath 1747.78 1712.04 moveto
1737.78 1715.54 lineto
1747.78 1719.04 lineto
closepath stroke
grestore
% 5
gsave
1 setlinewidth
0 0 0 nodecolor
2806.27 1431.34 27 18 ellipse_path stroke
0 0 0 nodecolor
14 /Times-Roman set_font
2802.27 1427.64 moveto 8 (5) alignedtext
grestore
% 5->3
gsave
1 setlinewidth
0 0 0 edgecolor
newpath 2825.24 1444.29 moveto
2892 1489.88 3116.37 1643.07 3195 1696.76 curveto
stroke
0 0 0 edgecolor
newpath 3193.19 1699.76 moveto
3203.43 1702.51 lineto
3197.14 1693.98 lineto
closepath fill
1 setlinewidth
solid
0 0 0 edgecolor
newpath 3193.19 1699.76 moveto
3203.43 1702.51 lineto
3197.14 1693.98 lineto
closepath stroke
grestore
% 7
gsave
1 setlinewidth
0 0 0 nodecolor
687.44 3000.12 27 18 ellipse_path stroke
0 0 0 nodecolor
14 /Times-Roman set_font
683.94 2996.42 moveto 7 (7) alignedtext
grestore
% 7->1
gsave
1 setlinewidth
0 0 0 edgecolor
newpath 699.35 2983.88 moveto
788.89 2861.78 1358.48 2085.1 1559.43 1811.09 curveto
stroke
0 0 0 edgecolor
newpath 1562.47 1812.87 moveto
1565.56 1802.73 lineto
1556.82 1808.73 lineto
closepath fill
1 setlinewidth
solid
0 0 0 edgecolor
newpath 1562.47 1812.87 moveto
1565.56 1802.73 lineto
1556.82 1808.73 lineto
closepath stroke
grestore
% 9
gsave
0.10588 1 1 nodecolor
1520.61 3142.39 27 18 ellipse_path fill
1 setlinewidth
filled
0.10588 1 1 nodecolor
1520.61 3142.39 27 18 ellipse_path stroke
0 0 0 nodecolor
14 /Times-Roman set_font
1516.61 3138.69 moveto 8 (9) alignedtext
grestore
% 13
gsave
1 setlinewidth
0 0 0 nodecolor
1297.07 3447.2 27 18 ellipse_path stroke
0 0 0 nodecolor
14 /Times-Roman set_font
1290.07 3443.5 moveto 14 (13) alignedtext
grestore
% 9->13
gsave
3 setlinewidth
0.10588 1 1 edgecolor
newpath 1508.59 3158.78 moveto
1471.6 3209.22 1359.28 3362.38 1315.15 3422.55 curveto
stroke
0.10588 1 1 edgecolor
newpath 1312.24 3420.6 moveto
1309.15 3430.73 lineto
1317.88 3424.74 lineto
closepath fill
3 setlinewidth
solid
0.10588 1 1 edgecolor
newpath 1312.24 3420.6 moveto
1309.15 3430.73 lineto
1317.88 3424.74 lineto
closepath stroke
grestore
% 13->7
gsave
1 setlinewidth
0 0 0 edgecolor
newpath 1278.82 3433.82 moveto
1191.62 3369.87 817.26 3095.33 713.94 3019.56 curveto
stroke
0 0 0 edgecolor
newpath 715.74 3016.54 moveto
705.61 3013.45 lineto
711.6 3022.19 lineto
closepath fill
1 setlinewidth
solid
0 0 0 edgecolor
newpath 715.74 3016.54 moveto
705.61 3013.45 lineto
711.6 3022.19 lineto
closepath stroke
grestore
% 11
gsave
1 setlinewidth
0 0 0 nodecolor
3374.3 1301.48 27 18 ellipse_path stroke
0 0 0 nodecolor
14 /Times-Roman set_font
3367.3 1297.78 moveto 14 (11) alignedtext
grestore
% 11->3
gsave
1 setlinewidth
0 0 0 edgecolor
newpath 3367.88 1319.01 moveto
3344.17 1383.68 3261.48 1609.22 3232.57 1688.07 curveto
stroke
0 0 0 edgecolor
newpath 3229.17 1687.18 moveto
3229.02 1697.77 lineto
3235.74 1689.59 lineto
closepath fill
1 setlinewidth
solid
0 0 0 edgecolor
newpath 3229.17 1687.18 moveto
3229.02 1697.77 lineto
3235.74 1689.59 lineto
closepath stroke
grestore
% 15
gsave
1 setlinewidth
0 0 0 nodecolor
3687.45 1521.01 27 18 ellipse_path stroke
0 0 0 nodecolor
14 /Times-Roman set_font
3679.95 1517.31 moveto 15 (15) alignedtext
grestore
% 15->3
gsave
1 setlinewidth
0 0 0 edgecolor
newpath 3664.39 1530.65 moveto
3588.01 1562.61 3343.07 1665.09 3254.69 1702.07 curveto
stroke
0 0 0 edgecolor
newpath 3253.3 1698.86 moveto
3245.42 1705.95 lineto
3256 1705.31 lineto
closepath fill
1 setlinewidth
solid
0 0 0 edgecolor
newpath 3253.3 1698.86 moveto
3245.42 1705.95 lineto
3256 1705.31 lineto
closepath stroke
grestore
% 17
gsave
1 setlinewidth
0 0 0 nodecolor
1394.91 3151.11 27 18 ellipse_path stroke
0 0 0 nodecolor
14 /Times-Roman set_font
1387.91 3147.41 moveto 14 (17) alignedtext
grestore
% 17->9
gsave
1 setlinewidth
0 0 0 edgecolor
newpath 1421.88 3149.24 moveto
1439.86 3147.99 1463.72 3146.34 1483.49 3144.96 curveto
stroke
0 0 0 edgecolor
newpath 1483.96 3148.44 moveto
1493.69 3144.26 lineto
1483.47 3141.46 lineto
closepath fill
1 setlinewidth
solid
0 0 0 edgecolor
newpath 1483.96 3148.44 moveto
1493.69 3144.26 lineto
1483.47 3141.46 lineto
closepath stroke
grestore
% 19
gsave
1 setlinewidth
0 0 0 nodecolor
2830.49 1555 27 18 ellipse_path stroke
0 0 0 nodecolor
14 /Times-Roman set_font
2822.99 1551.3 moveto 15 (19) alignedtext
grestore
% 19->5
gsave
1 setlinewidth
0 0 0 edgecolor
newpath 2826.97 1537.02 moveto
2822.97 1516.59 2816.39 1483.02 2811.73 1459.21 curveto
stroke
0 0 0 edgecolor
newpath 2815.15 1458.49 moveto
2809.79 1449.35 lineto
2808.28 1459.83 lineto
closepath fill
1 setlinewidth
solid
0 0 0 edgecolor
newpath 2815.15 1458.49 moveto
2809.79 1449.35 lineto
2808.28 1459.83 lineto
closepath stroke
grestore
% 21
gsave
1 setlinewidth
0 0 0 nodecolor
509.37 582.87 27 18 ellipse_path stroke
0 0 0 nodecolor
14 /Times-Roman set_font
502.37 579.17 moveto 14 (21) alignedtext
grestore
% 21->1
gsave
1 setlinewidth
0 0 0 edgecolor
newpath 524.35 598.02 moveto
633.43 708.32 1307.68 1390.11 1546.09 1631.19 curveto
stroke
0 0 0 edgecolor
newpath 1543.84 1633.89 moveto
1553.36 1638.54 lineto
1548.82 1628.97 lineto
closepath fill
1 setlinewidth
solid
0 0 0 edgecolor
newpath 1543.84 1633.89 moveto
1553.36 1638.54 lineto
1548.82 1628.97 lineto
closepath stroke
grestore
% 23
gsave
1 setlinewidth
0 0 0 nodecolor
3703.71 1865.38 27 18 ellipse_path stroke
0 0 0 nodecolor
14 /Times-Roman set_font
3696.71 1861.68 moveto 14 (23) alignedtext
grestore
% 23->3
gsave
1 setlinewidth
0 0 0 edgecolor
newpath 3679.19 1857.74 moveto
3599.62 1832.97 3348.52 1754.78 3256.63 1726.16 curveto
stroke
0 0 0 edgecolor
newpath 3257.57 1722.79 moveto
3246.98 1723.16 lineto
3255.49 1729.47 lineto
closepath fill
1 setlinewidth
solid
0 0 0 edgecolor
newpath 3257.57 1722.79 moveto
3246.98 1723.16 lineto
3255.49 1729.47 lineto
closepath stroke
grestore
% 25
gsave
0.10588 1 1 nodecolor
1762.77 187.45 27 18 ellipse_path fill
1 setlinewidth
filled
0.10588 1 1 nodecolor
1762.77 187.45 27 18 ellipse_path stroke
0 0 0 nodecolor
14 /Times-Roman set_font
1755.27 183.75 moveto 15 (25) alignedtext
grestore
% 31
gsave
1 setlinewidth
0 0 0 nodecolor
1880.45 142.43 27 18 ellipse_path stroke
0 0 0 nodecolor
14 /Times-Roman set_font
1873.45 138.73 moveto 14 (31) alignedtext
grestore
% 25->31
gsave
3 setlinewidth
0.10588 1 1 edgecolor
newpath 1786.3 178.45 moveto
1803.86 171.73 1828.08 162.47 1847.55 155.01 curveto
stroke
0.10588 1 1 edgecolor
newpath 1848.87 158.26 moveto
1856.96 151.41 lineto
1846.37 151.72 lineto
closepath fill
3 setlinewidth
solid
0.10588 1 1 edgecolor
newpath 1848.87 158.26 moveto
1856.96 151.41 lineto
1846.37 151.72 lineto
closepath stroke
grestore
% 31->1
gsave
1 setlinewidth
0 0 0 edgecolor
newpath 1877.59 160.36 moveto
1854.79 303.31 1702 1261.08 1648.2 1598.32 curveto
stroke
0 0 0 edgecolor
newpath 1644.68 1598.17 moveto
1646.56 1608.6 lineto
1651.59 1599.27 lineto
closepath fill
1 setlinewidth
solid
0 0 0 edgecolor
newpath 1644.68 1598.17 moveto
1646.56 1608.6 lineto
1651.59 1599.27 lineto
closepath stroke
grestore
% 27
gsave
1 setlinewidth
0 0 0 nodecolor
2559.68 1483.28 27 18 ellipse_path stroke
0 0 0 nodecolor
14 /Times-Roman set_font
2552.68 1479.58 moveto 14 (27) alignedtext
grestore
% 27->5
gsave
1 setlinewidth
0 0 0 edgecolor
newpath 2585.6 1477.82 moveto
2629.91 1468.49 2720.28 1449.46 2770.53 1438.87 curveto
stroke
0 0 0 edgecolor
newpath 2771.26 1442.3 moveto
2780.32 1436.81 lineto
2769.82 1435.45 lineto
closepath fill
1 setlinewidth
solid
0 0 0 edgecolor
newpath 2771.26 1442.3 moveto
2780.32 1436.81 lineto
2769.82 1435.45 lineto
closepath stroke
grestore
% 29
gsave
1 setlinewidth
0 0 0 nodecolor
3638.82 1404.77 27 18 ellipse_path stroke
0 0 0 nodecolor
14 /Times-Roman set_font
3631.32 1401.07 moveto 15 (29) alignedtext
grestore
% 29->15
gsave
1 setlinewidth
0 0 0 edgecolor
newpath 3646.1 1422.17 moveto
3654.05 1441.17 3666.88 1471.85 3676.14 1493.99 curveto
stroke
0 0 0 edgecolor
newpath 3673.03 1495.61 moveto
3680.12 1503.48 lineto
3679.49 1492.91 lineto
closepath fill
1 setlinewidth
solid
0 0 0 edgecolor
newpath 3673.03 1495.61 moveto
3680.12 1503.48 lineto
3679.49 1492.91 lineto
closepath stroke
grestore
% 33
gsave
1 setlinewidth
0 0 0 nodecolor
3591.27 2059.08 27 18 ellipse_path stroke
0 0 0 nodecolor
14 /Times-Roman set_font
3584.27 2055.38 moveto 14 (33) alignedtext
grestore
% 33->3
gsave
1 setlinewidth
0 0 0 edgecolor
newpath 3575.43 2044.32 moveto
3517.15 1990.03 3314.54 1801.28 3245.64 1737.09 curveto
stroke
0 0 0 edgecolor
newpath 3247.99 1734.5 moveto
3238.29 1730.24 lineto
3243.22 1739.62 lineto
closepath fill
1 setlinewidth
solid
0 0 0 edgecolor
newpath 3247.99 1734.5 moveto
3238.29 1730.24 lineto
3243.22 1739.62 lineto
closepath stroke
grestore
% 35
gsave
1 setlinewidth
0 0 0 nodecolor
3406.01 2184.94 27 18 ellipse_path stroke
0 0 0 nodecolor
14 /Times-Roman set_font
3398.51 2181.24 moveto 15 (35) alignedtext
grestore
% 35->3
gsave
1 setlinewidth
0 0 0 edgecolor
newpath 3399.15 2167.4 moveto
3371.36 2096.31 3267.02 1829.4 3233.17 1742.83 curveto
stroke
0 0 0 edgecolor
newpath 3236.4 1741.46 moveto
3229.49 1733.42 lineto
3229.88 1744.01 lineto
closepath fill
1 setlinewidth
solid
0 0 0 edgecolor
newpath 3236.4 1741.46 moveto
3229.49 1733.42 lineto
3229.88 1744.01 lineto
closepath stroke
grestore
% 37
gsave
1 setlinewidth
0 0 0 nodecolor
2854.71 1678.65 27 18 ellipse_path stroke
0 0 0 nodecolor
14 /Times-Roman set_font
2847.71 1674.95 moveto 14 (37) alignedtext
grestore
% 37->19
gsave
1 setlinewidth
0 0 0 edgecolor
newpath 2851.18 1660.67 moveto
2847.18 1640.25 2840.61 1606.67 2835.94 1582.86 curveto
stroke
0 0 0 edgecolor
newpath 2839.37 1582.14 moveto
2834.01 1573 lineto
2832.5 1583.48 lineto
closepath fill
1 setlinewidth
solid
0 0 0 edgecolor
newpath 2839.37 1582.14 moveto
2834.01 1573 lineto
2832.5 1583.48 lineto
closepath stroke
grestore
% 39
gsave
1 setlinewidth
0 0 0 nodecolor
128.61 2590.29 27 18 ellipse_path stroke
0 0 0 nodecolor
14 /Times-Roman set_font
121.11 2586.59 moveto 15 (39) alignedtext
grestore
% 39->7
gsave
1 setlinewidth
0 0 0 edgecolor
newpath 146.88 2603.7 moveto
228.96 2663.89 563.73 2909.4 660.88 2980.65 curveto
stroke
0 0 0 edgecolor
newpath 658.88 2983.52 moveto
669.02 2986.61 lineto
663.02 2977.88 lineto
closepath fill
1 setlinewidth
solid
0 0 0 edgecolor
newpath 658.88 2983.52 moveto
669.02 2986.61 lineto
663.02 2977.88 lineto
closepath stroke
grestore
% 41
gsave
1 setlinewidth
0 0 0 nodecolor
476.08 704.39 27 18 ellipse_path stroke
0 0 0 nodecolor
14 /Times-Roman set_font
468.08 700.69 moveto 16 (41) alignedtext
grestore
% 41->21
gsave
1 setlinewidth
0 0 0 edgecolor
newpath 480.99 686.46 moveto
486.47 666.44 495.41 633.82 501.79 610.53 curveto
stroke
0 0 0 edgecolor
newpath 505.17 611.44 moveto
504.43 600.87 lineto
498.42 609.59 lineto
closepath fill
1 setlinewidth
solid
0 0 0 edgecolor
newpath 505.17 611.44 moveto
504.43 600.87 lineto
498.42 609.59 lineto
closepath stroke
grestore
% 43
gsave
1 setlinewidth
0 0 0 nodecolor
3417.67 1183.18 27 18 ellipse_path stroke
0 0 0 nodecolor
14 /Times-Roman set_font
3409.67 1179.48 moveto 16 (43) alignedtext
grestore
% 43->11
gsave
1 setlinewidth
0 0 0 edgecolor
newpath 3411.18 1200.9 moveto
3404.09 1220.24 3392.64 1251.45 3384.38 1273.99 curveto
stroke
0 0 0 edgecolor
newpath 3381 1273.06 moveto
3380.84 1283.65 lineto
3387.57 1275.47 lineto
closepath fill
1 setlinewidth
solid
0 0 0 edgecolor
newpath 3381 1273.06 moveto
3380.84 1283.65 lineto
3387.57 1275.47 lineto
closepath stroke
grestore
% 45
gsave
1 setlinewidth
0 0 0 nodecolor
27 2515.78 27 18 ellipse_path stroke
0 0 0 nodecolor
14 /Times-Roman set_font
19 2512.08 moveto 16 (45) alignedtext
grestore
% 45->39
gsave
1 setlinewidth
0 0 0 edgecolor
newpath 45.17 2529.1 moveto
60.96 2540.69 84.06 2557.62 101.95 2570.74 curveto
stroke
0 0 0 edgecolor
newpath 100.12 2573.75 moveto
110.26 2576.84 lineto
104.26 2568.1 lineto
closepath fill
1 setlinewidth
solid
0 0 0 edgecolor
newpath 100.12 2573.75 moveto
110.26 2576.84 lineto
104.26 2568.1 lineto
closepath stroke
grestore
% 47
gsave
1 setlinewidth
0 0 0 nodecolor
3184.5 2218.1 27 18 ellipse_path stroke
0 0 0 nodecolor
14 /Times-Roman set_font
3176.5 2214.4 moveto 16 (47) alignedtext
grestore
% 47->3
gsave
1 setlinewidth
0 0 0 edgecolor
newpath 3185.88 2199.92 moveto
3191.58 2124.5 3213.4 1835.94 3220.36 1743.92 curveto
stroke
0 0 0 edgecolor
newpath 3223.87 1743.93 moveto
3221.13 1733.7 lineto
3216.89 1743.4 lineto
closepath fill
1 setlinewidth
solid
0 0 0 edgecolor
newpath 3223.87 1743.93 moveto
3221.13 1733.7 lineto
3216.89 1743.4 lineto
closepath stroke
grestore
% 49
gsave
0.10588 1 1 nodecolor
2663.12 1150.75 27 18 ellipse_path fill
1 setlinewidth
filled
0.10588 1 1 nodecolor
2663.12 1150.75 27 18 ellipse_path stroke
0 0 0 nodecolor
14 /Times-Roman set_font
2655.12 1147.05 moveto 16 (49) alignedtext
grestore
% 57
gsave
1 setlinewidth
0 0 0 nodecolor
2720.38 1262.99 27 18 ellipse_path stroke
0 0 0 nodecolor
14 /Times-Roman set_font
2712.88 1259.29 moveto 15 (57) alignedtext
grestore
% 49->57
gsave
3 setlinewidth
0.10588 1 1 edgecolor
newpath 2671.82 1167.79 moveto
2681.15 1186.09 2696.1 1215.38 2706.94 1236.64 curveto
stroke
0.10588 1 1 edgecolor
newpath 2703.94 1238.46 moveto
2711.6 1245.78 lineto
2710.18 1235.28 lineto
closepath fill
3 setlinewidth
solid
0.10588 1 1 edgecolor
newpath 2703.94 1238.46 moveto
2711.6 1245.78 lineto
2710.18 1235.28 lineto
closepath stroke
grestore
% 57->5
gsave
1 setlinewidth
0 0 0 edgecolor
newpath 2729.09 1280.06 moveto
2744.14 1309.55 2775.1 1370.24 2792.89 1405.12 curveto
stroke
0 0 0 edgecolor
newpath 2789.88 1406.91 moveto
2797.54 1414.23 lineto
2796.11 1403.73 lineto
closepath fill
1 setlinewidth
solid
0 0 0 edgecolor
newpath 2789.88 1406.91 moveto
2797.54 1414.23 lineto
2796.11 1403.73 lineto
closepath stroke
grestore
% 51
gsave
1 setlinewidth
0 0 0 nodecolor
1538.98 2954.28 27 18 ellipse_path stroke
0 0 0 nodecolor
14 /Times-Roman set_font
1531.48 2950.58 moveto 15 (51) alignedtext
grestore
% 51->9
gsave
1 setlinewidth
0 0 0 edgecolor
newpath 1537.22 2972.32 moveto
1534.01 3005.18 1527.19 3075.03 1523.36 3114.22 curveto
stroke
0 0 0 edgecolor
newpath 1519.86 3114.11 moveto
1522.37 3124.41 lineto
1526.82 3114.79 lineto
closepath fill
1 setlinewidth
solid
0 0 0 edgecolor
newpath 1519.86 3114.11 moveto
1522.37 3124.41 lineto
1526.82 3114.79 lineto
closepath stroke
grestore
% 53
gsave
1 setlinewidth
0 0 0 nodecolor
2585.64 1606.57 27 18 ellipse_path stroke
0 0 0 nodecolor
14 /Times-Roman set_font
2578.14 1602.87 moveto 15 (53) alignedtext
grestore
% 53->27
gsave
1 setlinewidth
0 0 0 edgecolor
newpath 2581.87 1588.65 moveto
2577.58 1568.28 2570.53 1534.81 2565.53 1511.06 curveto
stroke
0 0 0 edgecolor
newpath 2568.94 1510.29 moveto
2563.46 1501.23 lineto
2562.09 1511.73 lineto
closepath fill
1 setlinewidth
solid
0 0 0 edgecolor
newpath 2568.94 1510.29 moveto
2563.46 1501.23 lineto
2562.09 1511.73 lineto
closepath stroke
grestore
% 55
gsave
1 setlinewidth
0 0 0 nodecolor
1709.16 3129.3 27 18 ellipse_path stroke
0 0 0 nodecolor
14 /Times-Roman set_font
1701.16 3125.6 moveto 16 (55) alignedtext
grestore
% 55->9
gsave
1 setlinewidth
0 0 0 edgecolor
newpath 1682.14 3131.18 moveto
1649.52 3133.44 1594.48 3137.26 1557.85 3139.8 curveto
stroke
0 0 0 edgecolor
newpath 1557.31 3136.33 moveto
1547.58 3140.52 lineto
1557.79 3143.31 lineto
closepath fill
1 setlinewidth
solid
0 0 0 edgecolor
newpath 1557.31 3136.33 moveto
1547.58 3140.52 lineto
1557.79 3143.31 lineto
closepath stroke
grestore
% 59
gsave
1 setlinewidth
0 0 0 nodecolor
3736.08 1637.24 27 18 ellipse_path stroke
0 0 0 nodecolor
14 /Times-Roman set_font
3728.08 1633.54 moveto 16 (59) alignedtext
grestore
% 59->15
gsave
1 setlinewidth
0 0 0 edgecolor
newpath 3728.8 1619.84 moveto
3720.85 1600.84 3708.02 1570.16 3698.75 1548.02 curveto
stroke
0 0 0 edgecolor
newpath 3701.87 1546.4 moveto
3694.78 1538.53 lineto
3695.41 1549.1 lineto
closepath fill
1 setlinewidth
solid
0 0 0 edgecolor
newpath 3701.87 1546.4 moveto
3694.78 1538.53 lineto
3695.41 1549.1 lineto
closepath stroke
grestore
% 61
gsave
1 setlinewidth
0 0 0 nodecolor
1900.3 18 27 18 ellipse_path stroke
0 0 0 nodecolor
14 /Times-Roman set_font
1892.8 14.3 moveto 15 (61) alignedtext
grestore
% 61->31
gsave
1 setlinewidth
0 0 0 edgecolor
newpath 1897.42 36.09 moveto
1894.14 56.64 1888.75 90.42 1884.93 114.39 curveto
stroke
0 0 0 edgecolor
newpath 1881.46 113.89 moveto
1883.34 124.31 lineto
1888.38 114.99 lineto
closepath fill
1 setlinewidth
solid
0 0 0 edgecolor
newpath 1881.46 113.89 moveto
1883.34 124.31 lineto
1888.38 114.99 lineto
closepath stroke
grestore
% 63
gsave
1 setlinewidth
0 0 0 nodecolor
1073.53 3752.02 27 18 ellipse_path stroke
0 0 0 nodecolor
14 /Times-Roman set_font
1066.03 3748.32 moveto 15 (63) alignedtext
grestore
% 63->13
gsave
1 setlinewidth
0 0 0 edgecolor
newpath 1085.55 3735.63 moveto
1122.54 3685.19 1234.86 3532.03 1278.99 3471.85 curveto
stroke
0 0 0 edgecolor
newpath 1281.9 3473.81 moveto
1284.99 3463.67 lineto
1276.26 3469.67 lineto
closepath fill
1 setlinewidth
solid
0 0 0 edgecolor
newpath 1281.9 3473.81 moveto
1284.99 3463.67 lineto
1276.26 3469.67 lineto
closepath stroke
grestore
% 65
gsave
1 setlinewidth
0 0 0 nodecolor
420.77 493.28 27 18 ellipse_path stroke
0 0 0 nodecolor
14 /Times-Roman set_font
412.77 489.58 moveto 16 (65) alignedtext
grestore
% 65->21
gsave
1 setlinewidth
0 0 0 edgecolor
newpath 435.8 508.47 moveto
449.8 522.63 470.86 543.93 486.86 560.11 curveto
stroke
0 0 0 edgecolor
newpath 484.74 562.95 moveto
494.26 567.59 lineto
489.72 558.02 lineto
closepath fill
1 setlinewidth
solid
0 0 0 edgecolor
newpath 484.74 562.95 moveto
494.26 567.59 lineto
489.72 558.02 lineto
closepath stroke
grestore
% 67
gsave
1 setlinewidth
0 0 0 nodecolor
1269.22 3159.84 27 18 ellipse_path stroke
0 0 0 nodecolor
14 /Times-Roman set_font
1261.72 3156.14 moveto 15 (67) alignedtext
grestore
% 67->17
gsave
1 setlinewidth
0 0 0 edgecolor
newpath 1296.18 3157.96 moveto
1314.16 3156.72 1338.03 3155.06 1357.79 3153.69 curveto
stroke
0 0 0 edgecolor
newpath 1358.26 3157.16 moveto
1367.99 3152.98 lineto
1357.77 3150.18 lineto
closepath fill
1 setlinewidth
solid
0 0 0 edgecolor
newpath 1358.26 3157.16 moveto
1367.99 3152.98 lineto
1357.77 3150.18 lineto
closepath stroke
grestore
% 69
gsave
1 setlinewidth
0 0 0 nodecolor
2970.5 2152.01 27 18 ellipse_path stroke
0 0 0 nodecolor
14 /Times-Roman set_font
2962.5 2148.31 moveto 16 (69) alignedtext
grestore
% 69->3
gsave
1 setlinewidth
0 0 0 edgecolor
newpath 2980.23 2135.17 moveto
3018.73 2068.48 3160.69 1822.6 3207.45 1741.6 curveto
stroke
0 0 0 edgecolor
newpath 3210.7 1742.97 moveto
3212.67 1732.56 lineto
3204.64 1739.47 lineto
closepath fill
1 setlinewidth
solid
0 0 0 edgecolor
newpath 3210.7 1742.97 moveto
3212.67 1732.56 lineto
3204.64 1739.47 lineto
closepath stroke
grestore
% 71
gsave
1 setlinewidth
0 0 0 nodecolor
1564.8 3326.15 27 18 ellipse_path stroke
0 0 0 nodecolor
14 /Times-Roman set_font
1557.8 3322.45 moveto 14 (71) alignedtext
grestore
% 71->9
gsave
1 setlinewidth
0 0 0 edgecolor
newpath 1560.48 3308.2 moveto
1552.76 3276.08 1536.53 3208.6 1527.34 3170.37 curveto
stroke
0 0 0 edgecolor
newpath 1530.69 3169.32 moveto
1524.95 3160.41 lineto
1523.88 3170.96 lineto
closepath fill
1 setlinewidth
solid
0 0 0 edgecolor
newpath 1530.69 3169.32 moveto
1524.95 3160.41 lineto
1523.88 3170.96 lineto
closepath stroke
grestore
% 73
gsave
1 setlinewidth
0 0 0 nodecolor
2878.92 1802.3 27 18 ellipse_path stroke
0 0 0 nodecolor
14 /Times-Roman set_font
2871.92 1798.6 moveto 14 (73) alignedtext
grestore
% 73->37
gsave
1 setlinewidth
0 0 0 edgecolor
newpath 2875.4 1784.32 moveto
2871.4 1763.9 2864.83 1730.33 2860.16 1706.51 curveto
stroke
0 0 0 edgecolor
newpath 2863.59 1705.79 moveto
2858.23 1696.65 lineto
2856.72 1707.13 lineto
closepath fill
1 setlinewidth
solid
0 0 0 edgecolor
newpath 2863.59 1705.79 moveto
2858.23 1696.65 lineto
2856.72 1707.13 lineto
closepath stroke
grestore
% 75
gsave
1 setlinewidth
0 0 0 nodecolor
1978.29 221.83 27 18 ellipse_path stroke
0 0 0 nodecolor
14 /Times-Roman set_font
1970.79 218.13 moveto 15 (75) alignedtext
grestore
% 75->31
gsave
1 setlinewidth
0 0 0 edgecolor
newpath 1960.8 207.63 moveto
1945.49 195.21 1923.07 177.02 1905.8 163 curveto
stroke
0 0 0 edgecolor
newpath 1907.76 160.08 moveto
1897.79 156.5 lineto
1903.35 165.52 lineto
closepath fill
1 setlinewidth
solid
0 0 0 edgecolor
newpath 1907.76 160.08 moveto
1897.79 156.5 lineto
1903.35 165.52 lineto
closepath stroke
grestore
% 77
gsave
1 setlinewidth
0 0 0 nodecolor
2806.27 1999.73 27 18 ellipse_path stroke
0 0 0 nodecolor
14 /Times-Roman set_font
2799.27 1996.03 moveto 14 (77) alignedtext
grestore
% 77->3
gsave
1 setlinewidth
0 0 0 edgecolor
newpath 2825.24 1986.78 moveto
2892 1941.19 3116.37 1788 3195 1734.31 curveto
stroke
0 0 0 edgecolor
newpath 3197.14 1737.09 moveto
3203.43 1728.56 lineto
3193.19 1731.31 lineto
closepath fill
1 setlinewidth
solid
0 0 0 edgecolor
newpath 3197.14 1737.09 moveto
3203.43 1728.56 lineto
3193.19 1731.31 lineto
closepath stroke
grestore
% 79
gsave
1 setlinewidth
0 0 0 nodecolor
2889.1 1193.35 27 18 ellipse_path stroke
0 0 0 nodecolor
14 /Times-Roman set_font
2881.6 1189.65 moveto 15 (79) alignedtext
grestore
% 79->5
gsave
1 setlinewidth
0 0 0 edgecolor
newpath 2882.87 1211.23 moveto
2868.51 1252.51 2832.96 1354.65 2815.82 1403.91 curveto
stroke
0 0 0 edgecolor
newpath 2812.43 1402.98 moveto
2812.45 1413.57 lineto
2819.05 1405.28 lineto
closepath fill
1 setlinewidth
solid
0 0 0 edgecolor
newpath 2812.43 1402.98 moveto
2812.45 1413.57 lineto
2819.05 1405.28 lineto
closepath stroke
grestore
% 81
gsave
0.10588 1 1 nodecolor
3178.21 1363.95 27 18 ellipse_path fill
1 setlinewidth
filled
0.10588 1 1 nodecolor
3178.21 1363.95 27 18 ellipse_path stroke
0 0 0 nodecolor
14 /Times-Roman set_font
3171.21 1360.25 moveto 14 (81) alignedtext
grestore
% 121
gsave
0.10588 1 1 nodecolor
3054.23 1386.41 27 18 ellipse_path fill
1 setlinewidth
filled
0.10588 1 1 nodecolor
3054.23 1386.41 27 18 ellipse_path stroke
0 0 0 nodecolor
14 /Times-Roman set_font
3043.73 1382.71 moveto 21 (121) alignedtext
grestore
% 81->121
gsave
3 setlinewidth
0.10588 1 1 edgecolor
newpath 3151.92 1368.71 moveto
3134 1371.96 3110.05 1376.3 3090.35 1379.87 curveto
stroke
0.10588 1 1 edgecolor
newpath 3089.7 1376.43 moveto
3080.49 1381.66 lineto
3090.95 1383.32 lineto
closepath fill
3 setlinewidth
solid
0.10588 1 1 edgecolor
newpath 3089.7 1376.43 moveto
3080.49 1381.66 lineto
3090.95 1383.32 lineto
closepath stroke
grestore
% 133
gsave
1 setlinewidth
0 0 0 nodecolor
2930.25 1408.88 27 18 ellipse_path stroke
0 0 0 nodecolor
14 /Times-Roman set_font
2919.75 1405.18 moveto 21 (133) alignedtext
grestore
% 121->133
gsave
3 setlinewidth
0.10588 1 1 edgecolor
newpath 3027.94 1391.18 moveto
3010.02 1394.43 2986.07 1398.77 2966.37 1402.34 curveto
stroke
0.10588 1 1 edgecolor
newpath 2965.72 1398.9 moveto
2956.51 1404.12 lineto
2966.97 1405.78 lineto
closepath fill
3 setlinewidth
solid
0.10588 1 1 edgecolor
newpath 2965.72 1398.9 moveto
2956.51 1404.12 lineto
2966.97 1405.78 lineto
closepath stroke
grestore
% 83
gsave
1 setlinewidth
0 0 0 nodecolor
631.25 550.93 27 18 ellipse_path stroke
0 0 0 nodecolor
14 /Times-Roman set_font
624.25 547.23 moveto 14 (83) alignedtext
grestore
% 83->21
gsave
1 setlinewidth
0 0 0 edgecolor
newpath 606 557.55 moveto
588.18 562.22 564.09 568.53 544.42 573.68 curveto
stroke
0 0 0 edgecolor
newpath 543.37 570.34 moveto
534.59 576.26 lineto
545.15 577.11 lineto
closepath fill
1 setlinewidth
solid
0 0 0 edgecolor
newpath 543.37 570.34 moveto
534.59 576.26 lineto
545.15 577.11 lineto
closepath stroke
grestore
% 85
gsave
1 setlinewidth
0 0 0 nodecolor
2533.71 1359.98 27 18 ellipse_path stroke
0 0 0 nodecolor
14 /Times-Roman set_font
2526.21 1356.28 moveto 15 (85) alignedtext
grestore
% 85->27
gsave
1 setlinewidth
0 0 0 edgecolor
newpath 2537.49 1377.91 moveto
2541.78 1398.27 2548.83 1431.75 2553.83 1455.5 curveto
stroke
0 0 0 edgecolor
newpath 2550.41 1456.26 moveto
2555.9 1465.33 lineto
2557.26 1454.82 lineto
closepath fill
1 setlinewidth
solid
0 0 0 edgecolor
newpath 2550.41 1456.26 moveto
2555.9 1465.33 lineto
2557.26 1454.82 lineto
closepath stroke
grestore
% 133->5
gsave
1 setlinewidth
0 0 0 edgecolor
newpath 2903.96 1413.64 moveto
2886.04 1416.89 2862.09 1421.23 2842.39 1424.8 curveto
stroke
0 0 0 edgecolor
newpath 2841.74 1421.36 moveto
2832.52 1426.59 lineto
2842.99 1428.25 lineto
closepath fill
1 setlinewidth
solid
0 0 0 edgecolor
newpath 2841.74 1421.36 moveto
2832.52 1426.59 lineto
2842.99 1428.25 lineto
closepath stroke
grestore
endpage
showpage
grestore
%%PageTrailer
%%EndPage: 1
%%Trailer
end
restore
%%EOF
