%!PS-Adobe-3.0 EPSF-3.0
%%Creator: graphviz version 2.38.0 (20140413.2041)
%%Title: sigma odd
%%Pages: 1
%%BoundingBox: 36 36 4170 3756
%%EndComments
save
%%BeginProlog
/DotDict 200 dict def
DotDict begin

/setupLatin1 {
mark
/EncodingVector 256 array def
 EncodingVector 0

ISOLatin1Encoding 0 255 getinterval putinterval
EncodingVector 45 /hyphen put

% Set up ISO Latin 1 character encoding
/starnetISO {
        dup dup findfont dup length dict begin
        { 1 index /FID ne { def }{ pop pop } ifelse
        } forall
        /Encoding EncodingVector def
        currentdict end definefont
} def
/Times-Roman starnetISO def
/Times-Italic starnetISO def
/Times-Bold starnetISO def
/Times-BoldItalic starnetISO def
/Helvetica starnetISO def
/Helvetica-Oblique starnetISO def
/Helvetica-Bold starnetISO def
/Helvetica-BoldOblique starnetISO def
/Courier starnetISO def
/Courier-Oblique starnetISO def
/Courier-Bold starnetISO def
/Courier-BoldOblique starnetISO def
cleartomark
} bind def

%%BeginResource: procset graphviz 0 0
/coord-font-family /Times-Roman def
/default-font-family /Times-Roman def
/coordfont coord-font-family findfont 8 scalefont def

/InvScaleFactor 1.0 def
/set_scale {
       dup 1 exch div /InvScaleFactor exch def
       scale
} bind def

% styles
/solid { [] 0 setdash } bind def
/dashed { [9 InvScaleFactor mul dup ] 0 setdash } bind def
/dotted { [1 InvScaleFactor mul 6 InvScaleFactor mul] 0 setdash } bind def
/invis {/fill {newpath} def /stroke {newpath} def /show {pop newpath} def} bind def
/bold { 2 setlinewidth } bind def
/filled { } bind def
/unfilled { } bind def
/rounded { } bind def
/diagonals { } bind def
/tapered { } bind def

% hooks for setting color 
/nodecolor { sethsbcolor } bind def
/edgecolor { sethsbcolor } bind def
/graphcolor { sethsbcolor } bind def
/nopcolor {pop pop pop} bind def

/beginpage {	% i j npages
	/npages exch def
	/j exch def
	/i exch def
	/str 10 string def
	npages 1 gt {
		gsave
			coordfont setfont
			0 0 moveto
			(\() show i str cvs show (,) show j str cvs show (\)) show
		grestore
	} if
} bind def

/set_font {
	findfont exch
	scalefont setfont
} def

% draw text fitted to its expected width
/alignedtext {			% width text
	/text exch def
	/width exch def
	gsave
		width 0 gt {
			[] 0 setdash
			text stringwidth pop width exch sub text length div 0 text ashow
		} if
	grestore
} def

/boxprim {				% xcorner ycorner xsize ysize
		4 2 roll
		moveto
		2 copy
		exch 0 rlineto
		0 exch rlineto
		pop neg 0 rlineto
		closepath
} bind def

/ellipse_path {
	/ry exch def
	/rx exch def
	/y exch def
	/x exch def
	matrix currentmatrix
	newpath
	x y translate
	rx ry scale
	0 0 1 0 360 arc
	setmatrix
} bind def

/endpage { showpage } bind def
/showpage { } def

/layercolorseq
	[	% layer color sequence - darkest to lightest
		[0 0 0]
		[.2 .8 .8]
		[.4 .8 .8]
		[.6 .8 .8]
		[.8 .8 .8]
	]
def

/layerlen layercolorseq length def

/setlayer {/maxlayer exch def /curlayer exch def
	layercolorseq curlayer 1 sub layerlen mod get
	aload pop sethsbcolor
	/nodecolor {nopcolor} def
	/edgecolor {nopcolor} def
	/graphcolor {nopcolor} def
} bind def

/onlayer { curlayer ne {invis} if } def

/onlayers {
	/myupper exch def
	/mylower exch def
	curlayer mylower lt
	curlayer myupper gt
	or
	{invis} if
} def

/curlayer 0 def

%%EndResource
%%EndProlog
%%BeginSetup
14 default-font-family set_font
1 setmiterlimit
% /arrowlength 10 def
% /arrowwidth 5 def

% make sure pdfmark is harmless for PS-interpreters other than Distiller
/pdfmark where {pop} {userdict /pdfmark /cleartomark load put} ifelse
% make '<<' and '>>' safe on PS Level 1 devices
/languagelevel where {pop languagelevel}{1} ifelse
2 lt {
    userdict (<<) cvn ([) cvn load put
    userdict (>>) cvn ([) cvn load put
} if

%%EndSetup
setupLatin1
%%Page: 1 1
%%PageBoundingBox: 36 36 4170 3756
%%PageOrientation: Portrait
0 0 1 beginpage
gsave
36 36 4134 3720 boxprim clip newpath
1 1 set_scale 0 rotate 40 40 translate
% 1
gsave
0 0 0.82745 nodecolor
1687.64 1610.59 108 108 ellipse_path fill
1 setlinewidth
filled
0 0 0 nodecolor
1687.64 1610.59 108 108 ellipse_path stroke
0 0 0 nodecolor
14 /Times-Roman set_font
1684.14 1606.89 moveto 7 (1) alignedtext
grestore
% 1->1
gsave
1 setlinewidth
0 0 0 edgecolor
newpath 1795.63 1616.14 moveto
1806.63 1615.04 1813.64 1613.19 1813.64 1610.59 curveto
1813.64 1608.92 1810.76 1607.57 1805.8 1606.52 curveto
stroke
0 0 0 edgecolor
newpath 1806.03 1603.01 moveto
1795.63 1605.04 lineto
1805.03 1609.94 lineto
closepath fill
1 setlinewidth
solid
0 0 0 edgecolor
newpath 1806.03 1603.01 moveto
1795.63 1605.04 lineto
1805.03 1609.94 lineto
closepath stroke
grestore
% 3
gsave
1 setlinewidth
0 0 0 nodecolor
3280.64 1610.59 27 18 ellipse_path stroke
0 0 0 nodecolor
14 /Times-Roman set_font
3277.14 1606.89 moveto 7 (3) alignedtext
grestore
% 3->1
gsave
1 setlinewidth
0 0 0 edgecolor
newpath 3253.33 1610.59 moveto
3081 1610.59 2140.95 1610.59 1806.13 1610.59 curveto
stroke
0 0 0 edgecolor
newpath 1805.92 1607.09 moveto
1795.92 1610.59 lineto
1805.92 1614.09 lineto
closepath fill
1 setlinewidth
solid
0 0 0 edgecolor
newpath 1805.92 1607.09 moveto
1795.92 1610.59 lineto
1805.92 1614.09 lineto
closepath stroke
grestore
% 5
gsave
1 setlinewidth
0 0 0 nodecolor
2635.88 1215.86 27 18 ellipse_path stroke
0 0 0 nodecolor
14 /Times-Roman set_font
2631.88 1212.16 moveto 8 (5) alignedtext
grestore
% 5->3
gsave
1 setlinewidth
0 0 0 edgecolor
newpath 2655.88 1228.1 moveto
2749.23 1285.25 3142.08 1525.76 3251.97 1593.04 curveto
stroke
0 0 0 edgecolor
newpath 3250.2 1596.06 moveto
3260.56 1598.29 lineto
3253.85 1590.09 lineto
closepath fill
1 setlinewidth
solid
0 0 0 edgecolor
newpath 3250.2 1596.06 moveto
3260.56 1598.29 lineto
3253.85 1590.09 lineto
closepath stroke
grestore
% 7
gsave
1 setlinewidth
0 0 0 nodecolor
880.94 2984.22 27 18 ellipse_path stroke
0 0 0 nodecolor
14 /Times-Roman set_font
877.44 2980.52 moveto 7 (7) alignedtext
grestore
% 7->1
gsave
1 setlinewidth
0 0 0 edgecolor
newpath 890.84 2967.35 moveto
966.57 2838.4 1455.41 2006.04 1627.67 1712.71 curveto
stroke
0 0 0 edgecolor
newpath 1630.88 1714.16 moveto
1632.93 1703.76 lineto
1624.84 1710.61 lineto
closepath fill
1 setlinewidth
solid
0 0 0 edgecolor
newpath 1630.88 1714.16 moveto
1632.93 1703.76 lineto
1624.84 1710.61 lineto
closepath stroke
grestore
% 9
gsave
0.10588 1 1 nodecolor
1487.95 2642.42 27 18 ellipse_path fill
1 setlinewidth
filled
0.10588 1 1 nodecolor
1487.95 2642.42 27 18 ellipse_path stroke
0 0 0 nodecolor
14 /Times-Roman set_font
1483.95 2638.72 moveto 8 (9) alignedtext
grestore
% 13
gsave
1 setlinewidth
0 0 0 nodecolor
1636.91 2989.83 27 18 ellipse_path stroke
0 0 0 nodecolor
14 /Times-Roman set_font
1629.91 2986.13 moveto 14 (13) alignedtext
grestore
% 9->13
gsave
3 setlinewidth
0.10588 1 1 edgecolor
newpath 1495.54 2660.13 moveto
1519.9 2716.93 1596.18 2894.83 1625.38 2962.94 curveto
stroke
0.10588 1 1 edgecolor
newpath 1622.18 2964.35 moveto
1629.34 2972.16 lineto
1628.61 2961.59 lineto
closepath fill
3 setlinewidth
solid
0.10588 1 1 edgecolor
newpath 1622.18 2964.35 moveto
1629.34 2972.16 lineto
1628.61 2961.59 lineto
closepath stroke
grestore
% 13->7
gsave
1 setlinewidth
0 0 0 edgecolor
newpath 1609.56 2989.63 moveto
1494.61 2988.78 1050.53 2985.48 918.3 2984.5 curveto
stroke
0 0 0 edgecolor
newpath 918.28 2981 moveto
908.25 2984.43 lineto
918.22 2988 lineto
closepath fill
1 setlinewidth
solid
0 0 0 edgecolor
newpath 918.28 2981 moveto
908.25 2984.43 lineto
918.22 2988 lineto
closepath stroke
grestore
% 11
gsave
1 setlinewidth
0 0 0 nodecolor
3463.23 876.97 27 18 ellipse_path stroke
0 0 0 nodecolor
14 /Times-Roman set_font
3456.23 873.27 moveto 14 (11) alignedtext
grestore
% 11->3
gsave
1 setlinewidth
0 0 0 edgecolor
newpath 3458.81 894.74 moveto
3434.52 992.34 3317.33 1463.17 3287.54 1582.87 curveto
stroke
0 0 0 edgecolor
newpath 3284.11 1582.18 moveto
3285.09 1592.73 lineto
3290.9 1583.87 lineto
closepath fill
1 setlinewidth
solid
0 0 0 edgecolor
newpath 3284.11 1582.18 moveto
3285.09 1592.73 lineto
3290.9 1583.87 lineto
closepath stroke
grestore
% 15
gsave
1 setlinewidth
0 0 0 nodecolor
3844.92 1107.48 27 18 ellipse_path stroke
0 0 0 nodecolor
14 /Times-Roman set_font
3837.42 1103.78 moveto 15 (15) alignedtext
grestore
% 15->3
gsave
1 setlinewidth
0 0 0 edgecolor
newpath 3828.64 1121.99 moveto
3748.93 1193.06 3399.76 1504.38 3304.65 1589.19 curveto
stroke
0 0 0 edgecolor
newpath 3302.12 1586.75 moveto
3296.99 1596.02 lineto
3306.78 1591.97 lineto
closepath fill
1 setlinewidth
solid
0 0 0 edgecolor
newpath 3302.12 1586.75 moveto
3296.99 1596.02 lineto
3306.78 1591.97 lineto
closepath stroke
grestore
% 17
gsave
1 setlinewidth
0 0 0 nodecolor
1473.05 2767.54 27 18 ellipse_path stroke
0 0 0 nodecolor
14 /Times-Roman set_font
1466.05 2763.84 moveto 14 (17) alignedtext
grestore
% 17->9
gsave
1 setlinewidth
0 0 0 edgecolor
newpath 1475.22 2749.34 moveto
1477.68 2728.68 1481.72 2694.71 1484.59 2670.61 curveto
stroke
0 0 0 edgecolor
newpath 1488.07 2670.98 moveto
1485.78 2660.64 lineto
1481.12 2670.15 lineto
closepath fill
1 setlinewidth
solid
0 0 0 edgecolor
newpath 1488.07 2670.98 moveto
1485.78 2660.64 lineto
1481.12 2670.15 lineto
closepath stroke
grestore
% 19
gsave
1 setlinewidth
0 0 0 nodecolor
2757.1 1573.89 27 18 ellipse_path stroke
0 0 0 nodecolor
14 /Times-Roman set_font
2749.6 1570.19 moveto 15 (19) alignedtext
grestore
% 19->5
gsave
1 setlinewidth
0 0 0 edgecolor
newpath 2751.09 1556.14 moveto
2731.42 1498.04 2668.88 1313.31 2645.14 1243.2 curveto
stroke
0 0 0 edgecolor
newpath 2648.45 1242.07 moveto
2641.93 1233.72 lineto
2641.82 1244.31 lineto
closepath fill
1 setlinewidth
solid
0 0 0 edgecolor
newpath 2648.45 1242.07 moveto
2641.93 1233.72 lineto
2641.82 1244.31 lineto
closepath stroke
grestore
% 21
gsave
1 setlinewidth
0 0 0 nodecolor
191.31 1064.11 27 18 ellipse_path stroke
0 0 0 nodecolor
14 /Times-Roman set_font
184.31 1060.41 moveto 14 (21) alignedtext
grestore
% 21->1
gsave
1 setlinewidth
0 0 0 edgecolor
newpath 215.12 1072.8 moveto
372.01 1130.1 1260.96 1454.76 1576.52 1570.01 curveto
stroke
0 0 0 edgecolor
newpath 1575.55 1573.38 moveto
1586.15 1573.52 lineto
1577.95 1566.8 lineto
closepath fill
1 setlinewidth
solid
0 0 0 edgecolor
newpath 1575.55 1573.38 moveto
1586.15 1573.52 lineto
1577.95 1566.8 lineto
closepath stroke
grestore
% 23
gsave
1 setlinewidth
0 0 0 nodecolor
4003.74 1389.98 27 18 ellipse_path stroke
0 0 0 nodecolor
14 /Times-Roman set_font
3996.74 1386.28 moveto 14 (23) alignedtext
grestore
% 23->3
gsave
1 setlinewidth
0 0 0 edgecolor
newpath 3978.85 1397.58 moveto
3870.64 1430.59 3440.89 1561.7 3315.29 1600.02 curveto
stroke
0 0 0 edgecolor
newpath 3313.97 1596.76 moveto
3305.43 1603.03 lineto
3316.02 1603.46 lineto
closepath fill
1 setlinewidth
solid
0 0 0 edgecolor
newpath 3313.97 1596.76 moveto
3305.43 1603.03 lineto
3316.02 1603.46 lineto
closepath stroke
grestore
% 25
gsave
0.10588 1 1 nodecolor
764.72 406.46 27 18 ellipse_path fill
1 setlinewidth
filled
0.10588 1 1 nodecolor
764.72 406.46 27 18 ellipse_path stroke
0 0 0 nodecolor
14 /Times-Roman set_font
757.22 402.76 moveto 15 (25) alignedtext
grestore
% 31
gsave
1 setlinewidth
0 0 0 nodecolor
865.15 246.35 27 18 ellipse_path stroke
0 0 0 nodecolor
14 /Times-Roman set_font
858.15 242.65 moveto 14 (31) alignedtext
grestore
% 25->31
gsave
3 setlinewidth
0.10588 1 1 edgecolor
newpath 775.28 389.63 moveto
792.86 361.6 828.26 305.16 849 272.1 curveto
stroke
0.10588 1 1 edgecolor
newpath 852.08 273.77 moveto
854.43 263.44 lineto
846.15 270.05 lineto
closepath fill
3 setlinewidth
solid
0.10588 1 1 edgecolor
newpath 852.08 273.77 moveto
854.43 263.44 lineto
846.15 270.05 lineto
closepath stroke
grestore
% 31->1
gsave
1 setlinewidth
0 0 0 edgecolor
newpath 875.25 263.11 moveto
952.46 391.18 1450.86 1217.85 1626.5 1509.17 curveto
stroke
0 0 0 edgecolor
newpath 1623.69 1511.3 moveto
1631.86 1518.06 lineto
1629.69 1507.68 lineto
closepath fill
1 setlinewidth
solid
0 0 0 edgecolor
newpath 1623.69 1511.3 moveto
1631.86 1518.06 lineto
1629.69 1507.68 lineto
closepath stroke
grestore
% 27
gsave
1 setlinewidth
0 0 0 nodecolor
2305.48 1399.49 27 18 ellipse_path stroke
0 0 0 nodecolor
14 /Times-Roman set_font
2298.48 1395.79 moveto 14 (27) alignedtext
grestore
% 27->5
gsave
1 setlinewidth
0 0 0 edgecolor
newpath 2326.4 1387.86 moveto
2383.05 1356.38 2539.61 1269.36 2605.76 1232.6 curveto
stroke
0 0 0 edgecolor
newpath 2607.8 1235.47 moveto
2614.84 1227.55 lineto
2604.4 1229.35 lineto
closepath fill
1 setlinewidth
solid
0 0 0 edgecolor
newpath 2607.8 1235.47 moveto
2614.84 1227.55 lineto
2604.4 1229.35 lineto
closepath stroke
grestore
% 29
gsave
1 setlinewidth
0 0 0 nodecolor
3719.55 1120.03 27 18 ellipse_path stroke
0 0 0 nodecolor
14 /Times-Roman set_font
3712.05 1116.33 moveto 15 (29) alignedtext
grestore
% 29->15
gsave
1 setlinewidth
0 0 0 edgecolor
newpath 3746.45 1117.34 moveto
3764.38 1115.54 3788.18 1113.16 3807.9 1111.18 curveto
stroke
0 0 0 edgecolor
newpath 3808.47 1114.64 moveto
3818.07 1110.17 lineto
3807.77 1107.68 lineto
closepath fill
1 setlinewidth
solid
0 0 0 edgecolor
newpath 3808.47 1114.64 moveto
3818.07 1110.17 lineto
3807.77 1107.68 lineto
closepath stroke
grestore
% 33
gsave
1 setlinewidth
0 0 0 nodecolor
3972.69 1647.02 27 18 ellipse_path stroke
0 0 0 nodecolor
14 /Times-Roman set_font
3965.69 1643.32 moveto 14 (33) alignedtext
grestore
% 33->3
gsave
1 setlinewidth
0 0 0 edgecolor
newpath 3945.56 1645.59 moveto
3837.99 1639.93 3441.31 1619.05 3317.69 1612.54 curveto
stroke
0 0 0 edgecolor
newpath 3317.76 1609.04 moveto
3307.59 1612.01 lineto
3317.39 1616.03 lineto
closepath fill
1 setlinewidth
solid
0 0 0 edgecolor
newpath 3317.76 1609.04 moveto
3307.59 1612.01 lineto
3317.39 1616.03 lineto
closepath stroke
grestore
% 35
gsave
1 setlinewidth
0 0 0 nodecolor
3893.84 1933.44 27 18 ellipse_path stroke
0 0 0 nodecolor
14 /Times-Roman set_font
3886.34 1929.74 moveto 15 (35) alignedtext
grestore
% 35->3
gsave
1 setlinewidth
0 0 0 edgecolor
newpath 3872.38 1922.14 moveto
3780.3 1873.66 3418.53 1683.19 3310.96 1626.55 curveto
stroke
0 0 0 edgecolor
newpath 3312.41 1623.36 moveto
3301.93 1621.8 lineto
3309.15 1629.56 lineto
closepath fill
1 setlinewidth
solid
0 0 0 edgecolor
newpath 3312.41 1623.36 moveto
3301.93 1621.8 lineto
3309.15 1629.56 lineto
closepath stroke
grestore
% 37
gsave
1 setlinewidth
0 0 0 nodecolor
2845.38 1483.99 27 18 ellipse_path stroke
0 0 0 nodecolor
14 /Times-Roman set_font
2838.38 1480.29 moveto 14 (37) alignedtext
grestore
% 37->19
gsave
1 setlinewidth
0 0 0 edgecolor
newpath 2830.41 1499.24 moveto
2816.46 1513.45 2795.47 1534.82 2779.52 1551.06 curveto
stroke
0 0 0 edgecolor
newpath 2776.66 1548.98 moveto
2772.15 1558.57 lineto
2781.65 1553.88 lineto
closepath fill
1 setlinewidth
solid
0 0 0 edgecolor
newpath 2776.66 1548.98 moveto
2772.15 1558.57 lineto
2781.65 1553.88 lineto
closepath stroke
grestore
% 39
gsave
1 setlinewidth
0 0 0 nodecolor
305.87 3474.97 27 18 ellipse_path stroke
0 0 0 nodecolor
14 /Times-Roman set_font
298.37 3471.27 moveto 15 (39) alignedtext
grestore
% 39->7
gsave
1 setlinewidth
0 0 0 edgecolor
newpath 322.77 3460.55 moveto
404.61 3390.71 759.78 3087.61 856.53 3005.06 curveto
stroke
0 0 0 edgecolor
newpath 858.98 3007.56 moveto
864.31 2998.41 lineto
854.43 3002.24 lineto
closepath fill
1 setlinewidth
solid
0 0 0 edgecolor
newpath 858.98 3007.56 moveto
864.31 2998.41 lineto
854.43 3002.24 lineto
closepath stroke
grestore
% 41
gsave
1 setlinewidth
0 0 0 nodecolor
250.87 1175.14 27 18 ellipse_path stroke
0 0 0 nodecolor
14 /Times-Roman set_font
242.87 1171.44 moveto 16 (41) alignedtext
grestore
% 41->21
gsave
1 setlinewidth
0 0 0 edgecolor
newpath 241.56 1157.79 moveto
231.86 1139.7 216.54 1111.14 205.36 1090.3 curveto
stroke
0 0 0 edgecolor
newpath 208.37 1088.49 moveto
200.55 1081.33 lineto
202.2 1091.8 lineto
closepath fill
1 setlinewidth
solid
0 0 0 edgecolor
newpath 208.37 1088.49 moveto
200.55 1081.33 lineto
202.2 1091.8 lineto
closepath stroke
grestore
% 43
gsave
1 setlinewidth
0 0 0 nodecolor
3340.96 846.54 27 18 ellipse_path stroke
0 0 0 nodecolor
14 /Times-Roman set_font
3332.96 842.84 moveto 16 (43) alignedtext
grestore
% 43->11
gsave
1 setlinewidth
0 0 0 edgecolor
newpath 3366.3 852.85 moveto
3384.17 857.29 3408.34 863.31 3428.07 868.22 curveto
stroke
0 0 0 edgecolor
newpath 3427.38 871.66 moveto
3437.93 870.67 lineto
3429.07 864.86 lineto
closepath fill
1 setlinewidth
solid
0 0 0 edgecolor
newpath 3427.38 871.66 moveto
3437.93 870.67 lineto
3429.07 864.86 lineto
closepath stroke
grestore
% 45
gsave
1 setlinewidth
0 0 0 nodecolor
535.54 3578.67 27 18 ellipse_path stroke
0 0 0 nodecolor
14 /Times-Roman set_font
527.54 3574.97 moveto 16 (45) alignedtext
grestore
% 45->39
gsave
1 setlinewidth
0 0 0 edgecolor
newpath 513.1 3568.53 moveto
472.02 3549.99 384.64 3510.54 337.53 3489.27 curveto
stroke
0 0 0 edgecolor
newpath 338.95 3486.07 moveto
328.4 3485.14 lineto
336.07 3492.45 lineto
closepath fill
1 setlinewidth
solid
0 0 0 edgecolor
newpath 338.95 3486.07 moveto
328.4 3485.14 lineto
336.07 3492.45 lineto
closepath stroke
grestore
% 47
gsave
1 setlinewidth
0 0 0 nodecolor
3788.99 2170.16 27 18 ellipse_path stroke
0 0 0 nodecolor
14 /Times-Roman set_font
3780.99 2166.46 moveto 16 (47) alignedtext
grestore
% 47->3
gsave
1 setlinewidth
0 0 0 edgecolor
newpath 3774.86 2154.61 moveto
3703.89 2076.49 3386.3 1726.9 3301.51 1633.56 curveto
stroke
0 0 0 edgecolor
newpath 3304.02 1631.11 moveto
3294.7 1626.07 lineto
3298.84 1635.82 lineto
closepath fill
1 setlinewidth
solid
0 0 0 edgecolor
newpath 3304.02 1631.11 moveto
3294.7 1626.07 lineto
3298.84 1635.82 lineto
closepath stroke
grestore
% 49
gsave
0.10588 1 1 nodecolor
2345.06 1039.19 27 18 ellipse_path fill
1 setlinewidth
filled
0.10588 1 1 nodecolor
2345.06 1039.19 27 18 ellipse_path stroke
0 0 0 nodecolor
14 /Times-Roman set_font
2337.06 1035.49 moveto 16 (49) alignedtext
grestore
% 57
gsave
1 setlinewidth
0 0 0 nodecolor
2395.82 923.87 27 18 ellipse_path stroke
0 0 0 nodecolor
14 /Times-Roman set_font
2388.32 920.17 moveto 15 (57) alignedtext
grestore
% 49->57
gsave
3 setlinewidth
0.10588 1 1 edgecolor
newpath 2352.77 1021.68 moveto
2361.09 1002.77 2374.44 972.44 2384.07 950.56 curveto
stroke
0.10588 1 1 edgecolor
newpath 2387.38 951.74 moveto
2388.21 941.17 lineto
2380.97 948.92 lineto
closepath fill
3 setlinewidth
solid
0.10588 1 1 edgecolor
newpath 2387.38 951.74 moveto
2388.21 941.17 lineto
2380.97 948.92 lineto
closepath stroke
grestore
% 57->5
gsave
1 setlinewidth
0 0 0 edgecolor
newpath 2409.07 939.99 moveto
2449.07 988.64 2568.79 1134.25 2616.22 1191.94 curveto
stroke
0 0 0 edgecolor
newpath 2613.62 1194.29 moveto
2622.67 1199.79 lineto
2619.03 1189.84 lineto
closepath fill
1 setlinewidth
solid
0 0 0 edgecolor
newpath 2613.62 1194.29 moveto
2622.67 1199.79 lineto
2619.03 1189.84 lineto
closepath stroke
grestore
% 51
gsave
1 setlinewidth
0 0 0 nodecolor
1362.27 2651.45 27 18 ellipse_path stroke
0 0 0 nodecolor
14 /Times-Roman set_font
1354.77 2647.75 moveto 15 (51) alignedtext
grestore
% 51->9
gsave
1 setlinewidth
0 0 0 edgecolor
newpath 1389.24 2649.52 moveto
1407.21 2648.22 1431.07 2646.51 1450.83 2645.09 curveto
stroke
0 0 0 edgecolor
newpath 1451.31 2648.56 moveto
1461.03 2644.36 lineto
1450.81 2641.58 lineto
closepath fill
1 setlinewidth
solid
0 0 0 edgecolor
newpath 1451.31 2648.56 moveto
1461.03 2644.36 lineto
1450.81 2641.58 lineto
closepath stroke
grestore
% 53
gsave
1 setlinewidth
0 0 0 nodecolor
2426.64 1434.08 27 18 ellipse_path stroke
0 0 0 nodecolor
14 /Times-Roman set_font
2419.14 1430.38 moveto 15 (53) alignedtext
grestore
% 53->27
gsave
1 setlinewidth
0 0 0 edgecolor
newpath 2401.54 1426.92 moveto
2383.83 1421.86 2359.88 1415.02 2340.32 1409.44 curveto
stroke
0 0 0 edgecolor
newpath 2341.13 1406.03 moveto
2330.56 1406.65 lineto
2339.21 1412.76 lineto
closepath fill
1 setlinewidth
solid
0 0 0 edgecolor
newpath 2341.13 1406.03 moveto
2330.56 1406.65 lineto
2339.21 1412.76 lineto
closepath stroke
grestore
% 55
gsave
1 setlinewidth
0 0 0 nodecolor
1455.31 2520.72 27 18 ellipse_path stroke
0 0 0 nodecolor
14 /Times-Roman set_font
1447.31 2517.02 moveto 16 (55) alignedtext
grestore
% 55->9
gsave
1 setlinewidth
0 0 0 edgecolor
newpath 1460.13 2538.68 moveto
1465.5 2558.72 1474.27 2591.4 1480.52 2614.72 curveto
stroke
0 0 0 edgecolor
newpath 1477.14 2615.64 moveto
1483.12 2624.39 lineto
1483.91 2613.82 lineto
closepath fill
1 setlinewidth
solid
0 0 0 edgecolor
newpath 1477.14 2615.64 moveto
1483.12 2624.39 lineto
1483.91 2613.82 lineto
closepath stroke
grestore
% 59
gsave
1 setlinewidth
0 0 0 nodecolor
3794.24 992.12 27 18 ellipse_path stroke
0 0 0 nodecolor
14 /Times-Roman set_font
3786.24 988.42 moveto 16 (59) alignedtext
grestore
% 59->15
gsave
1 setlinewidth
0 0 0 edgecolor
newpath 3801.93 1009.64 moveto
3810.24 1028.55 3823.58 1058.9 3833.19 1080.78 curveto
stroke
0 0 0 edgecolor
newpath 3830.09 1082.42 moveto
3837.32 1090.17 lineto
3836.5 1079.61 lineto
closepath fill
1 setlinewidth
solid
0 0 0 edgecolor
newpath 3830.09 1082.42 moveto
3837.32 1090.17 lineto
3836.5 1079.61 lineto
closepath stroke
grestore
% 61
gsave
1 setlinewidth
0 0 0 nodecolor
742.06 102.93 27 18 ellipse_path stroke
0 0 0 nodecolor
14 /Times-Roman set_font
734.56 99.23 moveto 15 (61) alignedtext
grestore
% 61->31
gsave
1 setlinewidth
0 0 0 edgecolor
newpath 755.71 118.82 moveto
777.33 144.02 819.61 193.29 844.82 222.66 curveto
stroke
0 0 0 edgecolor
newpath 842.28 225.07 moveto
851.44 230.38 lineto
847.59 220.52 lineto
closepath fill
1 setlinewidth
solid
0 0 0 edgecolor
newpath 842.28 225.07 moveto
851.44 230.38 lineto
847.59 220.52 lineto
closepath stroke
grestore
% 63
gsave
1 setlinewidth
0 0 0 nodecolor
1993.18 3116.16 27 18 ellipse_path stroke
0 0 0 nodecolor
14 /Times-Roman set_font
1985.68 3112.46 moveto 15 (63) alignedtext
grestore
% 63->13
gsave
1 setlinewidth
0 0 0 edgecolor
newpath 1969.25 3107.67 moveto
1907.41 3085.75 1742.15 3027.15 1670.65 3001.79 curveto
stroke
0 0 0 edgecolor
newpath 1671.8 2998.49 moveto
1661.21 2998.45 lineto
1669.46 3005.09 lineto
closepath fill
1 setlinewidth
solid
0 0 0 edgecolor
newpath 1671.8 2998.49 moveto
1661.21 2998.45 lineto
1669.46 3005.09 lineto
closepath stroke
grestore
% 65
gsave
1 setlinewidth
0 0 0 nodecolor
36.02 1171.83 27 18 ellipse_path stroke
0 0 0 nodecolor
14 /Times-Roman set_font
28.02 1168.13 moveto 16 (65) alignedtext
grestore
% 65->21
gsave
1 setlinewidth
0 0 0 edgecolor
newpath 54.75 1158.84 moveto
82.04 1139.91 132.86 1104.65 164.22 1082.9 curveto
stroke
0 0 0 edgecolor
newpath 166.29 1085.72 moveto
172.52 1077.15 lineto
162.3 1079.97 lineto
closepath fill
1 setlinewidth
solid
0 0 0 edgecolor
newpath 166.29 1085.72 moveto
172.52 1077.15 lineto
162.3 1079.97 lineto
closepath stroke
grestore
% 67
gsave
1 setlinewidth
0 0 0 nodecolor
1458.15 2892.65 27 18 ellipse_path stroke
0 0 0 nodecolor
14 /Times-Roman set_font
1450.65 2888.95 moveto 15 (67) alignedtext
grestore
% 67->17
gsave
1 setlinewidth
0 0 0 edgecolor
newpath 1460.32 2874.46 moveto
1462.78 2853.8 1466.82 2819.83 1469.69 2795.73 curveto
stroke
0 0 0 edgecolor
newpath 1473.17 2796.1 moveto
1470.88 2785.75 lineto
1466.22 2795.27 lineto
closepath fill
1 setlinewidth
solid
0 0 0 edgecolor
newpath 1473.17 2796.1 moveto
1470.88 2785.75 lineto
1466.22 2795.27 lineto
closepath stroke
grestore
% 69
gsave
1 setlinewidth
0 0 0 nodecolor
3543.32 2251.88 27 18 ellipse_path stroke
0 0 0 nodecolor
14 /Times-Roman set_font
3535.32 2248.18 moveto 16 (69) alignedtext
grestore
% 69->3
gsave
1 setlinewidth
0 0 0 edgecolor
newpath 3536.16 2234.39 moveto
3499.83 2145.72 3335.98 1745.69 3291.7 1637.59 curveto
stroke
0 0 0 edgecolor
newpath 3294.83 1635.99 moveto
3287.8 1628.06 lineto
3288.35 1638.64 lineto
closepath fill
1 setlinewidth
solid
0 0 0 edgecolor
newpath 3294.83 1635.99 moveto
3287.8 1628.06 lineto
3288.35 1638.64 lineto
closepath stroke
grestore
% 71
gsave
1 setlinewidth
0 0 0 nodecolor
1621.57 2508.75 27 18 ellipse_path stroke
0 0 0 nodecolor
14 /Times-Roman set_font
1614.57 2505.05 moveto 14 (71) alignedtext
grestore
% 71->9
gsave
1 setlinewidth
0 0 0 edgecolor
newpath 1606.5 2523.82 moveto
1583.04 2547.29 1537.66 2592.69 1510.36 2620.01 curveto
stroke
0 0 0 edgecolor
newpath 1507.76 2617.65 moveto
1503.17 2627.2 lineto
1512.71 2622.6 lineto
closepath fill
1 setlinewidth
solid
0 0 0 edgecolor
newpath 1507.76 2617.65 moveto
1503.17 2627.2 lineto
1512.71 2622.6 lineto
closepath stroke
grestore
% 73
gsave
1 setlinewidth
0 0 0 nodecolor
2933.66 1394.09 27 18 ellipse_path stroke
0 0 0 nodecolor
14 /Times-Roman set_font
2926.66 1390.39 moveto 14 (73) alignedtext
grestore
% 73->37
gsave
1 setlinewidth
0 0 0 edgecolor
newpath 2918.69 1409.34 moveto
2904.74 1423.54 2883.75 1444.92 2867.8 1461.16 curveto
stroke
0 0 0 edgecolor
newpath 2864.94 1459.08 moveto
2860.43 1468.66 lineto
2869.93 1463.98 lineto
closepath fill
1 setlinewidth
solid
0 0 0 edgecolor
newpath 2864.94 1459.08 moveto
2860.43 1468.66 lineto
2869.93 1463.98 lineto
closepath stroke
grestore
% 75
gsave
1 setlinewidth
0 0 0 nodecolor
990.8 236.97 27 18 ellipse_path stroke
0 0 0 nodecolor
14 /Times-Roman set_font
983.3 233.27 moveto 15 (75) alignedtext
grestore
% 75->31
gsave
1 setlinewidth
0 0 0 edgecolor
newpath 963.84 238.99 moveto
945.87 240.33 922.01 242.11 902.26 243.58 curveto
stroke
0 0 0 edgecolor
newpath 901.77 240.11 moveto
892.06 244.34 lineto
902.29 247.09 lineto
closepath fill
1 setlinewidth
solid
0 0 0 edgecolor
newpath 901.77 240.11 moveto
892.06 244.34 lineto
902.29 247.09 lineto
closepath stroke
grestore
% 77
gsave
1 setlinewidth
0 0 0 nodecolor
3310.91 2365.98 27 18 ellipse_path stroke
0 0 0 nodecolor
14 /Times-Roman set_font
3303.91 2362.28 moveto 14 (77) alignedtext
grestore
% 77->3
gsave
1 setlinewidth
0 0 0 edgecolor
newpath 3310.18 2347.69 moveto
3306.15 2247.08 3286.68 1761.33 3281.77 1638.74 curveto
stroke
0 0 0 edgecolor
newpath 3285.27 1638.5 moveto
3281.37 1628.65 lineto
3278.27 1638.78 lineto
closepath fill
1 setlinewidth
solid
0 0 0 edgecolor
newpath 3285.27 1638.5 moveto
3281.37 1628.65 lineto
3278.27 1638.78 lineto
closepath stroke
grestore
% 79
gsave
1 setlinewidth
0 0 0 nodecolor
2796.53 944.9 27 18 ellipse_path stroke
0 0 0 nodecolor
14 /Times-Roman set_font
2789.03 941.2 moveto 15 (79) alignedtext
grestore
% 79->5
gsave
1 setlinewidth
0 0 0 edgecolor
newpath 2786.48 961.85 moveto
2759.21 1007.85 2683.67 1135.25 2651.13 1190.14 curveto
stroke
0 0 0 edgecolor
newpath 2648.02 1188.53 moveto
2645.93 1198.91 lineto
2654.04 1192.1 lineto
closepath fill
1 setlinewidth
solid
0 0 0 edgecolor
newpath 2648.02 1188.53 moveto
2645.93 1198.91 lineto
2654.04 1192.1 lineto
closepath stroke
grestore
% 81
gsave
0.10588 1 1 nodecolor
3134.55 1142.72 27 18 ellipse_path fill
1 setlinewidth
filled
0.10588 1 1 nodecolor
3134.55 1142.72 27 18 ellipse_path stroke
0 0 0 nodecolor
14 /Times-Roman set_font
3127.55 1139.02 moveto 14 (81) alignedtext
grestore
% 121
gsave
0.10588 1 1 nodecolor
3009.88 1161 27 18 ellipse_path fill
1 setlinewidth
filled
0.10588 1 1 nodecolor
3009.88 1161 27 18 ellipse_path stroke
0 0 0 nodecolor
14 /Times-Roman set_font
2999.38 1157.3 moveto 21 (121) alignedtext
grestore
% 81->121
gsave
3 setlinewidth
0.10588 1 1 edgecolor
newpath 3108.11 1146.59 moveto
3090.09 1149.24 3066.01 1152.77 3046.2 1155.68 curveto
stroke
0.10588 1 1 edgecolor
newpath 3045.67 1152.22 moveto
3036.28 1157.13 lineto
3046.68 1159.14 lineto
closepath fill
3 setlinewidth
solid
0.10588 1 1 edgecolor
newpath 3045.67 1152.22 moveto
3036.28 1157.13 lineto
3046.68 1159.14 lineto
closepath stroke
grestore
% 133
gsave
1 setlinewidth
0 0 0 nodecolor
2885.21 1179.29 27 18 ellipse_path stroke
0 0 0 nodecolor
14 /Times-Roman set_font
2874.71 1175.59 moveto 21 (133) alignedtext
grestore
% 121->133
gsave
3 setlinewidth
0.10588 1 1 edgecolor
newpath 2983.44 1164.88 moveto
2965.42 1167.52 2941.34 1171.05 2921.53 1173.96 curveto
stroke
0.10588 1 1 edgecolor
newpath 2921 1170.5 moveto
2911.61 1175.41 lineto
2922.02 1177.43 lineto
closepath fill
3 setlinewidth
solid
0.10588 1 1 edgecolor
newpath 2921 1170.5 moveto
2911.61 1175.41 lineto
2922.02 1177.43 lineto
closepath stroke
grestore
% 83
gsave
1 setlinewidth
0 0 0 nodecolor
27 970.72 27 18 ellipse_path stroke
0 0 0 nodecolor
14 /Times-Roman set_font
20 967.02 moveto 14 (83) alignedtext
grestore
% 83->21
gsave
1 setlinewidth
0 0 0 edgecolor
newpath 47.81 982.54 moveto
76.7 998.96 129.11 1028.75 161.96 1047.42 curveto
stroke
0 0 0 edgecolor
newpath 160.25 1050.48 moveto
170.67 1052.37 lineto
163.71 1044.39 lineto
closepath fill
1 setlinewidth
solid
0 0 0 edgecolor
newpath 160.25 1050.48 moveto
170.67 1052.37 lineto
163.71 1044.39 lineto
closepath stroke
grestore
% 85
gsave
1 setlinewidth
0 0 0 nodecolor
2270.89 1520.65 27 18 ellipse_path stroke
0 0 0 nodecolor
14 /Times-Roman set_font
2263.39 1516.95 moveto 15 (85) alignedtext
grestore
% 85->27
gsave
1 setlinewidth
0 0 0 edgecolor
newpath 2275.99 1502.77 moveto
2281.69 1482.82 2290.98 1450.29 2297.61 1427.07 curveto
stroke
0 0 0 edgecolor
newpath 2300.98 1428.02 moveto
2300.36 1417.44 lineto
2294.25 1426.1 lineto
closepath fill
1 setlinewidth
solid
0 0 0 edgecolor
newpath 2300.98 1428.02 moveto
2300.36 1417.44 lineto
2294.25 1426.1 lineto
closepath stroke
grestore
% 87
gsave
1 setlinewidth
0 0 0 nodecolor
3938.97 1023.62 27 18 ellipse_path stroke
0 0 0 nodecolor
14 /Times-Roman set_font
3931.97 1019.92 moveto 14 (87) alignedtext
grestore
% 87->15
gsave
1 setlinewidth
0 0 0 edgecolor
newpath 3922.59 1038.23 moveto
3907.75 1051.46 3885.71 1071.11 3868.9 1086.1 curveto
stroke
0 0 0 edgecolor
newpath 3866.25 1083.77 moveto
3861.12 1093.04 lineto
3870.91 1088.99 lineto
closepath fill
1 setlinewidth
solid
0 0 0 edgecolor
newpath 3866.25 1083.77 moveto
3861.12 1093.04 lineto
3870.91 1088.99 lineto
closepath stroke
grestore
% 89
gsave
1 setlinewidth
0 0 0 nodecolor
587.39 3463.83 27 18 ellipse_path stroke
0 0 0 nodecolor
14 /Times-Roman set_font
579.89 3460.13 moveto 15 (89) alignedtext
grestore
% 89->45
gsave
1 setlinewidth
0 0 0 edgecolor
newpath 579.52 3481.27 moveto
571.07 3499.99 557.53 3529.96 547.71 3551.71 curveto
stroke
0 0 0 edgecolor
newpath 544.42 3550.51 moveto
543.49 3561.06 lineto
550.8 3553.39 lineto
closepath fill
1 setlinewidth
solid
0 0 0 edgecolor
newpath 544.42 3550.51 moveto
543.49 3561.06 lineto
550.8 3553.39 lineto
closepath stroke
grestore
% 91
gsave
1 setlinewidth
0 0 0 nodecolor
569.99 2436.31 27 18 ellipse_path stroke
0 0 0 nodecolor
14 /Times-Roman set_font
562.49 2432.61 moveto 15 (91) alignedtext
grestore
% 91->7
gsave
1 setlinewidth
0 0 0 edgecolor
newpath 579.64 2453.31 moveto
624.43 2532.23 812.21 2863.12 866.3 2958.43 curveto
stroke
0 0 0 edgecolor
newpath 863.27 2960.18 moveto
871.25 2967.15 lineto
869.36 2956.73 lineto
closepath fill
1 setlinewidth
solid
0 0 0 edgecolor
newpath 863.27 2960.18 moveto
871.25 2967.15 lineto
869.36 2956.73 lineto
closepath stroke
grestore
% 93
gsave
1 setlinewidth
0 0 0 nodecolor
1651.55 18 27 18 ellipse_path stroke
0 0 0 nodecolor
14 /Times-Roman set_font
1644.05 14.3 moveto 15 (93) alignedtext
grestore
% 93->1
gsave
1 setlinewidth
0 0 0 edgecolor
newpath 1651.97 36.16 moveto
1655.25 180.92 1677.23 1150.98 1684.96 1492.17 curveto
stroke
0 0 0 edgecolor
newpath 1681.47 1492.41 moveto
1685.19 1502.33 lineto
1688.46 1492.25 lineto
closepath fill
1 setlinewidth
solid
0 0 0 edgecolor
newpath 1681.47 1492.41 moveto
1685.19 1502.33 lineto
1688.46 1492.25 lineto
closepath stroke
grestore
% 95
gsave
1 setlinewidth
0 0 0 nodecolor
3953.73 1171.01 27 18 ellipse_path stroke
0 0 0 nodecolor
14 /Times-Roman set_font
3945.73 1167.31 moveto 16 (95) alignedtext
grestore
% 95->15
gsave
1 setlinewidth
0 0 0 edgecolor
newpath 3933.27 1159.06 moveto
3916.55 1149.3 3892.71 1135.38 3874.01 1124.46 curveto
stroke
0 0 0 edgecolor
newpath 3875.7 1121.39 moveto
3865.3 1119.37 lineto
3872.17 1127.44 lineto
closepath fill
1 setlinewidth
solid
0 0 0 edgecolor
newpath 3875.7 1121.39 moveto
3865.3 1119.37 lineto
3872.17 1127.44 lineto
closepath stroke
grestore
% 97
gsave
1 setlinewidth
0 0 0 nodecolor
2294.3 1154.52 27 18 ellipse_path stroke
0 0 0 nodecolor
14 /Times-Roman set_font
2286.8 1150.82 moveto 15 (97) alignedtext
grestore
% 97->49
gsave
1 setlinewidth
0 0 0 edgecolor
newpath 2302.01 1137 moveto
2310.33 1118.1 2323.68 1087.76 2333.31 1065.88 curveto
stroke
0 0 0 edgecolor
newpath 2336.62 1067.06 moveto
2337.44 1056.5 lineto
2330.21 1064.24 lineto
closepath fill
1 setlinewidth
solid
0 0 0 edgecolor
newpath 2336.62 1067.06 moveto
2337.44 1056.5 lineto
2330.21 1064.24 lineto
closepath stroke
grestore
% 99
gsave
1 setlinewidth
0 0 0 nodecolor
79.67 3586.04 27 18 ellipse_path stroke
0 0 0 nodecolor
14 /Times-Roman set_font
71.67 3582.34 moveto 16 (99) alignedtext
grestore
% 99->39
gsave
1 setlinewidth
0 0 0 edgecolor
newpath 101.77 3575.19 moveto
142.24 3555.32 228.37 3513.03 274.75 3490.25 curveto
stroke
0 0 0 edgecolor
newpath 276.58 3493.25 moveto
284.01 3485.7 lineto
273.49 3486.97 lineto
closepath fill
1 setlinewidth
solid
0 0 0 edgecolor
newpath 276.58 3493.25 moveto
284.01 3485.7 lineto
273.49 3486.97 lineto
closepath stroke
grestore
% 101
gsave
1 setlinewidth
0 0 0 nodecolor
1236.6 2660.48 27 18 ellipse_path stroke
0 0 0 nodecolor
14 /Times-Roman set_font
1225.6 2656.78 moveto 22 (101) alignedtext
grestore
% 101->51
gsave
1 setlinewidth
0 0 0 edgecolor
newpath 1263.56 2658.55 moveto
1281.53 2657.25 1305.4 2655.54 1325.16 2654.12 curveto
stroke
0 0 0 edgecolor
newpath 1325.64 2657.59 moveto
1335.36 2653.39 lineto
1325.13 2650.61 lineto
closepath fill
1 setlinewidth
solid
0 0 0 edgecolor
newpath 1325.64 2657.59 moveto
1335.36 2653.39 lineto
1325.13 2650.61 lineto
closepath stroke
grestore
% 103
gsave
1 setlinewidth
0 0 0 nodecolor
1482.81 3334.99 27 18 ellipse_path stroke
0 0 0 nodecolor
14 /Times-Roman set_font
1471.81 3331.29 moveto 22 (103) alignedtext
grestore
% 103->13
gsave
1 setlinewidth
0 0 0 edgecolor
newpath 1490.67 3317.4 moveto
1515.86 3260.97 1594.77 3084.22 1624.98 3016.55 curveto
stroke
0 0 0 edgecolor
newpath 1628.2 3017.95 moveto
1629.08 3007.39 lineto
1621.8 3015.09 lineto
closepath fill
1 setlinewidth
solid
0 0 0 edgecolor
newpath 1628.2 3017.95 moveto
1629.08 3007.39 lineto
1621.8 3015.09 lineto
closepath stroke
grestore
% 105
gsave
1 setlinewidth
0 0 0 nodecolor
3111.74 2347.48 27 18 ellipse_path stroke
0 0 0 nodecolor
14 /Times-Roman set_font
3100.74 2343.78 moveto 22 (105) alignedtext
grestore
% 105->3
gsave
1 setlinewidth
0 0 0 edgecolor
newpath 3115.83 2329.63 moveto
3138.3 2231.59 3246.7 1758.67 3274.26 1638.44 curveto
stroke
0 0 0 edgecolor
newpath 3277.71 1639.06 moveto
3276.53 1628.54 lineto
3270.89 1637.5 lineto
closepath fill
1 setlinewidth
solid
0 0 0 edgecolor
newpath 3277.71 1639.06 moveto
3276.53 1628.54 lineto
3270.89 1637.5 lineto
closepath stroke
grestore
% 107
gsave
1 setlinewidth
0 0 0 nodecolor
2184.32 1364.9 27 18 ellipse_path stroke
0 0 0 nodecolor
14 /Times-Roman set_font
2173.32 1361.2 moveto 22 (107) alignedtext
grestore
% 107->27
gsave
1 setlinewidth
0 0 0 edgecolor
newpath 2209.43 1372.07 moveto
2227.14 1377.12 2251.09 1383.96 2270.64 1389.54 curveto
stroke
0 0 0 edgecolor
newpath 2269.83 1392.95 moveto
2280.41 1392.33 lineto
2271.76 1386.22 lineto
closepath fill
1 setlinewidth
solid
0 0 0 edgecolor
newpath 2269.83 1392.95 moveto
2280.41 1392.33 lineto
2271.76 1386.22 lineto
closepath stroke
grestore
% 109
gsave
1 setlinewidth
0 0 0 nodecolor
1422.68 2399.02 27 18 ellipse_path stroke
0 0 0 nodecolor
14 /Times-Roman set_font
1411.68 2395.32 moveto 22 (109) alignedtext
grestore
% 109->55
gsave
1 setlinewidth
0 0 0 edgecolor
newpath 1427.49 2416.98 moveto
1432.87 2437.02 1441.63 2469.7 1447.89 2493.02 curveto
stroke
0 0 0 edgecolor
newpath 1444.51 2493.94 moveto
1450.48 2502.69 lineto
1451.27 2492.12 lineto
closepath fill
1 setlinewidth
solid
0 0 0 edgecolor
newpath 1444.51 2493.94 moveto
1450.48 2502.69 lineto
1451.27 2492.12 lineto
closepath stroke
grestore
% 111
gsave
1 setlinewidth
0 0 0 nodecolor
2787.17 1760.48 27 18 ellipse_path stroke
0 0 0 nodecolor
14 /Times-Roman set_font
2776.67 1756.78 moveto 21 (111) alignedtext
grestore
% 111->19
gsave
1 setlinewidth
0 0 0 edgecolor
newpath 2784.24 1742.25 moveto
2778.97 1709.56 2767.88 1640.78 2761.63 1602.01 curveto
stroke
0 0 0 edgecolor
newpath 2765.05 1601.24 moveto
2760.01 1591.92 lineto
2758.14 1602.35 lineto
closepath fill
1 setlinewidth
solid
0 0 0 edgecolor
newpath 2765.05 1601.24 moveto
2760.01 1591.92 lineto
2758.14 1602.35 lineto
closepath stroke
grestore
% 113
gsave
1 setlinewidth
0 0 0 nodecolor
2301.67 759.99 27 18 ellipse_path stroke
0 0 0 nodecolor
14 /Times-Roman set_font
2291.17 756.29 moveto 21 (113) alignedtext
grestore
% 113->57
gsave
1 setlinewidth
0 0 0 edgecolor
newpath 2311.39 776.91 moveto
2327.89 805.62 2361.44 864.03 2380.92 897.93 curveto
stroke
0 0 0 edgecolor
newpath 2378 899.87 moveto
2386.01 906.8 lineto
2384.07 896.38 lineto
closepath fill
1 setlinewidth
solid
0 0 0 edgecolor
newpath 2378 899.87 moveto
2386.01 906.8 lineto
2384.07 896.38 lineto
closepath stroke
grestore
% 115
gsave
1 setlinewidth
0 0 0 nodecolor
1676.46 2628.87 27 18 ellipse_path stroke
0 0 0 nodecolor
14 /Times-Roman set_font
1665.46 2625.17 moveto 22 (115) alignedtext
grestore
% 115->9
gsave
1 setlinewidth
0 0 0 edgecolor
newpath 1649.45 2630.82 moveto
1616.84 2633.16 1561.8 2637.11 1525.18 2639.75 curveto
stroke
0 0 0 edgecolor
newpath 1524.63 2636.28 moveto
1514.91 2640.48 lineto
1525.13 2643.26 lineto
closepath fill
1 setlinewidth
solid
0 0 0 edgecolor
newpath 1524.63 2636.28 moveto
1514.91 2640.48 lineto
1525.13 2643.26 lineto
closepath stroke
grestore
% 117
gsave
1 setlinewidth
0 0 0 nodecolor
507.8 2326.72 27 18 ellipse_path stroke
0 0 0 nodecolor
14 /Times-Roman set_font
497.3 2323.02 moveto 21 (117) alignedtext
grestore
% 117->91
gsave
1 setlinewidth
0 0 0 edgecolor
newpath 517.52 2343.85 moveto
527.65 2361.7 543.65 2389.89 555.32 2410.46 curveto
stroke
0 0 0 edgecolor
newpath 552.36 2412.34 moveto
560.34 2419.31 lineto
558.45 2408.88 lineto
closepath fill
1 setlinewidth
solid
0 0 0 edgecolor
newpath 552.36 2412.34 moveto
560.34 2419.31 lineto
558.45 2408.88 lineto
closepath stroke
grestore
% 119
gsave
1 setlinewidth
0 0 0 nodecolor
1639.31 2755.61 27 18 ellipse_path stroke
0 0 0 nodecolor
14 /Times-Roman set_font
1628.31 2751.91 moveto 22 (119) alignedtext
grestore
% 119->9
gsave
1 setlinewidth
0 0 0 edgecolor
newpath 1621.05 2741.96 moveto
1594.46 2722.07 1544.92 2685.03 1514.36 2662.17 curveto
stroke
0 0 0 edgecolor
newpath 1516.38 2659.31 moveto
1506.27 2656.12 lineto
1512.18 2664.92 lineto
closepath fill
1 setlinewidth
solid
0 0 0 edgecolor
newpath 1516.38 2659.31 moveto
1506.27 2656.12 lineto
1512.18 2664.92 lineto
closepath stroke
grestore
% 133->5
gsave
1 setlinewidth
0 0 0 edgecolor
newpath 2858.53 1183.2 moveto
2813.73 1189.77 2723.31 1203.03 2672.57 1210.48 curveto
stroke
0 0 0 edgecolor
newpath 2671.76 1207.06 moveto
2662.37 1211.97 lineto
2672.77 1213.98 lineto
closepath fill
1 setlinewidth
solid
0 0 0 edgecolor
newpath 2671.76 1207.06 moveto
2662.37 1211.97 lineto
2672.77 1213.98 lineto
closepath stroke
grestore
% 123
gsave
1 setlinewidth
0 0 0 nodecolor
204.41 875.56 27 18 ellipse_path stroke
0 0 0 nodecolor
14 /Times-Roman set_font
193.91 871.86 moveto 21 (123) alignedtext
grestore
% 123->21
gsave
1 setlinewidth
0 0 0 edgecolor
newpath 203.15 893.64 moveto
200.87 926.58 196 996.6 193.28 1035.88 curveto
stroke
0 0 0 edgecolor
newpath 189.77 1035.86 moveto
192.57 1046.08 lineto
196.75 1036.35 lineto
closepath fill
1 setlinewidth
solid
0 0 0 edgecolor
newpath 189.77 1035.86 moveto
192.57 1046.08 lineto
196.75 1036.35 lineto
closepath stroke
grestore
% 125
gsave
1 setlinewidth
0 0 0 nodecolor
239.58 3231.85 27 18 ellipse_path stroke
0 0 0 nodecolor
14 /Times-Roman set_font
228.58 3228.15 moveto 22 (125) alignedtext
grestore
% 125->39
gsave
1 setlinewidth
0 0 0 edgecolor
newpath 244.45 3249.72 moveto
255.9 3291.7 284.55 3396.81 298.29 3447.19 curveto
stroke
0 0 0 edgecolor
newpath 294.98 3448.34 moveto
300.99 3457.07 lineto
301.73 3446.5 lineto
closepath fill
1 setlinewidth
solid
0 0 0 edgecolor
newpath 294.98 3448.34 moveto
300.99 3457.07 lineto
301.73 3446.5 lineto
closepath stroke
grestore
% 127
gsave
1 setlinewidth
0 0 0 nodecolor
2217.45 108.27 27 18 ellipse_path stroke
0 0 0 nodecolor
14 /Times-Roman set_font
2206.95 104.57 moveto 21 (127) alignedtext
grestore
% 127->1
gsave
1 setlinewidth
0 0 0 edgecolor
newpath 2211.22 125.93 moveto
2162.44 264.27 1840.41 1177.4 1727.05 1498.87 curveto
stroke
0 0 0 edgecolor
newpath 1723.61 1498.07 moveto
1723.59 1508.66 lineto
1730.22 1500.4 lineto
closepath fill
1 setlinewidth
solid
0 0 0 edgecolor
newpath 1723.61 1498.07 moveto
1723.59 1508.66 lineto
1730.22 1500.4 lineto
closepath stroke
grestore
% 129
gsave
1 setlinewidth
0 0 0 nodecolor
3585.5 907.4 27 18 ellipse_path stroke
0 0 0 nodecolor
14 /Times-Roman set_font
3574.5 903.7 moveto 22 (129) alignedtext
grestore
% 129->11
gsave
1 setlinewidth
0 0 0 edgecolor
newpath 3560.17 901.1 moveto
3542.3 896.65 3518.13 890.63 3498.39 885.72 curveto
stroke
0 0 0 edgecolor
newpath 3499.08 882.29 moveto
3488.53 883.27 lineto
3497.39 889.08 lineto
closepath fill
1 setlinewidth
solid
0 0 0 edgecolor
newpath 3499.08 882.29 moveto
3488.53 883.27 lineto
3497.39 889.08 lineto
closepath stroke
grestore
% 131
gsave
1 setlinewidth
0 0 0 nodecolor
4098.51 1653.64 27 18 ellipse_path stroke
0 0 0 nodecolor
14 /Times-Roman set_font
4088.01 1649.94 moveto 21 (131) alignedtext
grestore
% 131->33
gsave
1 setlinewidth
0 0 0 edgecolor
newpath 4071.52 1652.22 moveto
4053.52 1651.27 4029.63 1650.01 4009.85 1648.97 curveto
stroke
0 0 0 edgecolor
newpath 4009.8 1645.47 moveto
3999.63 1648.44 lineto
4009.44 1652.46 lineto
closepath fill
1 setlinewidth
solid
0 0 0 edgecolor
newpath 4009.8 1645.47 moveto
3999.63 1648.44 lineto
4009.44 1652.46 lineto
closepath stroke
grestore
% 135
gsave
1 setlinewidth
0 0 0 nodecolor
3818.13 1230.59 27 18 ellipse_path stroke
0 0 0 nodecolor
14 /Times-Roman set_font
3807.13 1226.89 moveto 22 (135) alignedtext
grestore
% 135->15
gsave
1 setlinewidth
0 0 0 edgecolor
newpath 3822.02 1212.69 moveto
3826.45 1192.36 3833.72 1158.93 3838.89 1135.22 curveto
stroke
0 0 0 edgecolor
newpath 3842.31 1135.91 moveto
3841.02 1125.4 lineto
3835.48 1134.43 lineto
closepath fill
1 setlinewidth
solid
0 0 0 edgecolor
newpath 3842.31 1135.91 moveto
3841.02 1125.4 lineto
3835.48 1134.43 lineto
closepath stroke
grestore
% 137
gsave
1 setlinewidth
0 0 0 nodecolor
3591.08 2368.48 27 18 ellipse_path stroke
0 0 0 nodecolor
14 /Times-Roman set_font
3580.58 2364.78 moveto 21 (137) alignedtext
grestore
% 137->69
gsave
1 setlinewidth
0 0 0 edgecolor
newpath 3583.93 2351.02 moveto
3576.12 2331.96 3563.52 2301.19 3554.42 2278.98 curveto
stroke
0 0 0 edgecolor
newpath 3557.55 2277.38 moveto
3550.52 2269.46 lineto
3551.07 2280.04 lineto
closepath fill
1 setlinewidth
solid
0 0 0 edgecolor
newpath 3557.55 2277.38 moveto
3550.52 2269.46 lineto
3551.07 2280.04 lineto
closepath stroke
grestore
% 139
gsave
1 setlinewidth
0 0 0 nodecolor
4005.34 1992.15 27 18 ellipse_path stroke
0 0 0 nodecolor
14 /Times-Roman set_font
3994.34 1988.45 moveto 22 (139) alignedtext
grestore
% 139->35
gsave
1 setlinewidth
0 0 0 edgecolor
newpath 3984.1 1980.97 moveto
3967.16 1972.05 3943.21 1959.44 3924.24 1949.45 curveto
stroke
0 0 0 edgecolor
newpath 3925.86 1946.34 moveto
3915.38 1944.78 lineto
3922.6 1952.54 lineto
closepath fill
1 setlinewidth
solid
0 0 0 edgecolor
newpath 3925.86 1946.34 moveto
3915.38 1944.78 lineto
3922.6 1952.54 lineto
closepath stroke
grestore
% 141
gsave
1 setlinewidth
0 0 0 nodecolor
2924.39 2277.39 27 18 ellipse_path stroke
0 0 0 nodecolor
14 /Times-Roman set_font
2913.39 2273.69 moveto 22 (141) alignedtext
grestore
% 141->3
gsave
1 setlinewidth
0 0 0 edgecolor
newpath 2933.55 2260.23 moveto
2981.97 2169.61 3208.01 1746.55 3266.69 1636.7 curveto
stroke
0 0 0 edgecolor
newpath 3269.92 1638.1 moveto
3271.54 1627.63 lineto
3263.74 1634.8 lineto
closepath fill
1 setlinewidth
solid
0 0 0 edgecolor
newpath 3269.92 1638.1 moveto
3271.54 1627.63 lineto
3263.74 1634.8 lineto
closepath stroke
grestore
% 143
gsave
1 setlinewidth
0 0 0 nodecolor
366.96 994.33 27 18 ellipse_path stroke
0 0 0 nodecolor
14 /Times-Roman set_font
355.96 990.63 moveto 22 (143) alignedtext
grestore
% 143->21
gsave
1 setlinewidth
0 0 0 edgecolor
newpath 343.64 1003.59 moveto
313.06 1015.74 259.24 1037.12 224.44 1050.95 curveto
stroke
0 0 0 edgecolor
newpath 222.74 1047.86 moveto
214.74 1054.8 lineto
225.32 1054.36 lineto
closepath fill
1 setlinewidth
solid
0 0 0 edgecolor
newpath 222.74 1047.86 moveto
214.74 1054.8 lineto
225.32 1054.36 lineto
closepath stroke
grestore
% 145
gsave
1 setlinewidth
0 0 0 nodecolor
483.7 3693.5 27 18 ellipse_path stroke
0 0 0 nodecolor
14 /Times-Roman set_font
472.2 3689.8 moveto 23 (145) alignedtext
grestore
% 145->45
gsave
1 setlinewidth
0 0 0 edgecolor
newpath 491.57 3676.06 moveto
500.02 3657.34 513.55 3627.38 523.37 3605.62 curveto
stroke
0 0 0 edgecolor
newpath 526.67 3606.83 moveto
527.6 3596.27 lineto
520.29 3603.95 lineto
closepath fill
1 setlinewidth
solid
0 0 0 edgecolor
newpath 526.67 3606.83 moveto
527.6 3596.27 lineto
520.29 3603.95 lineto
closepath stroke
grestore
% 147
gsave
1 setlinewidth
0 0 0 nodecolor
2580.26 882.61 27 18 ellipse_path stroke
0 0 0 nodecolor
14 /Times-Roman set_font
2569.26 878.91 moveto 22 (147) alignedtext
grestore
% 147->57
gsave
1 setlinewidth
0 0 0 edgecolor
newpath 2554.62 888.35 moveto
2522.63 895.5 2467.78 907.77 2431.66 915.86 curveto
stroke
0 0 0 edgecolor
newpath 2430.54 912.52 moveto
2421.55 918.12 lineto
2432.07 919.35 lineto
closepath fill
1 setlinewidth
solid
0 0 0 edgecolor
newpath 2430.54 912.52 moveto
2421.55 918.12 lineto
2432.07 919.35 lineto
closepath stroke
grestore
% 149
gsave
1 setlinewidth
0 0 0 nodecolor
1116.45 227.59 27 18 ellipse_path stroke
0 0 0 nodecolor
14 /Times-Roman set_font
1104.95 223.89 moveto 23 (149) alignedtext
grestore
% 149->75
gsave
1 setlinewidth
0 0 0 edgecolor
newpath 1089.49 229.61 moveto
1071.52 230.95 1047.66 232.73 1027.91 234.2 curveto
stroke
0 0 0 edgecolor
newpath 1027.42 230.73 moveto
1017.71 234.96 lineto
1027.94 237.71 lineto
closepath fill
1 setlinewidth
solid
0 0 0 edgecolor
newpath 1027.42 230.73 moveto
1017.71 234.96 lineto
1027.94 237.71 lineto
closepath stroke
grestore
% 151
gsave
1 setlinewidth
0 0 0 nodecolor
2569.99 1547.22 27 18 ellipse_path stroke
0 0 0 nodecolor
14 /Times-Roman set_font
2558.99 1543.52 moveto 22 (151) alignedtext
grestore
% 151->19
gsave
1 setlinewidth
0 0 0 edgecolor
newpath 2596.4 1550.99 moveto
2628.77 1555.6 2683.79 1563.44 2720.29 1568.65 curveto
stroke
0 0 0 edgecolor
newpath 2720.13 1572.16 moveto
2730.52 1570.1 lineto
2721.12 1565.23 lineto
closepath fill
1 setlinewidth
solid
0 0 0 edgecolor
newpath 2720.13 1572.16 moveto
2730.52 1570.1 lineto
2721.12 1565.23 lineto
closepath stroke
grestore
% 153
gsave
1 setlinewidth
0 0 0 nodecolor
445.61 2217.14 27 18 ellipse_path stroke
0 0 0 nodecolor
14 /Times-Roman set_font
434.61 2213.44 moveto 22 (153) alignedtext
grestore
% 153->117
gsave
1 setlinewidth
0 0 0 edgecolor
newpath 455.33 2234.26 moveto
465.46 2252.12 481.46 2280.31 493.13 2300.87 curveto
stroke
0 0 0 edgecolor
newpath 490.17 2302.75 moveto
498.15 2309.72 lineto
496.26 2299.3 lineto
closepath fill
1 setlinewidth
solid
0 0 0 edgecolor
newpath 490.17 2302.75 moveto
498.15 2309.72 lineto
496.26 2299.3 lineto
closepath stroke
grestore
% 155
gsave
1 setlinewidth
0 0 0 nodecolor
2761.98 2160.61 27 18 ellipse_path stroke
0 0 0 nodecolor
14 /Times-Roman set_font
2750.98 2156.91 moveto 22 (155) alignedtext
grestore
% 155->3
gsave
1 setlinewidth
0 0 0 edgecolor
newpath 2776.39 2145.33 moveto
2848.73 2068.62 3172.13 1725.67 3259.07 1633.47 curveto
stroke
0 0 0 edgecolor
newpath 3261.74 1635.74 moveto
3266.05 1626.06 lineto
3256.65 1630.94 lineto
closepath fill
1 setlinewidth
solid
0 0 0 edgecolor
newpath 3261.74 1635.74 moveto
3266.05 1626.06 lineto
3256.65 1630.94 lineto
closepath stroke
grestore
% 157
gsave
1 setlinewidth
0 0 0 nodecolor
2860.79 836.52 27 18 ellipse_path stroke
0 0 0 nodecolor
14 /Times-Roman set_font
2849.79 832.82 moveto 22 (157) alignedtext
grestore
% 157->79
gsave
1 setlinewidth
0 0 0 edgecolor
newpath 2850.75 853.46 moveto
2840.28 871.11 2823.75 899 2811.69 919.34 curveto
stroke
0 0 0 edgecolor
newpath 2808.59 917.7 moveto
2806.5 928.09 lineto
2814.61 921.27 lineto
closepath fill
1 setlinewidth
solid
0 0 0 edgecolor
newpath 2808.59 917.7 moveto
2806.5 928.09 lineto
2814.61 921.27 lineto
closepath stroke
grestore
% 159
gsave
1 setlinewidth
0 0 0 nodecolor
2340.08 1278.33 27 18 ellipse_path stroke
0 0 0 nodecolor
14 /Times-Roman set_font
2329.08 1274.63 moveto 22 (159) alignedtext
grestore
% 159->27
gsave
1 setlinewidth
0 0 0 edgecolor
newpath 2334.97 1296.21 moveto
2329.27 1316.16 2319.99 1348.69 2313.36 1371.91 curveto
stroke
0 0 0 edgecolor
newpath 2309.99 1370.96 moveto
2310.61 1381.54 lineto
2316.72 1372.89 lineto
closepath fill
1 setlinewidth
solid
0 0 0 edgecolor
newpath 2309.99 1370.96 moveto
2310.61 1381.54 lineto
2316.72 1372.89 lineto
closepath stroke
grestore
% 161
gsave
1 setlinewidth
0 0 0 nodecolor
2635.88 2005.33 27 18 ellipse_path stroke
0 0 0 nodecolor
14 /Times-Roman set_font
2624.88 2001.63 moveto 22 (161) alignedtext
grestore
% 161->3
gsave
1 setlinewidth
0 0 0 edgecolor
newpath 2655.88 1993.08 moveto
2749.23 1935.93 3142.08 1695.43 3251.97 1628.15 curveto
stroke
0 0 0 edgecolor
newpath 3253.85 1631.1 moveto
3260.56 1622.89 lineto
3250.2 1625.13 lineto
closepath fill
1 setlinewidth
solid
0 0 0 edgecolor
newpath 3253.85 1631.1 moveto
3260.56 1622.89 lineto
3250.2 1625.13 lineto
closepath stroke
grestore
% 163
gsave
1 setlinewidth
0 0 0 nodecolor
310.43 1286.18 27 18 ellipse_path stroke
0 0 0 nodecolor
14 /Times-Roman set_font
299.43 1282.48 moveto 22 (163) alignedtext
grestore
% 163->41
gsave
1 setlinewidth
0 0 0 edgecolor
newpath 301.12 1268.83 moveto
291.42 1250.74 276.1 1222.17 264.92 1201.34 curveto
stroke
0 0 0 edgecolor
newpath 267.92 1199.53 moveto
260.11 1192.37 lineto
261.75 1202.84 lineto
closepath fill
1 setlinewidth
solid
0 0 0 edgecolor
newpath 267.92 1199.53 moveto
260.11 1192.37 lineto
261.75 1202.84 lineto
closepath stroke
grestore
endpage
showpage
grestore
%%PageTrailer
%%EndPage: 1
%%Trailer
end
restore
%%EOF
