%!PS-Adobe-3.0 EPSF-3.0
%%Creator: graphviz version 2.38.0 (20140413.2041)
%%Title: sigma odd
%%Pages: 1
%%BoundingBox: 36 36 548 1187
%%EndComments
save
%%BeginProlog
/DotDict 200 dict def
DotDict begin

/setupLatin1 {
mark
/EncodingVector 256 array def
 EncodingVector 0

ISOLatin1Encoding 0 255 getinterval putinterval
EncodingVector 45 /hyphen put

% Set up ISO Latin 1 character encoding
/starnetISO {
        dup dup findfont dup length dict begin
        { 1 index /FID ne { def }{ pop pop } ifelse
        } forall
        /Encoding EncodingVector def
        currentdict end definefont
} def
/Times-Roman starnetISO def
/Times-Italic starnetISO def
/Times-Bold starnetISO def
/Times-BoldItalic starnetISO def
/Helvetica starnetISO def
/Helvetica-Oblique starnetISO def
/Helvetica-Bold starnetISO def
/Helvetica-BoldOblique starnetISO def
/Courier starnetISO def
/Courier-Oblique starnetISO def
/Courier-Bold starnetISO def
/Courier-BoldOblique starnetISO def
cleartomark
} bind def

%%BeginResource: procset graphviz 0 0
/coord-font-family /Times-Roman def
/default-font-family /Times-Roman def
/coordfont coord-font-family findfont 8 scalefont def

/InvScaleFactor 1.0 def
/set_scale {
       dup 1 exch div /InvScaleFactor exch def
       scale
} bind def

% styles
/solid { [] 0 setdash } bind def
/dashed { [9 InvScaleFactor mul dup ] 0 setdash } bind def
/dotted { [1 InvScaleFactor mul 6 InvScaleFactor mul] 0 setdash } bind def
/invis {/fill {newpath} def /stroke {newpath} def /show {pop newpath} def} bind def
/bold { 2 setlinewidth } bind def
/filled { } bind def
/unfilled { } bind def
/rounded { } bind def
/diagonals { } bind def
/tapered { } bind def

% hooks for setting color 
/nodecolor { sethsbcolor } bind def
/edgecolor { sethsbcolor } bind def
/graphcolor { sethsbcolor } bind def
/nopcolor {pop pop pop} bind def

/beginpage {	% i j npages
	/npages exch def
	/j exch def
	/i exch def
	/str 10 string def
	npages 1 gt {
		gsave
			coordfont setfont
			0 0 moveto
			(\() show i str cvs show (,) show j str cvs show (\)) show
		grestore
	} if
} bind def

/set_font {
	findfont exch
	scalefont setfont
} def

% draw text fitted to its expected width
/alignedtext {			% width text
	/text exch def
	/width exch def
	gsave
		width 0 gt {
			[] 0 setdash
			text stringwidth pop width exch sub text length div 0 text ashow
		} if
	grestore
} def

/boxprim {				% xcorner ycorner xsize ysize
		4 2 roll
		moveto
		2 copy
		exch 0 rlineto
		0 exch rlineto
		pop neg 0 rlineto
		closepath
} bind def

/ellipse_path {
	/ry exch def
	/rx exch def
	/y exch def
	/x exch def
	matrix currentmatrix
	newpath
	x y translate
	rx ry scale
	0 0 1 0 360 arc
	setmatrix
} bind def

/endpage { showpage } bind def
/showpage { } def

/layercolorseq
	[	% layer color sequence - darkest to lightest
		[0 0 0]
		[.2 .8 .8]
		[.4 .8 .8]
		[.6 .8 .8]
		[.8 .8 .8]
	]
def

/layerlen layercolorseq length def

/setlayer {/maxlayer exch def /curlayer exch def
	layercolorseq curlayer 1 sub layerlen mod get
	aload pop sethsbcolor
	/nodecolor {nopcolor} def
	/edgecolor {nopcolor} def
	/graphcolor {nopcolor} def
} bind def

/onlayer { curlayer ne {invis} if } def

/onlayers {
	/myupper exch def
	/mylower exch def
	curlayer mylower lt
	curlayer myupper gt
	or
	{invis} if
} def

/curlayer 0 def

%%EndResource
%%EndProlog
%%BeginSetup
14 default-font-family set_font
1 setmiterlimit
% /arrowlength 10 def
% /arrowwidth 5 def

% make sure pdfmark is harmless for PS-interpreters other than Distiller
/pdfmark where {pop} {userdict /pdfmark /cleartomark load put} ifelse
% make '<<' and '>>' safe on PS Level 1 devices
/languagelevel where {pop languagelevel}{1} ifelse
2 lt {
    userdict (<<) cvn ([) cvn load put
    userdict (>>) cvn ([) cvn load put
} if

%%EndSetup
setupLatin1
%%Page: 1 1
%%PageBoundingBox: 36 36 548 1187
%%PageOrientation: Portrait
0 0 1 beginpage
gsave
36 36 512 1151 boxprim clip newpath
1 1 set_scale 0 rotate 40 40 translate
% 1
gsave
0 0 0.82745 nodecolor
477 301 27 18 ellipse_path fill
1 setlinewidth
filled
0 0 0 nodecolor
477 301 27 18 ellipse_path stroke
0 0 0 nodecolor
14 /Times-Roman set_font
473.5 297.3 moveto 7 (1) alignedtext
grestore
% 1->1
gsave
1 setlinewidth
0 0 0 edgecolor
newpath 461.77 316.17 moveto
457.16 326.66 462.23 337 477 337 curveto
486.92 337 492.47 332.33 493.64 326.09 curveto
stroke
0 0 0 edgecolor
newpath 497.1 325.57 moveto
492.23 316.17 lineto
490.17 326.56 lineto
closepath fill
1 setlinewidth
solid
0 0 0 edgecolor
newpath 497.1 325.57 moveto
492.23 316.17 lineto
490.17 326.56 lineto
closepath stroke
grestore
% 3
gsave
1 setlinewidth
0 0 0 nodecolor
387 639 27 18 ellipse_path stroke
0 0 0 nodecolor
14 /Times-Roman set_font
383.5 635.3 moveto 7 (3) alignedtext
grestore
% 3->1
gsave
1 setlinewidth
0 0 0 edgecolor
newpath 392.61 621.3 moveto
407.01 565.99 451.25 396.05 468.76 328.81 curveto
stroke
0 0 0 edgecolor
newpath 472.2 329.49 moveto
471.33 318.93 lineto
465.43 327.72 lineto
closepath fill
1 setlinewidth
solid
0 0 0 edgecolor
newpath 472.2 329.49 moveto
471.33 318.93 lineto
465.43 327.72 lineto
closepath stroke
grestore
% 5
gsave
1 setlinewidth
0 0 0 nodecolor
297 963 27 18 ellipse_path stroke
0 0 0 nodecolor
14 /Times-Roman set_font
293 959.3 moveto 8 (5) alignedtext
grestore
% 5->3
gsave
1 setlinewidth
0 0 0 edgecolor
newpath 302.86 945.12 moveto
317.43 891.46 360.87 731.53 378.47 666.73 curveto
stroke
0 0 0 edgecolor
newpath 381.91 667.39 moveto
381.16 656.83 lineto
375.16 665.56 lineto
closepath fill
1 setlinewidth
solid
0 0 0 edgecolor
newpath 381.91 667.39 moveto
381.16 656.83 lineto
375.16 665.56 lineto
closepath stroke
grestore
% 7
gsave
1 setlinewidth
0 0 0 nodecolor
387 342 27 18 ellipse_path stroke
0 0 0 nodecolor
14 /Times-Roman set_font
383.5 338.3 moveto 7 (7) alignedtext
grestore
% 7->1
gsave
1 setlinewidth
0 0 0 edgecolor
newpath 409.75 331.87 moveto
420.41 326.9 433.43 320.83 445.1 315.4 curveto
stroke
0 0 0 edgecolor
newpath 446.91 318.41 moveto
454.5 311.02 lineto
443.95 312.07 lineto
closepath fill
1 setlinewidth
solid
0 0 0 edgecolor
newpath 446.91 318.41 moveto
454.5 311.02 lineto
443.95 312.07 lineto
closepath stroke
grestore
% 9
gsave
0.10588 1 1 nodecolor
207 450 27 18 ellipse_path fill
1 setlinewidth
filled
0.10588 1 1 nodecolor
207 450 27 18 ellipse_path stroke
0 0 0 nodecolor
14 /Times-Roman set_font
203 446.3 moveto 8 (9) alignedtext
grestore
% 13
gsave
1 setlinewidth
0 0 0 nodecolor
297 396 27 18 ellipse_path stroke
0 0 0 nodecolor
14 /Times-Roman set_font
290 392.3 moveto 14 (13) alignedtext
grestore
% 9->13
gsave
3 setlinewidth
0.10588 1 1 edgecolor
newpath 227.53 438.02 moveto
239.38 430.74 254.7 421.34 267.84 413.28 curveto
stroke
0.10588 1 1 edgecolor
newpath 269.83 416.16 moveto
276.52 407.95 lineto
266.17 410.2 lineto
closepath fill
3 setlinewidth
solid
0.10588 1 1 edgecolor
newpath 269.83 416.16 moveto
276.52 407.95 lineto
266.17 410.2 lineto
closepath stroke
grestore
% 13->7
gsave
1 setlinewidth
0 0 0 edgecolor
newpath 317.53 384.02 moveto
329.38 376.74 344.7 367.34 357.84 359.28 curveto
stroke
0 0 0 edgecolor
newpath 359.83 362.16 moveto
366.52 353.95 lineto
356.17 356.2 lineto
closepath fill
1 setlinewidth
solid
0 0 0 edgecolor
newpath 359.83 362.16 moveto
366.52 353.95 lineto
356.17 356.2 lineto
closepath stroke
grestore
% 11
gsave
1 setlinewidth
0 0 0 nodecolor
297 828 27 18 ellipse_path stroke
0 0 0 nodecolor
14 /Times-Roman set_font
290 824.3 moveto 14 (11) alignedtext
grestore
% 11->3
gsave
1 setlinewidth
0 0 0 edgecolor
newpath 313.74 813.78 moveto
317.44 809.89 321.14 805.5 324 801 curveto
351.4 757.88 369.71 700.77 378.95 667.15 curveto
stroke
0 0 0 edgecolor
newpath 382.43 667.67 moveto
381.63 657.1 lineto
375.67 665.86 lineto
closepath fill
1 setlinewidth
solid
0 0 0 edgecolor
newpath 382.43 667.67 moveto
381.63 657.1 lineto
375.67 665.86 lineto
closepath stroke
grestore
% 15
gsave
1 setlinewidth
0 0 0 nodecolor
297 774 27 18 ellipse_path stroke
0 0 0 nodecolor
14 /Times-Roman set_font
289.5 770.3 moveto 15 (15) alignedtext
grestore
% 15->3
gsave
1 setlinewidth
0 0 0 edgecolor
newpath 313.27 759.45 moveto
316.98 755.57 320.8 751.27 324 747 curveto
343.65 720.82 361.74 687.84 373.24 665.26 curveto
stroke
0 0 0 edgecolor
newpath 376.4 666.77 moveto
377.75 656.26 lineto
370.14 663.63 lineto
closepath fill
1 setlinewidth
solid
0 0 0 edgecolor
newpath 376.4 666.77 moveto
377.75 656.26 lineto
370.14 663.63 lineto
closepath stroke
grestore
% 17
gsave
1 setlinewidth
0 0 0 nodecolor
117 531 27 18 ellipse_path stroke
0 0 0 nodecolor
14 /Times-Roman set_font
110 527.3 moveto 14 (17) alignedtext
grestore
% 17->9
gsave
1 setlinewidth
0 0 0 edgecolor
newpath 133.73 516.52 moveto
147.37 503.96 167.3 485.62 182.77 471.38 curveto
stroke
0 0 0 edgecolor
newpath 185.42 473.7 moveto
190.4 464.36 lineto
180.68 468.55 lineto
closepath fill
1 setlinewidth
solid
0 0 0 edgecolor
newpath 185.42 473.7 moveto
190.4 464.36 lineto
180.68 468.55 lineto
closepath stroke
grestore
% 19
gsave
1 setlinewidth
0 0 0 nodecolor
207 1125 27 18 ellipse_path stroke
0 0 0 nodecolor
14 /Times-Roman set_font
199.5 1121.3 moveto 15 (19) alignedtext
grestore
% 19->5
gsave
1 setlinewidth
0 0 0 edgecolor
newpath 217.09 1108.27 moveto
232.43 1080.02 263.6 1022.65 281.84 989.07 curveto
stroke
0 0 0 edgecolor
newpath 285.13 990.34 moveto
286.83 979.88 lineto
278.98 986.99 lineto
closepath fill
1 setlinewidth
solid
0 0 0 edgecolor
newpath 285.13 990.34 moveto
286.83 979.88 lineto
278.98 986.99 lineto
closepath stroke
grestore
% 21
gsave
1 setlinewidth
0 0 0 nodecolor
387 261 27 18 ellipse_path stroke
0 0 0 nodecolor
14 /Times-Roman set_font
380 257.3 moveto 14 (21) alignedtext
grestore
% 21->1
gsave
1 setlinewidth
0 0 0 edgecolor
newpath 409.75 270.89 moveto
420.33 275.7 433.23 281.56 444.83 286.83 curveto
stroke
0 0 0 edgecolor
newpath 443.64 290.14 moveto
454.19 291.09 lineto
446.54 283.76 lineto
closepath fill
1 setlinewidth
solid
0 0 0 edgecolor
newpath 443.64 290.14 moveto
454.19 291.09 lineto
446.54 283.76 lineto
closepath stroke
grestore
% 23
gsave
1 setlinewidth
0 0 0 nodecolor
297 720 27 18 ellipse_path stroke
0 0 0 nodecolor
14 /Times-Roman set_font
290 716.3 moveto 14 (23) alignedtext
grestore
% 23->3
gsave
1 setlinewidth
0 0 0 edgecolor
newpath 313.73 705.52 moveto
327.37 692.96 347.3 674.62 362.77 660.38 curveto
stroke
0 0 0 edgecolor
newpath 365.42 662.7 moveto
370.4 653.36 lineto
360.68 657.55 lineto
closepath fill
1 setlinewidth
solid
0 0 0 edgecolor
newpath 365.42 662.7 moveto
370.4 653.36 lineto
360.68 657.55 lineto
closepath stroke
grestore
% 25
gsave
0.10588 1 1 nodecolor
297 126 27 18 ellipse_path fill
1 setlinewidth
filled
0.10588 1 1 nodecolor
297 126 27 18 ellipse_path stroke
0 0 0 nodecolor
14 /Times-Roman set_font
289.5 122.3 moveto 15 (25) alignedtext
grestore
% 31
gsave
1 setlinewidth
0 0 0 nodecolor
387 99 27 18 ellipse_path stroke
0 0 0 nodecolor
14 /Times-Roman set_font
380 95.3 moveto 14 (31) alignedtext
grestore
% 25->31
gsave
3 setlinewidth
0.10588 1 1 edgecolor
newpath 322.05 118.62 moveto
331.44 115.74 342.36 112.39 352.5 109.28 curveto
stroke
0.10588 1 1 edgecolor
newpath 353.75 112.55 moveto
362.29 106.28 lineto
351.7 105.86 lineto
closepath fill
3 setlinewidth
solid
0.10588 1 1 edgecolor
newpath 353.75 112.55 moveto
362.29 106.28 lineto
351.7 105.86 lineto
closepath stroke
grestore
% 31->1
gsave
1 setlinewidth
0 0 0 edgecolor
newpath 395.5 116.22 moveto
410.89 151.55 446.13 232.44 464.45 274.5 curveto
stroke
0 0 0 edgecolor
newpath 461.31 276.05 moveto
468.52 283.82 lineto
467.73 273.26 lineto
closepath fill
1 setlinewidth
solid
0 0 0 edgecolor
newpath 461.31 276.05 moveto
468.52 283.82 lineto
467.73 273.26 lineto
closepath stroke
grestore
% 27
gsave
1 setlinewidth
0 0 0 nodecolor
207 1044 27 18 ellipse_path stroke
0 0 0 nodecolor
14 /Times-Roman set_font
200 1040.3 moveto 14 (27) alignedtext
grestore
% 27->5
gsave
1 setlinewidth
0 0 0 edgecolor
newpath 223.73 1029.52 moveto
237.37 1016.96 257.3 998.62 272.77 984.38 curveto
stroke
0 0 0 edgecolor
newpath 275.42 986.7 moveto
280.4 977.36 lineto
270.68 981.55 lineto
closepath fill
1 setlinewidth
solid
0 0 0 edgecolor
newpath 275.42 986.7 moveto
280.4 977.36 lineto
270.68 981.55 lineto
closepath stroke
grestore
% 29
gsave
1 setlinewidth
0 0 0 nodecolor
207 774 27 18 ellipse_path stroke
0 0 0 nodecolor
14 /Times-Roman set_font
199.5 770.3 moveto 15 (29) alignedtext
grestore
% 29->15
gsave
1 setlinewidth
0 0 0 edgecolor
newpath 234.4 774 moveto
242.39 774 251.31 774 259.82 774 curveto
stroke
0 0 0 edgecolor
newpath 259.92 777.5 moveto
269.92 774 lineto
259.92 770.5 lineto
closepath fill
1 setlinewidth
solid
0 0 0 edgecolor
newpath 259.92 777.5 moveto
269.92 774 lineto
259.92 770.5 lineto
closepath stroke
grestore
% 33
gsave
1 setlinewidth
0 0 0 nodecolor
297 666 27 18 ellipse_path stroke
0 0 0 nodecolor
14 /Times-Roman set_font
290 662.3 moveto 14 (33) alignedtext
grestore
% 33->3
gsave
1 setlinewidth
0 0 0 edgecolor
newpath 322.05 658.62 moveto
331.44 655.74 342.36 652.39 352.5 649.28 curveto
stroke
0 0 0 edgecolor
newpath 353.75 652.55 moveto
362.29 646.28 lineto
351.7 645.86 lineto
closepath fill
1 setlinewidth
solid
0 0 0 edgecolor
newpath 353.75 652.55 moveto
362.29 646.28 lineto
351.7 645.86 lineto
closepath stroke
grestore
% 35
gsave
1 setlinewidth
0 0 0 nodecolor
297 612 27 18 ellipse_path stroke
0 0 0 nodecolor
14 /Times-Roman set_font
289.5 608.3 moveto 15 (35) alignedtext
grestore
% 35->3
gsave
1 setlinewidth
0 0 0 edgecolor
newpath 322.05 619.38 moveto
331.44 622.26 342.36 625.61 352.5 628.72 curveto
stroke
0 0 0 edgecolor
newpath 351.7 632.14 moveto
362.29 631.72 lineto
353.75 625.45 lineto
closepath fill
1 setlinewidth
solid
0 0 0 edgecolor
newpath 351.7 632.14 moveto
362.29 631.72 lineto
353.75 625.45 lineto
closepath stroke
grestore
% 37
gsave
1 setlinewidth
0 0 0 nodecolor
117 1125 27 18 ellipse_path stroke
0 0 0 nodecolor
14 /Times-Roman set_font
110 1121.3 moveto 14 (37) alignedtext
grestore
% 37->19
gsave
1 setlinewidth
0 0 0 edgecolor
newpath 144.4 1125 moveto
152.39 1125 161.31 1125 169.82 1125 curveto
stroke
0 0 0 edgecolor
newpath 169.92 1128.5 moveto
179.92 1125 lineto
169.92 1121.5 lineto
closepath fill
1 setlinewidth
solid
0 0 0 edgecolor
newpath 169.92 1128.5 moveto
179.92 1125 lineto
169.92 1121.5 lineto
closepath stroke
grestore
% 39
gsave
1 setlinewidth
0 0 0 nodecolor
297 342 27 18 ellipse_path stroke
0 0 0 nodecolor
14 /Times-Roman set_font
289.5 338.3 moveto 15 (39) alignedtext
grestore
% 39->7
gsave
1 setlinewidth
0 0 0 edgecolor
newpath 324.4 342 moveto
332.39 342 341.31 342 349.82 342 curveto
stroke
0 0 0 edgecolor
newpath 349.92 345.5 moveto
359.92 342 lineto
349.92 338.5 lineto
closepath fill
1 setlinewidth
solid
0 0 0 edgecolor
newpath 349.92 345.5 moveto
359.92 342 lineto
349.92 338.5 lineto
closepath stroke
grestore
% 41
gsave
1 setlinewidth
0 0 0 nodecolor
297 288 27 18 ellipse_path stroke
0 0 0 nodecolor
14 /Times-Roman set_font
289 284.3 moveto 16 (41) alignedtext
grestore
% 41->21
gsave
1 setlinewidth
0 0 0 edgecolor
newpath 322.05 280.62 moveto
331.44 277.74 342.36 274.39 352.5 271.28 curveto
stroke
0 0 0 edgecolor
newpath 353.75 274.55 moveto
362.29 268.28 lineto
351.7 267.86 lineto
closepath fill
1 setlinewidth
solid
0 0 0 edgecolor
newpath 353.75 274.55 moveto
362.29 268.28 lineto
351.7 267.86 lineto
closepath stroke
grestore
% 43
gsave
1 setlinewidth
0 0 0 nodecolor
207 828 27 18 ellipse_path stroke
0 0 0 nodecolor
14 /Times-Roman set_font
199 824.3 moveto 16 (43) alignedtext
grestore
% 43->11
gsave
1 setlinewidth
0 0 0 edgecolor
newpath 234.4 828 moveto
242.39 828 251.31 828 259.82 828 curveto
stroke
0 0 0 edgecolor
newpath 259.92 831.5 moveto
269.92 828 lineto
259.92 824.5 lineto
closepath fill
1 setlinewidth
solid
0 0 0 edgecolor
newpath 259.92 831.5 moveto
269.92 828 lineto
259.92 824.5 lineto
closepath stroke
grestore
% 45
gsave
1 setlinewidth
0 0 0 nodecolor
207 342 27 18 ellipse_path stroke
0 0 0 nodecolor
14 /Times-Roman set_font
199 338.3 moveto 16 (45) alignedtext
grestore
% 45->39
gsave
1 setlinewidth
0 0 0 edgecolor
newpath 234.4 342 moveto
242.39 342 251.31 342 259.82 342 curveto
stroke
0 0 0 edgecolor
newpath 259.92 345.5 moveto
269.92 342 lineto
259.92 338.5 lineto
closepath fill
1 setlinewidth
solid
0 0 0 edgecolor
newpath 259.92 345.5 moveto
269.92 342 lineto
259.92 338.5 lineto
closepath stroke
grestore
% 47
gsave
1 setlinewidth
0 0 0 nodecolor
297 558 27 18 ellipse_path stroke
0 0 0 nodecolor
14 /Times-Roman set_font
289 554.3 moveto 16 (47) alignedtext
grestore
% 47->3
gsave
1 setlinewidth
0 0 0 edgecolor
newpath 313.73 572.48 moveto
327.37 585.04 347.3 603.38 362.77 617.62 curveto
stroke
0 0 0 edgecolor
newpath 360.68 620.45 moveto
370.4 624.64 lineto
365.42 615.3 lineto
closepath fill
1 setlinewidth
solid
0 0 0 edgecolor
newpath 360.68 620.45 moveto
370.4 624.64 lineto
365.42 615.3 lineto
closepath stroke
grestore
% 49
gsave
0.10588 1 1 nodecolor
117 963 27 18 ellipse_path fill
1 setlinewidth
filled
0.10588 1 1 nodecolor
117 963 27 18 ellipse_path stroke
0 0 0 nodecolor
14 /Times-Roman set_font
109 959.3 moveto 16 (49) alignedtext
grestore
% 57
gsave
1 setlinewidth
0 0 0 nodecolor
207 990 27 18 ellipse_path stroke
0 0 0 nodecolor
14 /Times-Roman set_font
199.5 986.3 moveto 15 (57) alignedtext
grestore
% 49->57
gsave
3 setlinewidth
0.10588 1 1 edgecolor
newpath 142.05 970.38 moveto
151.44 973.26 162.36 976.61 172.5 979.72 curveto
stroke
0.10588 1 1 edgecolor
newpath 171.7 983.14 moveto
182.29 982.72 lineto
173.75 976.45 lineto
closepath fill
3 setlinewidth
solid
0.10588 1 1 edgecolor
newpath 171.7 983.14 moveto
182.29 982.72 lineto
173.75 976.45 lineto
closepath stroke
grestore
% 57->5
gsave
1 setlinewidth
0 0 0 edgecolor
newpath 232.05 982.62 moveto
241.44 979.74 252.36 976.39 262.5 973.28 curveto
stroke
0 0 0 edgecolor
newpath 263.75 976.55 moveto
272.29 970.28 lineto
261.7 969.86 lineto
closepath fill
1 setlinewidth
solid
0 0 0 edgecolor
newpath 263.75 976.55 moveto
272.29 970.28 lineto
261.7 969.86 lineto
closepath stroke
grestore
% 51
gsave
1 setlinewidth
0 0 0 nodecolor
117 477 27 18 ellipse_path stroke
0 0 0 nodecolor
14 /Times-Roman set_font
109.5 473.3 moveto 15 (51) alignedtext
grestore
% 51->9
gsave
1 setlinewidth
0 0 0 edgecolor
newpath 142.05 469.62 moveto
151.44 466.74 162.36 463.39 172.5 460.28 curveto
stroke
0 0 0 edgecolor
newpath 173.75 463.55 moveto
182.29 457.28 lineto
171.7 456.86 lineto
closepath fill
1 setlinewidth
solid
0 0 0 edgecolor
newpath 173.75 463.55 moveto
182.29 457.28 lineto
171.7 456.86 lineto
closepath stroke
grestore
% 53
gsave
1 setlinewidth
0 0 0 nodecolor
117 1071 27 18 ellipse_path stroke
0 0 0 nodecolor
14 /Times-Roman set_font
109.5 1067.3 moveto 15 (53) alignedtext
grestore
% 53->27
gsave
1 setlinewidth
0 0 0 edgecolor
newpath 142.05 1063.62 moveto
151.44 1060.74 162.36 1057.39 172.5 1054.28 curveto
stroke
0 0 0 edgecolor
newpath 173.75 1057.55 moveto
182.29 1051.28 lineto
171.7 1050.86 lineto
closepath fill
1 setlinewidth
solid
0 0 0 edgecolor
newpath 173.75 1057.55 moveto
182.29 1051.28 lineto
171.7 1050.86 lineto
closepath stroke
grestore
% 55
gsave
1 setlinewidth
0 0 0 nodecolor
117 423 27 18 ellipse_path stroke
0 0 0 nodecolor
14 /Times-Roman set_font
109 419.3 moveto 16 (55) alignedtext
grestore
% 55->9
gsave
1 setlinewidth
0 0 0 edgecolor
newpath 142.05 430.38 moveto
151.44 433.26 162.36 436.61 172.5 439.72 curveto
stroke
0 0 0 edgecolor
newpath 171.7 443.14 moveto
182.29 442.72 lineto
173.75 436.45 lineto
closepath fill
1 setlinewidth
solid
0 0 0 edgecolor
newpath 171.7 443.14 moveto
182.29 442.72 lineto
173.75 436.45 lineto
closepath stroke
grestore
% 59
gsave
1 setlinewidth
0 0 0 nodecolor
207 720 27 18 ellipse_path stroke
0 0 0 nodecolor
14 /Times-Roman set_font
199 716.3 moveto 16 (59) alignedtext
grestore
% 59->15
gsave
1 setlinewidth
0 0 0 edgecolor
newpath 227.53 731.98 moveto
239.38 739.26 254.7 748.66 267.84 756.72 curveto
stroke
0 0 0 edgecolor
newpath 266.17 759.8 moveto
276.52 762.05 lineto
269.83 753.84 lineto
closepath fill
1 setlinewidth
solid
0 0 0 edgecolor
newpath 266.17 759.8 moveto
276.52 762.05 lineto
269.83 753.84 lineto
closepath stroke
grestore
% 61
gsave
1 setlinewidth
0 0 0 nodecolor
297 72 27 18 ellipse_path stroke
0 0 0 nodecolor
14 /Times-Roman set_font
289.5 68.3 moveto 15 (61) alignedtext
grestore
% 61->31
gsave
1 setlinewidth
0 0 0 edgecolor
newpath 322.05 79.38 moveto
331.44 82.26 342.36 85.61 352.5 88.72 curveto
stroke
0 0 0 edgecolor
newpath 351.7 92.14 moveto
362.29 91.72 lineto
353.75 85.45 lineto
closepath fill
1 setlinewidth
solid
0 0 0 edgecolor
newpath 351.7 92.14 moveto
362.29 91.72 lineto
353.75 85.45 lineto
closepath stroke
grestore
% 63
gsave
1 setlinewidth
0 0 0 nodecolor
207 396 27 18 ellipse_path stroke
0 0 0 nodecolor
14 /Times-Roman set_font
199.5 392.3 moveto 15 (63) alignedtext
grestore
% 63->13
gsave
1 setlinewidth
0 0 0 edgecolor
newpath 234.4 396 moveto
242.39 396 251.31 396 259.82 396 curveto
stroke
0 0 0 edgecolor
newpath 259.92 399.5 moveto
269.92 396 lineto
259.92 392.5 lineto
closepath fill
1 setlinewidth
solid
0 0 0 edgecolor
newpath 259.92 399.5 moveto
269.92 396 lineto
259.92 392.5 lineto
closepath stroke
grestore
% 65
gsave
1 setlinewidth
0 0 0 nodecolor
297 234 27 18 ellipse_path stroke
0 0 0 nodecolor
14 /Times-Roman set_font
289 230.3 moveto 16 (65) alignedtext
grestore
% 65->21
gsave
1 setlinewidth
0 0 0 edgecolor
newpath 322.05 241.38 moveto
331.44 244.26 342.36 247.61 352.5 250.72 curveto
stroke
0 0 0 edgecolor
newpath 351.7 254.14 moveto
362.29 253.72 lineto
353.75 247.45 lineto
closepath fill
1 setlinewidth
solid
0 0 0 edgecolor
newpath 351.7 254.14 moveto
362.29 253.72 lineto
353.75 247.45 lineto
closepath stroke
grestore
% 67
gsave
1 setlinewidth
0 0 0 nodecolor
27 531 27 18 ellipse_path stroke
0 0 0 nodecolor
14 /Times-Roman set_font
19.5 527.3 moveto 15 (67) alignedtext
grestore
% 67->17
gsave
1 setlinewidth
0 0 0 edgecolor
newpath 54.4 531 moveto
62.39 531 71.31 531 79.82 531 curveto
stroke
0 0 0 edgecolor
newpath 79.92 534.5 moveto
89.92 531 lineto
79.92 527.5 lineto
closepath fill
1 setlinewidth
solid
0 0 0 edgecolor
newpath 79.92 534.5 moveto
89.92 531 lineto
79.92 527.5 lineto
closepath stroke
grestore
% 69
gsave
1 setlinewidth
0 0 0 nodecolor
297 504 27 18 ellipse_path stroke
0 0 0 nodecolor
14 /Times-Roman set_font
289 500.3 moveto 16 (69) alignedtext
grestore
% 69->3
gsave
1 setlinewidth
0 0 0 edgecolor
newpath 313.27 518.55 moveto
316.98 522.43 320.8 526.73 324 531 curveto
343.65 557.18 361.74 590.16 373.24 612.74 curveto
stroke
0 0 0 edgecolor
newpath 370.14 614.37 moveto
377.75 621.74 lineto
376.4 611.23 lineto
closepath fill
1 setlinewidth
solid
0 0 0 edgecolor
newpath 370.14 614.37 moveto
377.75 621.74 lineto
376.4 611.23 lineto
closepath stroke
grestore
% 71
gsave
1 setlinewidth
0 0 0 nodecolor
117 369 27 18 ellipse_path stroke
0 0 0 nodecolor
14 /Times-Roman set_font
110 365.3 moveto 14 (71) alignedtext
grestore
% 71->9
gsave
1 setlinewidth
0 0 0 edgecolor
newpath 133.73 383.48 moveto
147.37 396.04 167.3 414.38 182.77 428.62 curveto
stroke
0 0 0 edgecolor
newpath 180.68 431.45 moveto
190.4 435.64 lineto
185.42 426.3 lineto
closepath fill
1 setlinewidth
solid
0 0 0 edgecolor
newpath 180.68 431.45 moveto
190.4 435.64 lineto
185.42 426.3 lineto
closepath stroke
grestore
% 73
gsave
1 setlinewidth
0 0 0 nodecolor
27 1125 27 18 ellipse_path stroke
0 0 0 nodecolor
14 /Times-Roman set_font
20 1121.3 moveto 14 (73) alignedtext
grestore
% 73->37
gsave
1 setlinewidth
0 0 0 edgecolor
newpath 54.4 1125 moveto
62.39 1125 71.31 1125 79.82 1125 curveto
stroke
0 0 0 edgecolor
newpath 79.92 1128.5 moveto
89.92 1125 lineto
79.92 1121.5 lineto
closepath fill
1 setlinewidth
solid
0 0 0 edgecolor
newpath 79.92 1128.5 moveto
89.92 1125 lineto
79.92 1121.5 lineto
closepath stroke
grestore
% 75
gsave
1 setlinewidth
0 0 0 nodecolor
297 18 27 18 ellipse_path stroke
0 0 0 nodecolor
14 /Times-Roman set_font
289.5 14.3 moveto 15 (75) alignedtext
grestore
% 75->31
gsave
1 setlinewidth
0 0 0 edgecolor
newpath 313.73 32.48 moveto
327.37 45.04 347.3 63.38 362.77 77.62 curveto
stroke
0 0 0 edgecolor
newpath 360.68 80.45 moveto
370.4 84.64 lineto
365.42 75.3 lineto
closepath fill
1 setlinewidth
solid
0 0 0 edgecolor
newpath 360.68 80.45 moveto
370.4 84.64 lineto
365.42 75.3 lineto
closepath stroke
grestore
% 77
gsave
1 setlinewidth
0 0 0 nodecolor
297 450 27 18 ellipse_path stroke
0 0 0 nodecolor
14 /Times-Roman set_font
290 446.3 moveto 14 (77) alignedtext
grestore
% 77->3
gsave
1 setlinewidth
0 0 0 edgecolor
newpath 313.74 464.22 moveto
317.44 468.11 321.14 472.5 324 477 curveto
351.4 520.12 369.71 577.23 378.95 610.85 curveto
stroke
0 0 0 edgecolor
newpath 375.67 612.14 moveto
381.63 620.9 lineto
382.43 610.33 lineto
closepath fill
1 setlinewidth
solid
0 0 0 edgecolor
newpath 375.67 612.14 moveto
381.63 620.9 lineto
382.43 610.33 lineto
closepath stroke
grestore
% 79
gsave
1 setlinewidth
0 0 0 nodecolor
207 936 27 18 ellipse_path stroke
0 0 0 nodecolor
14 /Times-Roman set_font
199.5 932.3 moveto 15 (79) alignedtext
grestore
% 79->5
gsave
1 setlinewidth
0 0 0 edgecolor
newpath 232.05 943.38 moveto
241.44 946.26 252.36 949.61 262.5 952.72 curveto
stroke
0 0 0 edgecolor
newpath 261.7 956.14 moveto
272.29 955.72 lineto
263.75 949.45 lineto
closepath fill
1 setlinewidth
solid
0 0 0 edgecolor
newpath 261.7 956.14 moveto
272.29 955.72 lineto
263.75 949.45 lineto
closepath stroke
grestore
% 81
gsave
0.10588 1 1 nodecolor
27 882 27 18 ellipse_path fill
1 setlinewidth
filled
0.10588 1 1 nodecolor
27 882 27 18 ellipse_path stroke
0 0 0 nodecolor
14 /Times-Roman set_font
20 878.3 moveto 14 (81) alignedtext
grestore
% 121
gsave
0.10588 1 1 nodecolor
117 882 27 18 ellipse_path fill
1 setlinewidth
filled
0.10588 1 1 nodecolor
117 882 27 18 ellipse_path stroke
0 0 0 nodecolor
14 /Times-Roman set_font
106.5 878.3 moveto 21 (121) alignedtext
grestore
% 81->121
gsave
3 setlinewidth
0.10588 1 1 edgecolor
newpath 54.4 882 moveto
62.39 882 71.31 882 79.82 882 curveto
stroke
0.10588 1 1 edgecolor
newpath 79.92 885.5 moveto
89.92 882 lineto
79.92 878.5 lineto
closepath fill
3 setlinewidth
solid
0.10588 1 1 edgecolor
newpath 79.92 885.5 moveto
89.92 882 lineto
79.92 878.5 lineto
closepath stroke
grestore
% 133
gsave
1 setlinewidth
0 0 0 nodecolor
207 882 27 18 ellipse_path stroke
0 0 0 nodecolor
14 /Times-Roman set_font
196.5 878.3 moveto 21 (133) alignedtext
grestore
% 121->133
gsave
3 setlinewidth
0.10588 1 1 edgecolor
newpath 144.4 882 moveto
152.39 882 161.31 882 169.82 882 curveto
stroke
0.10588 1 1 edgecolor
newpath 169.92 885.5 moveto
179.92 882 lineto
169.92 878.5 lineto
closepath fill
3 setlinewidth
solid
0.10588 1 1 edgecolor
newpath 169.92 885.5 moveto
179.92 882 lineto
169.92 878.5 lineto
closepath stroke
grestore
% 83
gsave
1 setlinewidth
0 0 0 nodecolor
297 180 27 18 ellipse_path stroke
0 0 0 nodecolor
14 /Times-Roman set_font
290 176.3 moveto 14 (83) alignedtext
grestore
% 83->21
gsave
1 setlinewidth
0 0 0 edgecolor
newpath 313.73 194.48 moveto
327.37 207.04 347.3 225.38 362.77 239.62 curveto
stroke
0 0 0 edgecolor
newpath 360.68 242.45 moveto
370.4 246.64 lineto
365.42 237.3 lineto
closepath fill
1 setlinewidth
solid
0 0 0 edgecolor
newpath 360.68 242.45 moveto
370.4 246.64 lineto
365.42 237.3 lineto
closepath stroke
grestore
% 85
gsave
1 setlinewidth
0 0 0 nodecolor
117 1017 27 18 ellipse_path stroke
0 0 0 nodecolor
14 /Times-Roman set_font
109.5 1013.3 moveto 15 (85) alignedtext
grestore
% 85->27
gsave
1 setlinewidth
0 0 0 edgecolor
newpath 142.05 1024.38 moveto
151.44 1027.26 162.36 1030.61 172.5 1033.72 curveto
stroke
0 0 0 edgecolor
newpath 171.7 1037.14 moveto
182.29 1036.72 lineto
173.75 1030.45 lineto
closepath fill
1 setlinewidth
solid
0 0 0 edgecolor
newpath 171.7 1037.14 moveto
182.29 1036.72 lineto
173.75 1030.45 lineto
closepath stroke
grestore
% 133->5
gsave
1 setlinewidth
0 0 0 edgecolor
newpath 223.73 896.48 moveto
237.37 909.04 257.3 927.38 272.77 941.62 curveto
stroke
0 0 0 edgecolor
newpath 270.68 944.45 moveto
280.4 948.64 lineto
275.42 939.3 lineto
closepath fill
1 setlinewidth
solid
0 0 0 edgecolor
newpath 270.68 944.45 moveto
280.4 948.64 lineto
275.42 939.3 lineto
closepath stroke
grestore
endpage
showpage
grestore
%%PageTrailer
%%EndPage: 1
%%Trailer
end
restore
%%EOF
