%!PS-Adobe-3.0 EPSF-3.0
%%Creator: graphviz version 2.38.0 (20140413.2041)
%%Title: sigma odd
%%Pages: 1
%%BoundingBox: 36 36 3804 3794
%%EndComments
save
%%BeginProlog
/DotDict 200 dict def
DotDict begin

/setupLatin1 {
mark
/EncodingVector 256 array def
 EncodingVector 0

ISOLatin1Encoding 0 255 getinterval putinterval
EncodingVector 45 /hyphen put

% Set up ISO Latin 1 character encoding
/starnetISO {
        dup dup findfont dup length dict begin
        { 1 index /FID ne { def }{ pop pop } ifelse
        } forall
        /Encoding EncodingVector def
        currentdict end definefont
} def
/Times-Roman starnetISO def
/Times-Italic starnetISO def
/Times-Bold starnetISO def
/Times-BoldItalic starnetISO def
/Helvetica starnetISO def
/Helvetica-Oblique starnetISO def
/Helvetica-Bold starnetISO def
/Helvetica-BoldOblique starnetISO def
/Courier starnetISO def
/Courier-Oblique starnetISO def
/Courier-Bold starnetISO def
/Courier-BoldOblique starnetISO def
cleartomark
} bind def

%%BeginResource: procset graphviz 0 0
/coord-font-family /Times-Roman def
/default-font-family /Times-Roman def
/coordfont coord-font-family findfont 8 scalefont def

/InvScaleFactor 1.0 def
/set_scale {
       dup 1 exch div /InvScaleFactor exch def
       scale
} bind def

% styles
/solid { [] 0 setdash } bind def
/dashed { [9 InvScaleFactor mul dup ] 0 setdash } bind def
/dotted { [1 InvScaleFactor mul 6 InvScaleFactor mul] 0 setdash } bind def
/invis {/fill {newpath} def /stroke {newpath} def /show {pop newpath} def} bind def
/bold { 2 setlinewidth } bind def
/filled { } bind def
/unfilled { } bind def
/rounded { } bind def
/diagonals { } bind def
/tapered { } bind def

% hooks for setting color 
/nodecolor { sethsbcolor } bind def
/edgecolor { sethsbcolor } bind def
/graphcolor { sethsbcolor } bind def
/nopcolor {pop pop pop} bind def

/beginpage {	% i j npages
	/npages exch def
	/j exch def
	/i exch def
	/str 10 string def
	npages 1 gt {
		gsave
			coordfont setfont
			0 0 moveto
			(\() show i str cvs show (,) show j str cvs show (\)) show
		grestore
	} if
} bind def

/set_font {
	findfont exch
	scalefont setfont
} def

% draw text fitted to its expected width
/alignedtext {			% width text
	/text exch def
	/width exch def
	gsave
		width 0 gt {
			[] 0 setdash
			text stringwidth pop width exch sub text length div 0 text ashow
		} if
	grestore
} def

/boxprim {				% xcorner ycorner xsize ysize
		4 2 roll
		moveto
		2 copy
		exch 0 rlineto
		0 exch rlineto
		pop neg 0 rlineto
		closepath
} bind def

/ellipse_path {
	/ry exch def
	/rx exch def
	/y exch def
	/x exch def
	matrix currentmatrix
	newpath
	x y translate
	rx ry scale
	0 0 1 0 360 arc
	setmatrix
} bind def

/endpage { showpage } bind def
/showpage { } def

/layercolorseq
	[	% layer color sequence - darkest to lightest
		[0 0 0]
		[.2 .8 .8]
		[.4 .8 .8]
		[.6 .8 .8]
		[.8 .8 .8]
	]
def

/layerlen layercolorseq length def

/setlayer {/maxlayer exch def /curlayer exch def
	layercolorseq curlayer 1 sub layerlen mod get
	aload pop sethsbcolor
	/nodecolor {nopcolor} def
	/edgecolor {nopcolor} def
	/graphcolor {nopcolor} def
} bind def

/onlayer { curlayer ne {invis} if } def

/onlayers {
	/myupper exch def
	/mylower exch def
	curlayer mylower lt
	curlayer myupper gt
	or
	{invis} if
} def

/curlayer 0 def

%%EndResource
%%EndProlog
%%BeginSetup
14 default-font-family set_font
1 setmiterlimit
% /arrowlength 10 def
% /arrowwidth 5 def

% make sure pdfmark is harmless for PS-interpreters other than Distiller
/pdfmark where {pop} {userdict /pdfmark /cleartomark load put} ifelse
% make '<<' and '>>' safe on PS Level 1 devices
/languagelevel where {pop languagelevel}{1} ifelse
2 lt {
    userdict (<<) cvn ([) cvn load put
    userdict (>>) cvn ([) cvn load put
} if

%%EndSetup
setupLatin1
%%Page: 1 1
%%PageBoundingBox: 36 36 3804 3794
%%PageOrientation: Portrait
0 0 1 beginpage
gsave
36 36 3768 3758 boxprim clip newpath
1 1 set_scale 0 rotate 40 40 translate
% 1
gsave
0 0 0.82745 nodecolor
1550.78 1654.07 108 108 ellipse_path fill
1 setlinewidth
filled
0 0 0 nodecolor
1550.78 1654.07 108 108 ellipse_path stroke
0 0 0 nodecolor
14 /Times-Roman set_font
1547.28 1650.37 moveto 7 (1) alignedtext
grestore
% 1->1
gsave
1 setlinewidth
0 0 0 edgecolor
newpath 1658.77 1659.61 moveto
1669.76 1658.52 1676.78 1656.67 1676.78 1654.07 curveto
1676.78 1652.4 1673.9 1651.04 1668.94 1649.99 curveto
stroke
0 0 0 edgecolor
newpath 1669.17 1646.49 moveto
1658.77 1648.52 lineto
1668.16 1653.42 lineto
closepath fill
1 setlinewidth
solid
0 0 0 edgecolor
newpath 1669.17 1646.49 moveto
1658.77 1648.52 lineto
1668.16 1653.42 lineto
closepath stroke
grestore
% 3
gsave
1 setlinewidth
0 0 0 nodecolor
3143.78 1654.07 27 18 ellipse_path stroke
0 0 0 nodecolor
14 /Times-Roman set_font
3140.28 1650.37 moveto 7 (3) alignedtext
grestore
% 3->1
gsave
1 setlinewidth
0 0 0 edgecolor
newpath 3116.47 1654.07 moveto
2944.14 1654.07 2004.09 1654.07 1669.27 1654.07 curveto
stroke
0 0 0 edgecolor
newpath 1669.06 1650.57 moveto
1659.06 1654.07 lineto
1669.06 1657.57 lineto
closepath fill
1 setlinewidth
solid
0 0 0 edgecolor
newpath 1669.06 1650.57 moveto
1659.06 1654.07 lineto
1669.06 1657.57 lineto
closepath stroke
grestore
% 5
gsave
1 setlinewidth
0 0 0 nodecolor
2721.05 1363.97 27 18 ellipse_path stroke
0 0 0 nodecolor
14 /Times-Roman set_font
2717.05 1360.27 moveto 8 (5) alignedtext
grestore
% 5->3
gsave
1 setlinewidth
0 0 0 edgecolor
newpath 2740.03 1377 moveto
2807.64 1423.39 3036.82 1580.67 3116.34 1635.23 curveto
stroke
0 0 0 edgecolor
newpath 3114.62 1638.3 moveto
3124.85 1641.07 lineto
3118.59 1632.53 lineto
closepath fill
1 setlinewidth
solid
0 0 0 edgecolor
newpath 3114.62 1638.3 moveto
3124.85 1641.07 lineto
3118.59 1632.53 lineto
closepath stroke
grestore
% 7
gsave
1 setlinewidth
0 0 0 nodecolor
810.44 3064.58 27 18 ellipse_path stroke
0 0 0 nodecolor
14 /Times-Roman set_font
806.94 3060.88 moveto 7 (7) alignedtext
grestore
% 7->1
gsave
1 setlinewidth
0 0 0 edgecolor
newpath 819.4 3047.5 moveto
888.45 2915.94 1337.45 2060.51 1495.69 1759.02 curveto
stroke
0 0 0 edgecolor
newpath 1498.97 1760.31 moveto
1500.52 1749.83 lineto
1492.77 1757.06 lineto
closepath fill
1 setlinewidth
solid
0 0 0 edgecolor
newpath 1498.97 1760.31 moveto
1500.52 1749.83 lineto
1492.77 1757.06 lineto
closepath stroke
grestore
% 9
gsave
0.10588 1 1 nodecolor
1561.66 2677.18 27 18 ellipse_path fill
1 setlinewidth
filled
0.10588 1 1 nodecolor
1561.66 2677.18 27 18 ellipse_path stroke
0 0 0 nodecolor
14 /Times-Roman set_font
1557.66 2673.48 moveto 8 (9) alignedtext
grestore
% 13
gsave
1 setlinewidth
0 0 0 nodecolor
1566.38 3055.15 27 18 ellipse_path stroke
0 0 0 nodecolor
14 /Times-Roman set_font
1559.38 3051.45 moveto 14 (13) alignedtext
grestore
% 9->13
gsave
3 setlinewidth
0.10588 1 1 edgecolor
newpath 1561.89 2695.41 moveto
1562.65 2756.28 1565.1 2952.85 1566.02 3026.73 curveto
stroke
0.10588 1 1 edgecolor
newpath 1562.53 3027.15 moveto
1566.15 3037.1 lineto
1569.53 3027.06 lineto
closepath fill
3 setlinewidth
solid
0.10588 1 1 edgecolor
newpath 1562.53 3027.15 moveto
1566.15 3037.1 lineto
1569.53 3027.06 lineto
closepath stroke
grestore
% 13->7
gsave
1 setlinewidth
0 0 0 edgecolor
newpath 1539.03 3055.49 moveto
1424.09 3056.92 980.03 3062.46 847.8 3064.11 curveto
stroke
0 0 0 edgecolor
newpath 847.71 3060.61 moveto
837.75 3064.23 lineto
847.79 3067.61 lineto
closepath fill
1 setlinewidth
solid
0 0 0 edgecolor
newpath 847.71 3060.61 moveto
837.75 3064.23 lineto
847.79 3067.61 lineto
closepath stroke
grestore
% 11
gsave
1 setlinewidth
0 0 0 nodecolor
3300.66 1232.62 27 18 ellipse_path stroke
0 0 0 nodecolor
14 /Times-Roman set_font
3293.66 1228.92 moveto 14 (11) alignedtext
grestore
% 11->3
gsave
1 setlinewidth
0 0 0 edgecolor
newpath 3294.12 1250.19 moveto
3269.7 1315.79 3183.76 1546.68 3154.01 1626.6 curveto
stroke
0 0 0 edgecolor
newpath 3150.56 1625.83 moveto
3150.35 1636.42 lineto
3157.12 1628.27 lineto
closepath fill
1 setlinewidth
solid
0 0 0 edgecolor
newpath 3150.56 1625.83 moveto
3150.35 1636.42 lineto
3157.12 1628.27 lineto
closepath stroke
grestore
% 15
gsave
1 setlinewidth
0 0 0 nodecolor
3616.56 1455.73 27 18 ellipse_path stroke
0 0 0 nodecolor
14 /Times-Roman set_font
3609.06 1452.03 moveto 15 (15) alignedtext
grestore
% 15->3
gsave
1 setlinewidth
0 0 0 edgecolor
newpath 3593.44 1465.43 moveto
3516.07 1497.89 3266.05 1602.77 3176.27 1640.44 curveto
stroke
0 0 0 edgecolor
newpath 3174.73 1637.29 moveto
3166.86 1644.38 lineto
3177.44 1643.74 lineto
closepath fill
1 setlinewidth
solid
0 0 0 edgecolor
newpath 3174.73 1637.29 moveto
3166.86 1644.38 lineto
3177.44 1643.74 lineto
closepath stroke
grestore
% 17
gsave
1 setlinewidth
0 0 0 nodecolor
1473.69 2767.38 27 18 ellipse_path stroke
0 0 0 nodecolor
14 /Times-Roman set_font
1466.69 2763.68 moveto 14 (17) alignedtext
grestore
% 17->9
gsave
1 setlinewidth
0 0 0 edgecolor
newpath 1488.61 2752.08 moveto
1502.51 2737.82 1523.43 2716.38 1539.32 2700.09 curveto
stroke
0 0 0 edgecolor
newpath 1542.19 2702.16 moveto
1546.67 2692.55 lineto
1537.18 2697.27 lineto
closepath fill
1 setlinewidth
solid
0 0 0 edgecolor
newpath 1542.19 2702.16 moveto
1546.67 2692.55 lineto
1537.18 2697.27 lineto
closepath stroke
grestore
% 19
gsave
1 setlinewidth
0 0 0 nodecolor
2753.64 1494.67 27 18 ellipse_path stroke
0 0 0 nodecolor
14 /Times-Roman set_font
2746.14 1490.97 moveto 15 (19) alignedtext
grestore
% 19->5
gsave
1 setlinewidth
0 0 0 edgecolor
newpath 2749.18 1476.77 moveto
2743.72 1454.9 2734.43 1417.63 2728.03 1391.96 curveto
stroke
0 0 0 edgecolor
newpath 2731.38 1390.93 moveto
2725.56 1382.08 lineto
2724.59 1392.63 lineto
closepath fill
1 setlinewidth
solid
0 0 0 edgecolor
newpath 2731.38 1390.93 moveto
2725.56 1382.08 lineto
2724.59 1392.63 lineto
closepath stroke
grestore
% 21
gsave
1 setlinewidth
0 0 0 nodecolor
138.69 916.74 27 18 ellipse_path stroke
0 0 0 nodecolor
14 /Times-Roman set_font
131.69 913.04 moveto 14 (21) alignedtext
grestore
% 21->1
gsave
1 setlinewidth
0 0 0 edgecolor
newpath 160.03 927.88 moveto
304.87 1003.51 1147.06 1443.26 1445.77 1599.23 curveto
stroke
0 0 0 edgecolor
newpath 1444.39 1602.46 moveto
1454.87 1603.99 lineto
1447.63 1596.26 lineto
closepath fill
1 setlinewidth
solid
0 0 0 edgecolor
newpath 1444.39 1602.46 moveto
1454.87 1603.99 lineto
1447.63 1596.26 lineto
closepath stroke
grestore
% 23
gsave
1 setlinewidth
0 0 0 nodecolor
3634.01 1804.18 27 18 ellipse_path stroke
0 0 0 nodecolor
14 /Times-Roman set_font
3627.01 1800.48 moveto 14 (23) alignedtext
grestore
% 23->3
gsave
1 setlinewidth
0 0 0 edgecolor
newpath 3609.36 1796.64 moveto
3528.61 1771.91 3271.83 1693.28 3178.29 1664.63 curveto
stroke
0 0 0 edgecolor
newpath 3179.06 1661.21 moveto
3168.48 1661.63 lineto
3177.02 1667.9 lineto
closepath fill
1 setlinewidth
solid
0 0 0 edgecolor
newpath 3179.06 1661.21 moveto
3168.48 1661.63 lineto
3177.02 1667.9 lineto
closepath stroke
grestore
% 25
gsave
0.10588 1 1 nodecolor
977.43 231.37 27 18 ellipse_path fill
1 setlinewidth
filled
0.10588 1 1 nodecolor
977.43 231.37 27 18 ellipse_path stroke
0 0 0 nodecolor
14 /Times-Roman set_font
969.93 227.67 moveto 15 (25) alignedtext
grestore
% 31
gsave
1 setlinewidth
0 0 0 nodecolor
1061.95 137.92 27 18 ellipse_path stroke
0 0 0 nodecolor
14 /Times-Roman set_font
1054.95 134.22 moveto 14 (31) alignedtext
grestore
% 25->31
gsave
3 setlinewidth
0.10588 1 1 edgecolor
newpath 991.39 215.94 moveto
1004.85 201.06 1025.39 178.34 1040.85 161.25 curveto
stroke
0.10588 1 1 edgecolor
newpath 1043.86 163.14 moveto
1047.98 153.37 lineto
1038.67 158.44 lineto
closepath fill
3 setlinewidth
solid
0.10588 1 1 edgecolor
newpath 1043.86 163.14 moveto
1047.98 153.37 lineto
1038.67 158.44 lineto
closepath stroke
grestore
% 31->1
gsave
1 setlinewidth
0 0 0 edgecolor
newpath 1067.7 155.74 moveto
1112.71 295.35 1409.83 1216.89 1514.43 1541.31 curveto
stroke
0 0 0 edgecolor
newpath 1511.22 1542.76 moveto
1517.62 1551.2 lineto
1517.88 1540.61 lineto
closepath fill
1 setlinewidth
solid
0 0 0 edgecolor
newpath 1511.22 1542.76 moveto
1517.62 1551.2 lineto
1517.88 1540.61 lineto
closepath stroke
grestore
% 27
gsave
1 setlinewidth
0 0 0 nodecolor
2477.55 1457.08 27 18 ellipse_path stroke
0 0 0 nodecolor
14 /Times-Roman set_font
2470.55 1453.38 moveto 14 (27) alignedtext
grestore
% 27->5
gsave
1 setlinewidth
0 0 0 edgecolor
newpath 2501.34 1447.99 moveto
2545.09 1431.26 2638.4 1395.58 2688.17 1376.55 curveto
stroke
0 0 0 edgecolor
newpath 2689.43 1379.81 moveto
2697.52 1372.97 lineto
2686.93 1373.27 lineto
closepath fill
1 setlinewidth
solid
0 0 0 edgecolor
newpath 2689.43 1379.81 moveto
2697.52 1372.97 lineto
2686.93 1373.27 lineto
closepath stroke
grestore
% 29
gsave
1 setlinewidth
0 0 0 nodecolor
3499.94 1408.04 27 18 ellipse_path stroke
0 0 0 nodecolor
14 /Times-Roman set_font
3492.44 1404.34 moveto 15 (29) alignedtext
grestore
% 29->15
gsave
1 setlinewidth
0 0 0 edgecolor
newpath 3522.98 1417.46 moveto
3540.36 1424.57 3564.43 1434.41 3583.81 1442.34 curveto
stroke
0 0 0 edgecolor
newpath 3582.59 1445.62 moveto
3593.17 1446.17 lineto
3585.24 1439.14 lineto
closepath fill
1 setlinewidth
solid
0 0 0 edgecolor
newpath 3582.59 1445.62 moveto
3593.17 1446.17 lineto
3585.24 1439.14 lineto
closepath stroke
grestore
% 33
gsave
1 setlinewidth
0 0 0 nodecolor
3520.4 2001.95 27 18 ellipse_path stroke
0 0 0 nodecolor
14 /Times-Roman set_font
3513.4 1998.25 moveto 14 (33) alignedtext
grestore
% 33->3
gsave
1 setlinewidth
0 0 0 edgecolor
newpath 3504.21 1987 moveto
3444.7 1932.02 3237.78 1740.89 3167.42 1675.9 curveto
stroke
0 0 0 edgecolor
newpath 3169.63 1673.17 moveto
3159.91 1668.96 lineto
3164.88 1678.31 lineto
closepath fill
1 setlinewidth
solid
0 0 0 edgecolor
newpath 3169.63 1673.17 moveto
3159.91 1668.96 lineto
3164.88 1678.31 lineto
closepath stroke
grestore
% 35
gsave
1 setlinewidth
0 0 0 nodecolor
3332.25 2130.86 27 18 ellipse_path stroke
0 0 0 nodecolor
14 /Times-Roman set_font
3324.75 2127.16 moveto 15 (35) alignedtext
grestore
% 35->3
gsave
1 setlinewidth
0 0 0 edgecolor
newpath 3325.32 2113.33 moveto
3296.86 2041.33 3188.87 1768.13 3154.41 1680.96 curveto
stroke
0 0 0 edgecolor
newpath 3157.61 1679.52 moveto
3150.68 1671.51 lineto
3151.1 1682.09 lineto
closepath fill
1 setlinewidth
solid
0 0 0 edgecolor
newpath 3157.61 1679.52 moveto
3150.68 1671.51 lineto
3151.1 1682.09 lineto
closepath stroke
grestore
% 37
gsave
1 setlinewidth
0 0 0 nodecolor
2784.13 1616.92 27 18 ellipse_path stroke
0 0 0 nodecolor
14 /Times-Roman set_font
2777.13 1613.22 moveto 14 (37) alignedtext
grestore
% 37->19
gsave
1 setlinewidth
0 0 0 edgecolor
newpath 2779.7 1599.15 moveto
2774.66 1578.96 2766.38 1545.76 2760.51 1522.21 curveto
stroke
0 0 0 edgecolor
newpath 2763.89 1521.32 moveto
2758.08 1512.47 lineto
2757.1 1523.02 lineto
closepath fill
1 setlinewidth
solid
0 0 0 edgecolor
newpath 2763.89 1521.32 moveto
2758.08 1512.47 lineto
2757.1 1523.02 lineto
closepath stroke
grestore
% 39
gsave
1 setlinewidth
0 0 0 nodecolor
218.23 3534.5 27 18 ellipse_path stroke
0 0 0 nodecolor
14 /Times-Roman set_font
210.73 3530.8 moveto 15 (39) alignedtext
grestore
% 39->7
gsave
1 setlinewidth
0 0 0 edgecolor
newpath 235.64 3520.69 moveto
319.82 3453.89 684.87 3164.21 784.97 3084.78 curveto
stroke
0 0 0 edgecolor
newpath 787.38 3087.34 moveto
793.03 3078.39 lineto
783.02 3081.86 lineto
closepath fill
1 setlinewidth
solid
0 0 0 edgecolor
newpath 787.38 3087.34 moveto
793.03 3078.39 lineto
783.02 3081.86 lineto
closepath stroke
grestore
% 41
gsave
1 setlinewidth
0 0 0 nodecolor
144.03 1042.63 27 18 ellipse_path stroke
0 0 0 nodecolor
14 /Times-Roman set_font
136.03 1038.93 moveto 16 (41) alignedtext
grestore
% 41->21
gsave
1 setlinewidth
0 0 0 edgecolor
newpath 143.27 1024.59 moveto
142.38 1003.75 140.92 969.19 139.88 944.82 curveto
stroke
0 0 0 edgecolor
newpath 143.38 944.59 moveto
139.45 934.75 lineto
136.38 944.89 lineto
closepath fill
1 setlinewidth
solid
0 0 0 edgecolor
newpath 143.38 944.59 moveto
139.45 934.75 lineto
136.38 944.89 lineto
closepath stroke
grestore
% 43
gsave
1 setlinewidth
0 0 0 nodecolor
3344.62 1114.54 27 18 ellipse_path stroke
0 0 0 nodecolor
14 /Times-Roman set_font
3336.62 1110.84 moveto 16 (43) alignedtext
grestore
% 43->11
gsave
1 setlinewidth
0 0 0 edgecolor
newpath 3338.04 1132.22 moveto
3330.85 1151.52 3319.25 1182.68 3310.88 1205.17 curveto
stroke
0 0 0 edgecolor
newpath 3307.5 1204.23 moveto
3307.29 1214.82 lineto
3314.06 1206.67 lineto
closepath fill
1 setlinewidth
solid
0 0 0 edgecolor
newpath 3307.5 1204.23 moveto
3307.29 1214.82 lineto
3314.06 1206.67 lineto
closepath stroke
grestore
% 45
gsave
1 setlinewidth
0 0 0 nodecolor
296.55 3633.2 27 18 ellipse_path stroke
0 0 0 nodecolor
14 /Times-Roman set_font
288.55 3629.5 moveto 16 (45) alignedtext
grestore
% 45->39
gsave
1 setlinewidth
0 0 0 edgecolor
newpath 283.62 3616.9 moveto
270.96 3600.95 251.53 3576.47 237.14 3558.33 curveto
stroke
0 0 0 edgecolor
newpath 239.88 3556.15 moveto
230.93 3550.5 lineto
234.4 3560.51 lineto
closepath fill
1 setlinewidth
solid
0 0 0 edgecolor
newpath 239.88 3556.15 moveto
230.93 3550.5 lineto
234.4 3560.51 lineto
closepath stroke
grestore
% 47
gsave
1 setlinewidth
0 0 0 nodecolor
3106.81 2165.43 27 18 ellipse_path stroke
0 0 0 nodecolor
14 /Times-Roman set_font
3098.81 2161.73 moveto 16 (47) alignedtext
grestore
% 47->3
gsave
1 setlinewidth
0 0 0 edgecolor
newpath 3108.13 2147.23 moveto
3113.66 2070.73 3135.05 1774.91 3141.76 1682.09 curveto
stroke
0 0 0 edgecolor
newpath 3145.25 1682.27 moveto
3142.48 1672.05 lineto
3138.27 1681.77 lineto
closepath fill
1 setlinewidth
solid
0 0 0 edgecolor
newpath 3145.25 1682.27 moveto
3142.48 1672.05 lineto
3138.27 1681.77 lineto
closepath stroke
grestore
% 49
gsave
0.10588 1 1 nodecolor
2599.27 1133.47 27 18 ellipse_path fill
1 setlinewidth
filled
0.10588 1 1 nodecolor
2599.27 1133.47 27 18 ellipse_path stroke
0 0 0 nodecolor
14 /Times-Roman set_font
2591.27 1129.77 moveto 16 (49) alignedtext
grestore
% 57
gsave
1 setlinewidth
0 0 0 nodecolor
2658.13 1244.88 27 18 ellipse_path stroke
0 0 0 nodecolor
14 /Times-Roman set_font
2650.63 1241.18 moveto 15 (57) alignedtext
grestore
% 49->57
gsave
3 setlinewidth
0.10588 1 1 edgecolor
newpath 2608.46 1150.88 moveto
2618.05 1169.03 2633.2 1197.69 2644.24 1218.6 curveto
stroke
0.10588 1 1 edgecolor
newpath 2641.23 1220.39 moveto
2648.99 1227.59 lineto
2647.42 1217.12 lineto
closepath fill
3 setlinewidth
solid
0.10588 1 1 edgecolor
newpath 2641.23 1220.39 moveto
2648.99 1227.59 lineto
2647.42 1217.12 lineto
closepath stroke
grestore
% 57->5
gsave
1 setlinewidth
0 0 0 edgecolor
newpath 2667.14 1261.94 moveto
2677.66 1281.84 2695.15 1314.95 2707.34 1338.03 curveto
stroke
0 0 0 edgecolor
newpath 2704.28 1339.74 moveto
2712.05 1346.94 lineto
2710.47 1336.47 lineto
closepath fill
1 setlinewidth
solid
0 0 0 edgecolor
newpath 2704.28 1339.74 moveto
2712.05 1346.94 lineto
2710.47 1336.47 lineto
closepath stroke
grestore
% 51
gsave
1 setlinewidth
0 0 0 nodecolor
1505.22 2564.53 27 18 ellipse_path stroke
0 0 0 nodecolor
14 /Times-Roman set_font
1497.72 2560.83 moveto 15 (51) alignedtext
grestore
% 51->9
gsave
1 setlinewidth
0 0 0 edgecolor
newpath 1513.79 2581.64 moveto
1522.99 2600 1537.72 2629.4 1548.42 2650.74 curveto
stroke
0 0 0 edgecolor
newpath 1545.4 2652.54 moveto
1553.01 2659.91 lineto
1551.66 2649.4 lineto
closepath fill
1 setlinewidth
solid
0 0 0 edgecolor
newpath 1545.4 2652.54 moveto
1553.01 2659.91 lineto
1551.66 2649.4 lineto
closepath stroke
grestore
% 53
gsave
1 setlinewidth
0 0 0 nodecolor
2522.55 1574.77 27 18 ellipse_path stroke
0 0 0 nodecolor
14 /Times-Roman set_font
2515.05 1571.07 moveto 15 (53) alignedtext
grestore
% 53->27
gsave
1 setlinewidth
0 0 0 edgecolor
newpath 2515.81 1557.15 moveto
2508.45 1537.91 2496.58 1506.86 2488.01 1484.44 curveto
stroke
0 0 0 edgecolor
newpath 2491.17 1482.91 moveto
2484.33 1474.82 lineto
2484.63 1485.41 lineto
closepath fill
1 setlinewidth
solid
0 0 0 edgecolor
newpath 2491.17 1482.91 moveto
2484.33 1474.82 lineto
2484.63 1485.41 lineto
closepath stroke
grestore
% 55
gsave
1 setlinewidth
0 0 0 nodecolor
1730.64 2592.5 27 18 ellipse_path stroke
0 0 0 nodecolor
14 /Times-Roman set_font
1722.64 2588.8 moveto 16 (55) alignedtext
grestore
% 55->9
gsave
1 setlinewidth
0 0 0 edgecolor
newpath 1708.89 2603.4 moveto
1679.24 2618.26 1625.95 2644.96 1592.27 2661.84 curveto
stroke
0 0 0 edgecolor
newpath 1590.7 2658.71 moveto
1583.33 2666.32 lineto
1593.83 2664.97 lineto
closepath fill
1 setlinewidth
solid
0 0 0 edgecolor
newpath 1590.7 2658.71 moveto
1583.33 2666.32 lineto
1593.83 2664.97 lineto
closepath stroke
grestore
% 59
gsave
1 setlinewidth
0 0 0 nodecolor
3664.26 1339.11 27 18 ellipse_path stroke
0 0 0 nodecolor
14 /Times-Roman set_font
3656.26 1335.41 moveto 16 (59) alignedtext
grestore
% 59->15
gsave
1 setlinewidth
0 0 0 edgecolor
newpath 3657.12 1356.57 moveto
3649.32 1375.63 3636.73 1406.41 3627.65 1428.62 curveto
stroke
0 0 0 edgecolor
newpath 3624.3 1427.57 moveto
3623.75 1438.15 lineto
3630.78 1430.22 lineto
closepath fill
1 setlinewidth
solid
0 0 0 edgecolor
newpath 3624.3 1427.57 moveto
3623.75 1438.15 lineto
3630.78 1430.22 lineto
closepath stroke
grestore
% 61
gsave
1 setlinewidth
0 0 0 nodecolor
1023.29 18 27 18 ellipse_path stroke
0 0 0 nodecolor
14 /Times-Roman set_font
1015.79 14.3 moveto 15 (61) alignedtext
grestore
% 61->31
gsave
1 setlinewidth
0 0 0 edgecolor
newpath 1028.99 35.69 moveto
1035.36 55.45 1045.74 87.64 1053.15 110.63 curveto
stroke
0 0 0 edgecolor
newpath 1049.83 111.71 moveto
1056.23 120.15 lineto
1056.49 109.56 lineto
closepath fill
1 setlinewidth
solid
0 0 0 edgecolor
newpath 1049.83 111.71 moveto
1056.23 120.15 lineto
1056.49 109.56 lineto
closepath stroke
grestore
% 63
gsave
1 setlinewidth
0 0 0 nodecolor
1571.09 3433.12 27 18 ellipse_path stroke
0 0 0 nodecolor
14 /Times-Roman set_font
1563.59 3429.42 moveto 15 (63) alignedtext
grestore
% 63->13
gsave
1 setlinewidth
0 0 0 edgecolor
newpath 1570.86 3414.89 moveto
1570.11 3354.02 1567.65 3157.45 1566.73 3083.57 curveto
stroke
0 0 0 edgecolor
newpath 1570.23 3083.15 moveto
1566.6 3073.2 lineto
1563.23 3083.24 lineto
closepath fill
1 setlinewidth
solid
0 0 0 edgecolor
newpath 1570.23 3083.15 moveto
1566.6 3073.2 lineto
1563.23 3083.24 lineto
closepath stroke
grestore
% 65
gsave
1 setlinewidth
0 0 0 nodecolor
27 858.42 27 18 ellipse_path stroke
0 0 0 nodecolor
14 /Times-Roman set_font
19 854.72 moveto 16 (65) alignedtext
grestore
% 65->21
gsave
1 setlinewidth
0 0 0 edgecolor
newpath 48.27 869.53 moveto
65.24 878.39 89.23 890.92 108.24 900.84 curveto
stroke
0 0 0 edgecolor
newpath 106.63 903.95 moveto
117.12 905.48 lineto
109.87 897.75 lineto
closepath fill
1 setlinewidth
solid
0 0 0 edgecolor
newpath 106.63 903.95 moveto
117.12 905.48 lineto
109.87 897.75 lineto
closepath stroke
grestore
% 67
gsave
1 setlinewidth
0 0 0 nodecolor
1385.71 2857.58 27 18 ellipse_path stroke
0 0 0 nodecolor
14 /Times-Roman set_font
1378.21 2853.88 moveto 15 (67) alignedtext
grestore
% 67->17
gsave
1 setlinewidth
0 0 0 edgecolor
newpath 1400.63 2842.28 moveto
1414.54 2828.02 1435.45 2806.58 1451.34 2790.29 curveto
stroke
0 0 0 edgecolor
newpath 1454.21 2792.36 moveto
1458.69 2782.75 lineto
1449.2 2787.47 lineto
closepath fill
1 setlinewidth
solid
0 0 0 edgecolor
newpath 1454.21 2792.36 moveto
1458.69 2782.75 lineto
1449.2 2787.47 lineto
closepath stroke
grestore
% 69
gsave
1 setlinewidth
0 0 0 nodecolor
2888.69 2098.8 27 18 ellipse_path stroke
0 0 0 nodecolor
14 /Times-Roman set_font
2880.69 2095.1 moveto 16 (69) alignedtext
grestore
% 69->3
gsave
1 setlinewidth
0 0 0 edgecolor
newpath 2898.38 2081.91 moveto
2937.21 2014.21 3081.73 1762.24 3128.84 1680.12 curveto
stroke
0 0 0 edgecolor
newpath 3132.15 1681.39 moveto
3134.08 1670.97 lineto
3126.07 1677.91 lineto
closepath fill
1 setlinewidth
solid
0 0 0 edgecolor
newpath 3132.15 1681.39 moveto
3134.08 1670.97 lineto
3126.07 1677.91 lineto
closepath stroke
grestore
% 71
gsave
1 setlinewidth
0 0 0 nodecolor
1696.96 2809.14 27 18 ellipse_path stroke
0 0 0 nodecolor
14 /Times-Roman set_font
1689.96 2805.44 moveto 14 (71) alignedtext
grestore
% 71->9
gsave
1 setlinewidth
0 0 0 edgecolor
newpath 1681.71 2794.26 moveto
1657.95 2771.1 1612 2726.27 1584.35 2699.31 curveto
stroke
0 0 0 edgecolor
newpath 1586.68 2696.68 moveto
1577.07 2692.21 lineto
1581.79 2701.7 lineto
closepath fill
1 setlinewidth
solid
0 0 0 edgecolor
newpath 1586.68 2696.68 moveto
1577.07 2692.21 lineto
1581.79 2701.7 lineto
closepath stroke
grestore
% 73
gsave
1 setlinewidth
0 0 0 nodecolor
2814.62 1739.18 27 18 ellipse_path stroke
0 0 0 nodecolor
14 /Times-Roman set_font
2807.62 1735.48 moveto 14 (73) alignedtext
grestore
% 73->37
gsave
1 setlinewidth
0 0 0 edgecolor
newpath 2810.18 1721.4 moveto
2805.15 1701.21 2796.87 1668.02 2791 1644.47 curveto
stroke
0 0 0 edgecolor
newpath 2794.38 1643.58 moveto
2788.57 1634.72 lineto
2787.59 1645.27 lineto
closepath fill
1 setlinewidth
solid
0 0 0 edgecolor
newpath 2794.38 1643.58 moveto
2788.57 1634.72 lineto
2787.59 1645.27 lineto
closepath stroke
grestore
% 75
gsave
1 setlinewidth
0 0 0 nodecolor
1185.14 164.4 27 18 ellipse_path stroke
0 0 0 nodecolor
14 /Times-Roman set_font
1177.64 160.7 moveto 15 (75) alignedtext
grestore
% 75->31
gsave
1 setlinewidth
0 0 0 edgecolor
newpath 1159.32 158.85 moveto
1141.41 155 1117.34 149.82 1097.61 145.58 curveto
stroke
0 0 0 edgecolor
newpath 1098.26 142.14 moveto
1087.74 143.46 lineto
1096.79 148.99 lineto
closepath fill
1 setlinewidth
solid
0 0 0 edgecolor
newpath 1098.26 142.14 moveto
1087.74 143.46 lineto
1096.79 148.99 lineto
closepath stroke
grestore
% 77
gsave
1 setlinewidth
0 0 0 nodecolor
2721.05 1944.16 27 18 ellipse_path stroke
0 0 0 nodecolor
14 /Times-Roman set_font
2714.05 1940.46 moveto 14 (77) alignedtext
grestore
% 77->3
gsave
1 setlinewidth
0 0 0 edgecolor
newpath 2740.03 1931.13 moveto
2807.64 1884.74 3036.82 1727.46 3116.34 1672.9 curveto
stroke
0 0 0 edgecolor
newpath 3118.59 1675.6 moveto
3124.85 1667.06 lineto
3114.62 1669.83 lineto
closepath fill
1 setlinewidth
solid
0 0 0 edgecolor
newpath 3118.59 1675.6 moveto
3124.85 1667.06 lineto
3114.62 1669.83 lineto
closepath stroke
grestore
% 79
gsave
1 setlinewidth
0 0 0 nodecolor
2841.57 1132.81 27 18 ellipse_path stroke
0 0 0 nodecolor
14 /Times-Roman set_font
2834.07 1129.11 moveto 15 (79) alignedtext
grestore
% 79->5
gsave
1 setlinewidth
0 0 0 edgecolor
newpath 2832.51 1150.19 moveto
2811.56 1190.36 2759.67 1289.89 2734.79 1337.62 curveto
stroke
0 0 0 edgecolor
newpath 2731.57 1336.23 moveto
2730.05 1346.71 lineto
2737.77 1339.46 lineto
closepath fill
1 setlinewidth
solid
0 0 0 edgecolor
newpath 2731.57 1336.23 moveto
2730.05 1346.71 lineto
2737.77 1339.46 lineto
closepath stroke
grestore
% 81
gsave
0.10588 1 1 nodecolor
3104.8 1316.32 27 18 ellipse_path fill
1 setlinewidth
filled
0.10588 1 1 nodecolor
3104.8 1316.32 27 18 ellipse_path stroke
0 0 0 nodecolor
14 /Times-Roman set_font
3097.8 1312.62 moveto 14 (81) alignedtext
grestore
% 121
gsave
0.10588 1 1 nodecolor
2979.76 1331.84 27 18 ellipse_path fill
1 setlinewidth
filled
0.10588 1 1 nodecolor
2979.76 1331.84 27 18 ellipse_path stroke
0 0 0 nodecolor
14 /Times-Roman set_font
2969.26 1328.14 moveto 21 (121) alignedtext
grestore
% 81->121
gsave
3 setlinewidth
0.10588 1 1 edgecolor
newpath 3077.97 1319.65 moveto
3060.09 1321.87 3036.35 1324.82 3016.68 1327.26 curveto
stroke
0.10588 1 1 edgecolor
newpath 3016.03 1323.81 moveto
3006.54 1328.52 lineto
3016.89 1330.76 lineto
closepath fill
3 setlinewidth
solid
0.10588 1 1 edgecolor
newpath 3016.03 1323.81 moveto
3006.54 1328.52 lineto
3016.89 1330.76 lineto
closepath stroke
grestore
% 133
gsave
1 setlinewidth
0 0 0 nodecolor
2854.72 1347.37 27 18 ellipse_path stroke
0 0 0 nodecolor
14 /Times-Roman set_font
2844.22 1343.67 moveto 21 (133) alignedtext
grestore
% 121->133
gsave
3 setlinewidth
0.10588 1 1 edgecolor
newpath 2952.93 1335.18 moveto
2935.05 1337.4 2911.31 1340.35 2891.65 1342.79 curveto
stroke
0.10588 1 1 edgecolor
newpath 2890.99 1339.34 moveto
2881.5 1344.05 lineto
2891.85 1346.29 lineto
closepath fill
3 setlinewidth
solid
0.10588 1 1 edgecolor
newpath 2890.99 1339.34 moveto
2881.5 1344.05 lineto
2891.85 1346.29 lineto
closepath stroke
grestore
% 83
gsave
1 setlinewidth
0 0 0 nodecolor
245.04 849.18 27 18 ellipse_path stroke
0 0 0 nodecolor
14 /Times-Roman set_font
238.04 845.48 moveto 14 (83) alignedtext
grestore
% 83->21
gsave
1 setlinewidth
0 0 0 edgecolor
newpath 225.04 861.88 moveto
208.59 872.33 185.11 887.25 166.78 898.9 curveto
stroke
0 0 0 edgecolor
newpath 164.81 896 moveto
158.25 904.32 lineto
168.56 901.91 lineto
closepath fill
1 setlinewidth
solid
0 0 0 edgecolor
newpath 164.81 896 moveto
158.25 904.32 lineto
168.56 901.91 lineto
closepath stroke
grestore
% 85
gsave
1 setlinewidth
0 0 0 nodecolor
2432.55 1339.39 27 18 ellipse_path stroke
0 0 0 nodecolor
14 /Times-Roman set_font
2425.05 1335.69 moveto 15 (85) alignedtext
grestore
% 85->27
gsave
1 setlinewidth
0 0 0 edgecolor
newpath 2439.28 1357.01 moveto
2446.64 1376.25 2458.52 1407.31 2467.09 1429.73 curveto
stroke
0 0 0 edgecolor
newpath 2463.92 1431.25 moveto
2470.76 1439.34 lineto
2470.46 1428.75 lineto
closepath fill
1 setlinewidth
solid
0 0 0 edgecolor
newpath 2463.92 1431.25 moveto
2470.76 1439.34 lineto
2470.46 1428.75 lineto
closepath stroke
grestore
% 87
gsave
1 setlinewidth
0 0 0 nodecolor
3733.19 1503.43 27 18 ellipse_path stroke
0 0 0 nodecolor
14 /Times-Roman set_font
3726.19 1499.73 moveto 14 (87) alignedtext
grestore
% 87->15
gsave
1 setlinewidth
0 0 0 edgecolor
newpath 3710.15 1494 moveto
3692.77 1486.9 3668.7 1477.05 3649.32 1469.13 curveto
stroke
0 0 0 edgecolor
newpath 3650.54 1465.84 moveto
3639.96 1465.3 lineto
3647.89 1472.32 lineto
closepath fill
1 setlinewidth
solid
0 0 0 edgecolor
newpath 3650.54 1465.84 moveto
3639.96 1465.3 lineto
3647.89 1472.32 lineto
closepath stroke
grestore
% 89
gsave
1 setlinewidth
0 0 0 nodecolor
374.88 3731.9 27 18 ellipse_path stroke
0 0 0 nodecolor
14 /Times-Roman set_font
367.38 3728.2 moveto 15 (89) alignedtext
grestore
% 89->45
gsave
1 setlinewidth
0 0 0 edgecolor
newpath 361.94 3715.6 moveto
349.28 3699.65 329.86 3675.17 315.46 3657.03 curveto
stroke
0 0 0 edgecolor
newpath 318.2 3654.86 moveto
309.25 3649.2 lineto
312.72 3659.21 lineto
closepath fill
1 setlinewidth
solid
0 0 0 edgecolor
newpath 318.2 3654.86 moveto
309.25 3649.2 lineto
312.72 3659.21 lineto
closepath stroke
grestore
% 91
gsave
1 setlinewidth
0 0 0 nodecolor
388.81 2437.07 27 18 ellipse_path stroke
0 0 0 nodecolor
14 /Times-Roman set_font
381.31 2433.37 moveto 15 (91) alignedtext
grestore
% 91->7
gsave
1 setlinewidth
0 0 0 edgecolor
newpath 399.87 2453.53 moveto
457.57 2539.4 724.01 2935.95 793.71 3039.69 curveto
stroke
0 0 0 edgecolor
newpath 790.81 3041.65 moveto
799.3 3048 lineto
796.63 3037.74 lineto
closepath fill
1 setlinewidth
solid
0 0 0 edgecolor
newpath 790.81 3041.65 moveto
799.3 3048 lineto
796.63 3037.74 lineto
closepath stroke
grestore
% 93
gsave
1 setlinewidth
0 0 0 nodecolor
2151.56 178.7 27 18 ellipse_path stroke
0 0 0 nodecolor
14 /Times-Roman set_font
2144.06 175 moveto 15 (93) alignedtext
grestore
% 93->1
gsave
1 setlinewidth
0 0 0 edgecolor
newpath 2144.4 196.29 moveto
2088.73 333.01 1724.07 1228.53 1595.53 1544.17 curveto
stroke
0 0 0 edgecolor
newpath 1592.14 1543.21 moveto
1591.61 1553.8 lineto
1598.63 1545.85 lineto
closepath fill
1 setlinewidth
solid
0 0 0 edgecolor
newpath 1592.14 1543.21 moveto
1591.61 1553.8 lineto
1598.63 1545.85 lineto
closepath stroke
grestore
% 95
gsave
1 setlinewidth
0 0 0 nodecolor
3568.87 1572.36 27 18 ellipse_path stroke
0 0 0 nodecolor
14 /Times-Roman set_font
3560.87 1568.66 moveto 16 (95) alignedtext
grestore
% 95->15
gsave
1 setlinewidth
0 0 0 edgecolor
newpath 3576.01 1554.9 moveto
3583.81 1535.83 3596.39 1505.06 3605.48 1482.84 curveto
stroke
0 0 0 edgecolor
newpath 3608.83 1483.89 moveto
3609.37 1473.31 lineto
3602.35 1481.24 lineto
closepath fill
1 setlinewidth
solid
0 0 0 edgecolor
newpath 3608.83 1483.89 moveto
3609.37 1473.31 lineto
3602.35 1481.24 lineto
closepath stroke
grestore
% 97
gsave
1 setlinewidth
0 0 0 nodecolor
2540.41 1022.06 27 18 ellipse_path stroke
0 0 0 nodecolor
14 /Times-Roman set_font
2532.91 1018.36 moveto 15 (97) alignedtext
grestore
% 97->49
gsave
1 setlinewidth
0 0 0 edgecolor
newpath 2549.6 1039.47 moveto
2559.19 1057.62 2574.34 1086.29 2585.38 1107.19 curveto
stroke
0 0 0 edgecolor
newpath 2582.37 1108.98 moveto
2590.14 1116.19 lineto
2588.56 1105.71 lineto
closepath fill
1 setlinewidth
solid
0 0 0 edgecolor
newpath 2582.37 1108.98 moveto
2590.14 1116.19 lineto
2588.56 1105.71 lineto
closepath stroke
grestore
% 99
gsave
1 setlinewidth
0 0 0 nodecolor
100.75 3386.45 27 18 ellipse_path stroke
0 0 0 nodecolor
14 /Times-Roman set_font
92.75 3382.75 moveto 16 (99) alignedtext
grestore
% 99->39
gsave
1 setlinewidth
0 0 0 edgecolor
newpath 113.55 3402.58 moveto
134.2 3428.61 175.01 3480.04 199.13 3510.42 curveto
stroke
0 0 0 edgecolor
newpath 196.5 3512.74 moveto
205.45 3518.4 lineto
201.98 3508.39 lineto
closepath fill
1 setlinewidth
solid
0 0 0 edgecolor
newpath 196.5 3512.74 moveto
205.45 3518.4 lineto
201.98 3508.39 lineto
closepath stroke
grestore
% 101
gsave
1 setlinewidth
0 0 0 nodecolor
1448.77 2451.88 27 18 ellipse_path stroke
0 0 0 nodecolor
14 /Times-Roman set_font
1437.77 2448.18 moveto 22 (101) alignedtext
grestore
% 101->51
gsave
1 setlinewidth
0 0 0 edgecolor
newpath 1457.34 2468.99 moveto
1466.54 2487.35 1481.27 2516.75 1491.97 2538.09 curveto
stroke
0 0 0 edgecolor
newpath 1488.95 2539.89 moveto
1496.56 2547.26 lineto
1495.21 2536.75 lineto
closepath fill
1 setlinewidth
solid
0 0 0 edgecolor
newpath 1488.95 2539.89 moveto
1496.56 2547.26 lineto
1495.21 2536.75 lineto
closepath stroke
grestore
% 133->5
gsave
1 setlinewidth
0 0 0 edgecolor
newpath 2827.99 1350.69 moveto
2807.86 1353.19 2780.04 1356.65 2757.81 1359.41 curveto
stroke
0 0 0 edgecolor
newpath 2757.22 1355.96 moveto
2747.73 1360.66 lineto
2758.09 1362.9 lineto
closepath fill
1 setlinewidth
solid
0 0 0 edgecolor
newpath 2757.22 1355.96 moveto
2747.73 1360.66 lineto
2758.09 1362.9 lineto
closepath stroke
grestore
endpage
showpage
grestore
%%PageTrailer
%%EndPage: 1
%%Trailer
end
restore
%%EOF
