%!PS-Adobe-3.0 EPSF-3.0
%%Creator: graphviz version 2.38.0 (20140413.2041)
%%Title: sigma odd
%%Pages: 1
%%BoundingBox: 36 36 548 2078
%%EndComments
save
%%BeginProlog
/DotDict 200 dict def
DotDict begin

/setupLatin1 {
mark
/EncodingVector 256 array def
 EncodingVector 0

ISOLatin1Encoding 0 255 getinterval putinterval
EncodingVector 45 /hyphen put

% Set up ISO Latin 1 character encoding
/starnetISO {
        dup dup findfont dup length dict begin
        { 1 index /FID ne { def }{ pop pop } ifelse
        } forall
        /Encoding EncodingVector def
        currentdict end definefont
} def
/Times-Roman starnetISO def
/Times-Italic starnetISO def
/Times-Bold starnetISO def
/Times-BoldItalic starnetISO def
/Helvetica starnetISO def
/Helvetica-Oblique starnetISO def
/Helvetica-Bold starnetISO def
/Helvetica-BoldOblique starnetISO def
/Courier starnetISO def
/Courier-Oblique starnetISO def
/Courier-Bold starnetISO def
/Courier-BoldOblique starnetISO def
cleartomark
} bind def

%%BeginResource: procset graphviz 0 0
/coord-font-family /Times-Roman def
/default-font-family /Times-Roman def
/coordfont coord-font-family findfont 8 scalefont def

/InvScaleFactor 1.0 def
/set_scale {
       dup 1 exch div /InvScaleFactor exch def
       scale
} bind def

% styles
/solid { [] 0 setdash } bind def
/dashed { [9 InvScaleFactor mul dup ] 0 setdash } bind def
/dotted { [1 InvScaleFactor mul 6 InvScaleFactor mul] 0 setdash } bind def
/invis {/fill {newpath} def /stroke {newpath} def /show {pop newpath} def} bind def
/bold { 2 setlinewidth } bind def
/filled { } bind def
/unfilled { } bind def
/rounded { } bind def
/diagonals { } bind def
/tapered { } bind def

% hooks for setting color 
/nodecolor { sethsbcolor } bind def
/edgecolor { sethsbcolor } bind def
/graphcolor { sethsbcolor } bind def
/nopcolor {pop pop pop} bind def

/beginpage {	% i j npages
	/npages exch def
	/j exch def
	/i exch def
	/str 10 string def
	npages 1 gt {
		gsave
			coordfont setfont
			0 0 moveto
			(\() show i str cvs show (,) show j str cvs show (\)) show
		grestore
	} if
} bind def

/set_font {
	findfont exch
	scalefont setfont
} def

% draw text fitted to its expected width
/alignedtext {			% width text
	/text exch def
	/width exch def
	gsave
		width 0 gt {
			[] 0 setdash
			text stringwidth pop width exch sub text length div 0 text ashow
		} if
	grestore
} def

/boxprim {				% xcorner ycorner xsize ysize
		4 2 roll
		moveto
		2 copy
		exch 0 rlineto
		0 exch rlineto
		pop neg 0 rlineto
		closepath
} bind def

/ellipse_path {
	/ry exch def
	/rx exch def
	/y exch def
	/x exch def
	matrix currentmatrix
	newpath
	x y translate
	rx ry scale
	0 0 1 0 360 arc
	setmatrix
} bind def

/endpage { showpage } bind def
/showpage { } def

/layercolorseq
	[	% layer color sequence - darkest to lightest
		[0 0 0]
		[.2 .8 .8]
		[.4 .8 .8]
		[.6 .8 .8]
		[.8 .8 .8]
	]
def

/layerlen layercolorseq length def

/setlayer {/maxlayer exch def /curlayer exch def
	layercolorseq curlayer 1 sub layerlen mod get
	aload pop sethsbcolor
	/nodecolor {nopcolor} def
	/edgecolor {nopcolor} def
	/graphcolor {nopcolor} def
} bind def

/onlayer { curlayer ne {invis} if } def

/onlayers {
	/myupper exch def
	/mylower exch def
	curlayer mylower lt
	curlayer myupper gt
	or
	{invis} if
} def

/curlayer 0 def

%%EndResource
%%EndProlog
%%BeginSetup
14 default-font-family set_font
1 setmiterlimit
% /arrowlength 10 def
% /arrowwidth 5 def

% make sure pdfmark is harmless for PS-interpreters other than Distiller
/pdfmark where {pop} {userdict /pdfmark /cleartomark load put} ifelse
% make '<<' and '>>' safe on PS Level 1 devices
/languagelevel where {pop languagelevel}{1} ifelse
2 lt {
    userdict (<<) cvn ([) cvn load put
    userdict (>>) cvn ([) cvn load put
} if

%%EndSetup
setupLatin1
%%Page: 1 1
%%PageBoundingBox: 36 36 548 2078
%%PageOrientation: Portrait
0 0 1 beginpage
gsave
36 36 512 2042 boxprim clip newpath
1 1 set_scale 0 rotate 40 40 translate
% 1
gsave
0 0 0.82745 nodecolor
477 220 27 18 ellipse_path fill
1 setlinewidth
filled
0 0 0 nodecolor
477 220 27 18 ellipse_path stroke
0 0 0 nodecolor
14 /Times-Roman set_font
473.5 216.3 moveto 7 (1) alignedtext
grestore
% 1->1
gsave
1 setlinewidth
0 0 0 edgecolor
newpath 461.77 235.17 moveto
457.16 245.66 462.23 256 477 256 curveto
486.92 256 492.47 251.33 493.64 245.09 curveto
stroke
0 0 0 edgecolor
newpath 497.1 244.57 moveto
492.23 235.17 lineto
490.17 245.56 lineto
closepath fill
1 setlinewidth
solid
0 0 0 edgecolor
newpath 497.1 244.57 moveto
492.23 235.17 lineto
490.17 245.56 lineto
closepath stroke
grestore
% 3
gsave
1 setlinewidth
0 0 0 nodecolor
387 963 27 18 ellipse_path stroke
0 0 0 nodecolor
14 /Times-Roman set_font
383.5 959.3 moveto 7 (3) alignedtext
grestore
% 3->1
gsave
1 setlinewidth
0 0 0 edgecolor
newpath 390.13 945 moveto
401.84 846.15 458.32 369.3 472.67 248.08 curveto
stroke
0 0 0 edgecolor
newpath 476.16 248.44 moveto
473.86 238.09 lineto
469.21 247.61 lineto
closepath fill
1 setlinewidth
solid
0 0 0 edgecolor
newpath 476.16 248.44 moveto
473.86 238.09 lineto
469.21 247.61 lineto
closepath stroke
grestore
% 5
gsave
1 setlinewidth
0 0 0 nodecolor
297 1557 27 18 ellipse_path stroke
0 0 0 nodecolor
14 /Times-Roman set_font
293 1553.3 moveto 8 (5) alignedtext
grestore
% 5->3
gsave
1 setlinewidth
0 0 0 edgecolor
newpath 300.98 1539.04 moveto
305.92 1509.16 316.04 1447.38 324 1395 curveto
347.13 1242.84 372.59 1060.16 382.12 991.19 curveto
stroke
0 0 0 edgecolor
newpath 385.61 991.51 moveto
383.51 981.12 lineto
378.67 990.55 lineto
closepath fill
1 setlinewidth
solid
0 0 0 edgecolor
newpath 385.61 991.51 moveto
383.51 981.12 lineto
378.67 990.55 lineto
closepath stroke
grestore
% 7
gsave
1 setlinewidth
0 0 0 nodecolor
387 477 27 18 ellipse_path stroke
0 0 0 nodecolor
14 /Times-Roman set_font
383.5 473.3 moveto 7 (7) alignedtext
grestore
% 7->1
gsave
1 setlinewidth
0 0 0 edgecolor
newpath 394.05 459.34 moveto
409.16 415.21 448.62 299.95 466.71 247.14 curveto
stroke
0 0 0 edgecolor
newpath 470.1 248.04 moveto
470.03 237.45 lineto
463.47 245.78 lineto
closepath fill
1 setlinewidth
solid
0 0 0 edgecolor
newpath 470.1 248.04 moveto
470.03 237.45 lineto
463.47 245.78 lineto
closepath stroke
grestore
% 9
gsave
0.10588 1 1 nodecolor
207 720 27 18 ellipse_path fill
1 setlinewidth
filled
0.10588 1 1 nodecolor
207 720 27 18 ellipse_path stroke
0 0 0 nodecolor
14 /Times-Roman set_font
203 716.3 moveto 8 (9) alignedtext
grestore
% 13
gsave
1 setlinewidth
0 0 0 nodecolor
297 612 27 18 ellipse_path stroke
0 0 0 nodecolor
14 /Times-Roman set_font
290 608.3 moveto 14 (13) alignedtext
grestore
% 9->13
gsave
3 setlinewidth
0.10588 1 1 edgecolor
newpath 223.07 705.3 moveto
226.79 701.42 230.66 697.16 234 693 curveto
252.08 670.52 251.92 661.48 270 639 curveto
271.25 637.44 272.58 635.87 273.95 634.3 curveto
stroke
0.10588 1 1 edgecolor
newpath 276.74 636.43 moveto
280.93 626.7 lineto
271.59 631.7 lineto
closepath fill
3 setlinewidth
solid
0.10588 1 1 edgecolor
newpath 276.74 636.43 moveto
280.93 626.7 lineto
271.59 631.7 lineto
closepath stroke
grestore
% 13->7
gsave
1 setlinewidth
0 0 0 edgecolor
newpath 308.61 595.72 moveto
323.81 572.4 351.9 529.32 369.73 501.96 curveto
stroke
0 0 0 edgecolor
newpath 372.82 503.63 moveto
375.35 493.34 lineto
366.95 499.81 lineto
closepath fill
1 setlinewidth
solid
0 0 0 edgecolor
newpath 372.82 503.63 moveto
375.35 493.34 lineto
366.95 499.81 lineto
closepath stroke
grestore
% 11
gsave
1 setlinewidth
0 0 0 nodecolor
297 1368 27 18 ellipse_path stroke
0 0 0 nodecolor
14 /Times-Roman set_font
290 1364.3 moveto 14 (11) alignedtext
grestore
% 11->3
gsave
1 setlinewidth
0 0 0 edgecolor
newpath 301.89 1350.08 moveto
315.81 1286.04 363.13 1068.25 379.98 990.7 curveto
stroke
0 0 0 edgecolor
newpath 383.45 991.23 moveto
382.15 980.72 lineto
376.61 989.75 lineto
closepath fill
1 setlinewidth
solid
0 0 0 edgecolor
newpath 383.45 991.23 moveto
382.15 980.72 lineto
376.61 989.75 lineto
closepath stroke
grestore
% 15
gsave
1 setlinewidth
0 0 0 nodecolor
297 1206 27 18 ellipse_path stroke
0 0 0 nodecolor
14 /Times-Roman set_font
289.5 1202.3 moveto 15 (15) alignedtext
grestore
% 15->3
gsave
1 setlinewidth
0 0 0 edgecolor
newpath 314.01 1191.94 moveto
317.71 1188.05 321.33 1183.62 324 1179 curveto
359.57 1117.31 375.94 1033.78 382.4 990.92 curveto
stroke
0 0 0 edgecolor
newpath 385.88 991.33 moveto
383.84 980.93 lineto
378.95 990.33 lineto
closepath fill
1 setlinewidth
solid
0 0 0 edgecolor
newpath 385.88 991.33 moveto
383.84 980.93 lineto
378.95 990.33 lineto
closepath stroke
grestore
% 17
gsave
1 setlinewidth
0 0 0 nodecolor
117 882 27 18 ellipse_path stroke
0 0 0 nodecolor
14 /Times-Roman set_font
110 878.3 moveto 14 (17) alignedtext
grestore
% 17->9
gsave
1 setlinewidth
0 0 0 edgecolor
newpath 133.54 867.65 moveto
137.25 863.76 140.99 859.41 144 855 curveto
167.55 820.46 186.14 775.54 196.6 747.23 curveto
stroke
0 0 0 edgecolor
newpath 199.97 748.19 moveto
200.08 737.6 lineto
193.39 745.81 lineto
closepath fill
1 setlinewidth
solid
0 0 0 edgecolor
newpath 199.97 748.19 moveto
200.08 737.6 lineto
193.39 745.81 lineto
closepath stroke
grestore
% 19
gsave
1 setlinewidth
0 0 0 nodecolor
207 1935 27 18 ellipse_path stroke
0 0 0 nodecolor
14 /Times-Roman set_font
199.5 1931.3 moveto 15 (19) alignedtext
grestore
% 19->5
gsave
1 setlinewidth
0 0 0 edgecolor
newpath 212.13 1917.28 moveto
226.21 1856.76 272.49 1658 289.58 1584.58 curveto
stroke
0 0 0 edgecolor
newpath 293.02 1585.22 moveto
291.88 1574.69 lineto
286.21 1583.63 lineto
closepath fill
1 setlinewidth
solid
0 0 0 edgecolor
newpath 293.02 1585.22 moveto
291.88 1574.69 lineto
286.21 1583.63 lineto
closepath stroke
grestore
% 21
gsave
1 setlinewidth
0 0 0 nodecolor
387 261 27 18 ellipse_path stroke
0 0 0 nodecolor
14 /Times-Roman set_font
380 257.3 moveto 14 (21) alignedtext
grestore
% 21->1
gsave
1 setlinewidth
0 0 0 edgecolor
newpath 409.75 250.87 moveto
420.41 245.9 433.43 239.83 445.1 234.4 curveto
stroke
0 0 0 edgecolor
newpath 446.91 237.41 moveto
454.5 230.02 lineto
443.95 231.07 lineto
closepath fill
1 setlinewidth
solid
0 0 0 edgecolor
newpath 446.91 237.41 moveto
454.5 230.02 lineto
443.95 231.07 lineto
closepath stroke
grestore
% 23
gsave
1 setlinewidth
0 0 0 nodecolor
297 1152 27 18 ellipse_path stroke
0 0 0 nodecolor
14 /Times-Roman set_font
290 1148.3 moveto 14 (23) alignedtext
grestore
% 23->3
gsave
1 setlinewidth
0 0 0 edgecolor
newpath 313.74 1137.78 moveto
317.44 1133.89 321.14 1129.5 324 1125 curveto
351.4 1081.88 369.71 1024.77 378.95 991.15 curveto
stroke
0 0 0 edgecolor
newpath 382.43 991.67 moveto
381.63 981.1 lineto
375.67 989.86 lineto
closepath fill
1 setlinewidth
solid
0 0 0 edgecolor
newpath 382.43 991.67 moveto
381.63 981.1 lineto
375.67 989.86 lineto
closepath stroke
grestore
% 25
gsave
0.10588 1 1 nodecolor
297 126 27 18 ellipse_path fill
1 setlinewidth
filled
0.10588 1 1 nodecolor
297 126 27 18 ellipse_path stroke
0 0 0 nodecolor
14 /Times-Roman set_font
289.5 122.3 moveto 15 (25) alignedtext
grestore
% 31
gsave
1 setlinewidth
0 0 0 nodecolor
387 180 27 18 ellipse_path stroke
0 0 0 nodecolor
14 /Times-Roman set_font
380 176.3 moveto 14 (31) alignedtext
grestore
% 25->31
gsave
3 setlinewidth
0.10588 1 1 edgecolor
newpath 317.53 137.98 moveto
329.38 145.26 344.7 154.66 357.84 162.72 curveto
stroke
0.10588 1 1 edgecolor
newpath 356.17 165.8 moveto
366.52 168.05 lineto
359.83 159.84 lineto
closepath fill
3 setlinewidth
solid
0.10588 1 1 edgecolor
newpath 356.17 165.8 moveto
366.52 168.05 lineto
359.83 159.84 lineto
closepath stroke
grestore
% 31->1
gsave
1 setlinewidth
0 0 0 edgecolor
newpath 409.75 189.89 moveto
420.33 194.7 433.23 200.56 444.83 205.83 curveto
stroke
0 0 0 edgecolor
newpath 443.64 209.14 moveto
454.19 210.09 lineto
446.54 202.76 lineto
closepath fill
1 setlinewidth
solid
0 0 0 edgecolor
newpath 443.64 209.14 moveto
454.19 210.09 lineto
446.54 202.76 lineto
closepath stroke
grestore
% 27
gsave
1 setlinewidth
0 0 0 nodecolor
207 1746 27 18 ellipse_path stroke
0 0 0 nodecolor
14 /Times-Roman set_font
200 1742.3 moveto 14 (27) alignedtext
grestore
% 27->5
gsave
1 setlinewidth
0 0 0 edgecolor
newpath 215.96 1728.89 moveto
231.37 1695.81 265.35 1622.84 283.69 1583.45 curveto
stroke
0 0 0 edgecolor
newpath 286.94 1584.75 moveto
287.99 1574.2 lineto
280.6 1581.79 lineto
closepath fill
1 setlinewidth
solid
0 0 0 edgecolor
newpath 286.94 1584.75 moveto
287.99 1574.2 lineto
280.6 1581.79 lineto
closepath stroke
grestore
% 29
gsave
1 setlinewidth
0 0 0 nodecolor
207 1314 27 18 ellipse_path stroke
0 0 0 nodecolor
14 /Times-Roman set_font
199.5 1310.3 moveto 15 (29) alignedtext
grestore
% 29->15
gsave
1 setlinewidth
0 0 0 edgecolor
newpath 222.89 1299.14 moveto
226.6 1295.27 230.52 1291.05 234 1287 curveto
249.68 1268.75 266.18 1247.07 278.21 1230.72 curveto
stroke
0 0 0 edgecolor
newpath 281.33 1232.39 moveto
284.4 1222.25 lineto
275.67 1228.26 lineto
closepath fill
1 setlinewidth
solid
0 0 0 edgecolor
newpath 281.33 1232.39 moveto
284.4 1222.25 lineto
275.67 1228.26 lineto
closepath stroke
grestore
% 33
gsave
1 setlinewidth
0 0 0 nodecolor
297 1098 27 18 ellipse_path stroke
0 0 0 nodecolor
14 /Times-Roman set_font
290 1094.3 moveto 14 (33) alignedtext
grestore
% 33->3
gsave
1 setlinewidth
0 0 0 edgecolor
newpath 313.27 1083.45 moveto
316.98 1079.57 320.8 1075.27 324 1071 curveto
343.65 1044.82 361.74 1011.84 373.24 989.26 curveto
stroke
0 0 0 edgecolor
newpath 376.4 990.77 moveto
377.75 980.26 lineto
370.14 987.63 lineto
closepath fill
1 setlinewidth
solid
0 0 0 edgecolor
newpath 376.4 990.77 moveto
377.75 980.26 lineto
370.14 987.63 lineto
closepath stroke
grestore
% 35
gsave
1 setlinewidth
0 0 0 nodecolor
297 1044 27 18 ellipse_path stroke
0 0 0 nodecolor
14 /Times-Roman set_font
289.5 1040.3 moveto 15 (35) alignedtext
grestore
% 35->3
gsave
1 setlinewidth
0 0 0 edgecolor
newpath 313.73 1029.52 moveto
327.37 1016.96 347.3 998.62 362.77 984.38 curveto
stroke
0 0 0 edgecolor
newpath 365.42 986.7 moveto
370.4 977.36 lineto
360.68 981.55 lineto
closepath fill
1 setlinewidth
solid
0 0 0 edgecolor
newpath 365.42 986.7 moveto
370.4 977.36 lineto
360.68 981.55 lineto
closepath stroke
grestore
% 37
gsave
1 setlinewidth
0 0 0 nodecolor
117 2016 27 18 ellipse_path stroke
0 0 0 nodecolor
14 /Times-Roman set_font
110 2012.3 moveto 14 (37) alignedtext
grestore
% 37->19
gsave
1 setlinewidth
0 0 0 edgecolor
newpath 133.73 2001.52 moveto
147.37 1988.96 167.3 1970.62 182.77 1956.38 curveto
stroke
0 0 0 edgecolor
newpath 185.42 1958.7 moveto
190.4 1949.36 lineto
180.68 1953.55 lineto
closepath fill
1 setlinewidth
solid
0 0 0 edgecolor
newpath 185.42 1958.7 moveto
190.4 1949.36 lineto
180.68 1953.55 lineto
closepath stroke
grestore
% 39
gsave
1 setlinewidth
0 0 0 nodecolor
297 504 27 18 ellipse_path stroke
0 0 0 nodecolor
14 /Times-Roman set_font
289.5 500.3 moveto 15 (39) alignedtext
grestore
% 39->7
gsave
1 setlinewidth
0 0 0 edgecolor
newpath 322.05 496.62 moveto
331.44 493.74 342.36 490.39 352.5 487.28 curveto
stroke
0 0 0 edgecolor
newpath 353.75 490.55 moveto
362.29 484.28 lineto
351.7 483.86 lineto
closepath fill
1 setlinewidth
solid
0 0 0 edgecolor
newpath 353.75 490.55 moveto
362.29 484.28 lineto
351.7 483.86 lineto
closepath stroke
grestore
% 41
gsave
1 setlinewidth
0 0 0 nodecolor
297 396 27 18 ellipse_path stroke
0 0 0 nodecolor
14 /Times-Roman set_font
289 392.3 moveto 16 (41) alignedtext
grestore
% 41->21
gsave
1 setlinewidth
0 0 0 edgecolor
newpath 313.27 381.45 moveto
316.98 377.57 320.8 373.27 324 369 curveto
343.65 342.82 361.74 309.84 373.24 287.26 curveto
stroke
0 0 0 edgecolor
newpath 376.4 288.77 moveto
377.75 278.26 lineto
370.14 285.63 lineto
closepath fill
1 setlinewidth
solid
0 0 0 edgecolor
newpath 376.4 288.77 moveto
377.75 278.26 lineto
370.14 285.63 lineto
closepath stroke
grestore
% 43
gsave
1 setlinewidth
0 0 0 nodecolor
207 1422 27 18 ellipse_path stroke
0 0 0 nodecolor
14 /Times-Roman set_font
199 1418.3 moveto 16 (43) alignedtext
grestore
% 43->11
gsave
1 setlinewidth
0 0 0 edgecolor
newpath 227.53 1410.02 moveto
239.38 1402.74 254.7 1393.34 267.84 1385.28 curveto
stroke
0 0 0 edgecolor
newpath 269.83 1388.16 moveto
276.52 1379.95 lineto
266.17 1382.2 lineto
closepath fill
1 setlinewidth
solid
0 0 0 edgecolor
newpath 269.83 1388.16 moveto
276.52 1379.95 lineto
266.17 1382.2 lineto
closepath stroke
grestore
% 45
gsave
1 setlinewidth
0 0 0 nodecolor
207 558 27 18 ellipse_path stroke
0 0 0 nodecolor
14 /Times-Roman set_font
199 554.3 moveto 16 (45) alignedtext
grestore
% 45->39
gsave
1 setlinewidth
0 0 0 edgecolor
newpath 227.53 546.02 moveto
239.38 538.74 254.7 529.34 267.84 521.28 curveto
stroke
0 0 0 edgecolor
newpath 269.83 524.16 moveto
276.52 515.95 lineto
266.17 518.2 lineto
closepath fill
1 setlinewidth
solid
0 0 0 edgecolor
newpath 269.83 524.16 moveto
276.52 515.95 lineto
266.17 518.2 lineto
closepath stroke
grestore
% 47
gsave
1 setlinewidth
0 0 0 nodecolor
297 990 27 18 ellipse_path stroke
0 0 0 nodecolor
14 /Times-Roman set_font
289 986.3 moveto 16 (47) alignedtext
grestore
% 47->3
gsave
1 setlinewidth
0 0 0 edgecolor
newpath 322.05 982.62 moveto
331.44 979.74 342.36 976.39 352.5 973.28 curveto
stroke
0 0 0 edgecolor
newpath 353.75 976.55 moveto
362.29 970.28 lineto
351.7 969.86 lineto
closepath fill
1 setlinewidth
solid
0 0 0 edgecolor
newpath 353.75 976.55 moveto
362.29 970.28 lineto
351.7 969.86 lineto
closepath stroke
grestore
% 49
gsave
0.10588 1 1 nodecolor
117 1638 27 18 ellipse_path fill
1 setlinewidth
filled
0.10588 1 1 nodecolor
117 1638 27 18 ellipse_path stroke
0 0 0 nodecolor
14 /Times-Roman set_font
109 1634.3 moveto 16 (49) alignedtext
grestore
% 57
gsave
1 setlinewidth
0 0 0 nodecolor
207 1584 27 18 ellipse_path stroke
0 0 0 nodecolor
14 /Times-Roman set_font
199.5 1580.3 moveto 15 (57) alignedtext
grestore
% 49->57
gsave
3 setlinewidth
0.10588 1 1 edgecolor
newpath 137.53 1626.02 moveto
149.38 1618.74 164.7 1609.34 177.84 1601.28 curveto
stroke
0.10588 1 1 edgecolor
newpath 179.83 1604.16 moveto
186.52 1595.95 lineto
176.17 1598.2 lineto
closepath fill
3 setlinewidth
solid
0.10588 1 1 edgecolor
newpath 179.83 1604.16 moveto
186.52 1595.95 lineto
176.17 1598.2 lineto
closepath stroke
grestore
% 57->5
gsave
1 setlinewidth
0 0 0 edgecolor
newpath 232.05 1576.62 moveto
241.44 1573.74 252.36 1570.39 262.5 1567.28 curveto
stroke
0 0 0 edgecolor
newpath 263.75 1570.55 moveto
272.29 1564.28 lineto
261.7 1563.86 lineto
closepath fill
1 setlinewidth
solid
0 0 0 edgecolor
newpath 263.75 1570.55 moveto
272.29 1564.28 lineto
261.7 1563.86 lineto
closepath stroke
grestore
% 51
gsave
1 setlinewidth
0 0 0 nodecolor
117 828 27 18 ellipse_path stroke
0 0 0 nodecolor
14 /Times-Roman set_font
109.5 824.3 moveto 15 (51) alignedtext
grestore
% 51->9
gsave
1 setlinewidth
0 0 0 edgecolor
newpath 132.89 813.14 moveto
136.6 809.27 140.52 805.05 144 801 curveto
159.68 782.75 176.18 761.07 188.21 744.72 curveto
stroke
0 0 0 edgecolor
newpath 191.33 746.39 moveto
194.4 736.25 lineto
185.67 742.26 lineto
closepath fill
1 setlinewidth
solid
0 0 0 edgecolor
newpath 191.33 746.39 moveto
194.4 736.25 lineto
185.67 742.26 lineto
closepath stroke
grestore
% 53
gsave
1 setlinewidth
0 0 0 nodecolor
117 1854 27 18 ellipse_path stroke
0 0 0 nodecolor
14 /Times-Roman set_font
109.5 1850.3 moveto 15 (53) alignedtext
grestore
% 53->27
gsave
1 setlinewidth
0 0 0 edgecolor
newpath 132.89 1839.14 moveto
136.6 1835.27 140.52 1831.05 144 1827 curveto
159.68 1808.75 176.18 1787.07 188.21 1770.72 curveto
stroke
0 0 0 edgecolor
newpath 191.33 1772.39 moveto
194.4 1762.25 lineto
185.67 1768.26 lineto
closepath fill
1 setlinewidth
solid
0 0 0 edgecolor
newpath 191.33 1772.39 moveto
194.4 1762.25 lineto
185.67 1768.26 lineto
closepath stroke
grestore
% 55
gsave
1 setlinewidth
0 0 0 nodecolor
117 774 27 18 ellipse_path stroke
0 0 0 nodecolor
14 /Times-Roman set_font
109 770.3 moveto 16 (55) alignedtext
grestore
% 55->9
gsave
1 setlinewidth
0 0 0 edgecolor
newpath 137.53 762.02 moveto
149.38 754.74 164.7 745.34 177.84 737.28 curveto
stroke
0 0 0 edgecolor
newpath 179.83 740.16 moveto
186.52 731.95 lineto
176.17 734.2 lineto
closepath fill
1 setlinewidth
solid
0 0 0 edgecolor
newpath 179.83 740.16 moveto
186.52 731.95 lineto
176.17 734.2 lineto
closepath stroke
grestore
% 59
gsave
1 setlinewidth
0 0 0 nodecolor
207 1260 27 18 ellipse_path stroke
0 0 0 nodecolor
14 /Times-Roman set_font
199 1256.3 moveto 16 (59) alignedtext
grestore
% 59->15
gsave
1 setlinewidth
0 0 0 edgecolor
newpath 227.53 1248.02 moveto
239.38 1240.74 254.7 1231.34 267.84 1223.28 curveto
stroke
0 0 0 edgecolor
newpath 269.83 1226.16 moveto
276.52 1217.95 lineto
266.17 1220.2 lineto
closepath fill
1 setlinewidth
solid
0 0 0 edgecolor
newpath 269.83 1226.16 moveto
276.52 1217.95 lineto
266.17 1220.2 lineto
closepath stroke
grestore
% 61
gsave
1 setlinewidth
0 0 0 nodecolor
297 72 27 18 ellipse_path stroke
0 0 0 nodecolor
14 /Times-Roman set_font
289.5 68.3 moveto 15 (61) alignedtext
grestore
% 61->31
gsave
1 setlinewidth
0 0 0 edgecolor
newpath 313.07 86.7 moveto
316.79 90.58 320.66 94.84 324 99 curveto
342.08 121.48 341.92 130.52 360 153 curveto
361.25 154.56 362.58 156.13 363.95 157.7 curveto
stroke
0 0 0 edgecolor
newpath 361.59 160.3 moveto
370.93 165.3 lineto
366.74 155.57 lineto
closepath fill
1 setlinewidth
solid
0 0 0 edgecolor
newpath 361.59 160.3 moveto
370.93 165.3 lineto
366.74 155.57 lineto
closepath stroke
grestore
% 63
gsave
1 setlinewidth
0 0 0 nodecolor
207 666 27 18 ellipse_path stroke
0 0 0 nodecolor
14 /Times-Roman set_font
199.5 662.3 moveto 15 (63) alignedtext
grestore
% 63->13
gsave
1 setlinewidth
0 0 0 edgecolor
newpath 227.53 654.02 moveto
239.38 646.74 254.7 637.34 267.84 629.28 curveto
stroke
0 0 0 edgecolor
newpath 269.83 632.16 moveto
276.52 623.95 lineto
266.17 626.2 lineto
closepath fill
1 setlinewidth
solid
0 0 0 edgecolor
newpath 269.83 632.16 moveto
276.52 623.95 lineto
266.17 626.2 lineto
closepath stroke
grestore
% 65
gsave
1 setlinewidth
0 0 0 nodecolor
297 342 27 18 ellipse_path stroke
0 0 0 nodecolor
14 /Times-Roman set_font
289 338.3 moveto 16 (65) alignedtext
grestore
% 65->21
gsave
1 setlinewidth
0 0 0 edgecolor
newpath 313.73 327.52 moveto
327.37 314.96 347.3 296.62 362.77 282.38 curveto
stroke
0 0 0 edgecolor
newpath 365.42 284.7 moveto
370.4 275.36 lineto
360.68 279.55 lineto
closepath fill
1 setlinewidth
solid
0 0 0 edgecolor
newpath 365.42 284.7 moveto
370.4 275.36 lineto
360.68 279.55 lineto
closepath stroke
grestore
% 67
gsave
1 setlinewidth
0 0 0 nodecolor
27 882 27 18 ellipse_path stroke
0 0 0 nodecolor
14 /Times-Roman set_font
19.5 878.3 moveto 15 (67) alignedtext
grestore
% 67->17
gsave
1 setlinewidth
0 0 0 edgecolor
newpath 54.4 882 moveto
62.39 882 71.31 882 79.82 882 curveto
stroke
0 0 0 edgecolor
newpath 79.92 885.5 moveto
89.92 882 lineto
79.92 878.5 lineto
closepath fill
1 setlinewidth
solid
0 0 0 edgecolor
newpath 79.92 885.5 moveto
89.92 882 lineto
79.92 878.5 lineto
closepath stroke
grestore
% 69
gsave
1 setlinewidth
0 0 0 nodecolor
297 936 27 18 ellipse_path stroke
0 0 0 nodecolor
14 /Times-Roman set_font
289 932.3 moveto 16 (69) alignedtext
grestore
% 69->3
gsave
1 setlinewidth
0 0 0 edgecolor
newpath 322.05 943.38 moveto
331.44 946.26 342.36 949.61 352.5 952.72 curveto
stroke
0 0 0 edgecolor
newpath 351.7 956.14 moveto
362.29 955.72 lineto
353.75 949.45 lineto
closepath fill
1 setlinewidth
solid
0 0 0 edgecolor
newpath 351.7 956.14 moveto
362.29 955.72 lineto
353.75 949.45 lineto
closepath stroke
grestore
% 71
gsave
1 setlinewidth
0 0 0 nodecolor
117 720 27 18 ellipse_path stroke
0 0 0 nodecolor
14 /Times-Roman set_font
110 716.3 moveto 14 (71) alignedtext
grestore
% 71->9
gsave
1 setlinewidth
0 0 0 edgecolor
newpath 144.4 720 moveto
152.39 720 161.31 720 169.82 720 curveto
stroke
0 0 0 edgecolor
newpath 169.92 723.5 moveto
179.92 720 lineto
169.92 716.5 lineto
closepath fill
1 setlinewidth
solid
0 0 0 edgecolor
newpath 169.92 723.5 moveto
179.92 720 lineto
169.92 716.5 lineto
closepath stroke
grestore
% 73
gsave
1 setlinewidth
0 0 0 nodecolor
27 2016 27 18 ellipse_path stroke
0 0 0 nodecolor
14 /Times-Roman set_font
20 2012.3 moveto 14 (73) alignedtext
grestore
% 73->37
gsave
1 setlinewidth
0 0 0 edgecolor
newpath 54.4 2016 moveto
62.39 2016 71.31 2016 79.82 2016 curveto
stroke
0 0 0 edgecolor
newpath 79.92 2019.5 moveto
89.92 2016 lineto
79.92 2012.5 lineto
closepath fill
1 setlinewidth
solid
0 0 0 edgecolor
newpath 79.92 2019.5 moveto
89.92 2016 lineto
79.92 2012.5 lineto
closepath stroke
grestore
% 75
gsave
1 setlinewidth
0 0 0 nodecolor
297 18 27 18 ellipse_path stroke
0 0 0 nodecolor
14 /Times-Roman set_font
289.5 14.3 moveto 15 (75) alignedtext
grestore
% 75->31
gsave
1 setlinewidth
0 0 0 edgecolor
newpath 313.88 32.14 moveto
317.58 36.02 321.24 40.43 324 45 curveto
350.19 88.29 333.81 109.71 360 153 curveto
361.04 154.71 362.2 156.4 363.44 158.05 curveto
stroke
0 0 0 edgecolor
newpath 360.96 160.54 moveto
370.12 165.86 lineto
366.28 155.99 lineto
closepath fill
1 setlinewidth
solid
0 0 0 edgecolor
newpath 360.96 160.54 moveto
370.12 165.86 lineto
366.28 155.99 lineto
closepath stroke
grestore
% 77
gsave
1 setlinewidth
0 0 0 nodecolor
297 882 27 18 ellipse_path stroke
0 0 0 nodecolor
14 /Times-Roman set_font
290 878.3 moveto 14 (77) alignedtext
grestore
% 77->3
gsave
1 setlinewidth
0 0 0 edgecolor
newpath 313.73 896.48 moveto
327.37 909.04 347.3 927.38 362.77 941.62 curveto
stroke
0 0 0 edgecolor
newpath 360.68 944.45 moveto
370.4 948.64 lineto
365.42 939.3 lineto
closepath fill
1 setlinewidth
solid
0 0 0 edgecolor
newpath 360.68 944.45 moveto
370.4 948.64 lineto
365.42 939.3 lineto
closepath stroke
grestore
% 79
gsave
1 setlinewidth
0 0 0 nodecolor
207 1530 27 18 ellipse_path stroke
0 0 0 nodecolor
14 /Times-Roman set_font
199.5 1526.3 moveto 15 (79) alignedtext
grestore
% 79->5
gsave
1 setlinewidth
0 0 0 edgecolor
newpath 232.05 1537.38 moveto
241.44 1540.26 252.36 1543.61 262.5 1546.72 curveto
stroke
0 0 0 edgecolor
newpath 261.7 1550.14 moveto
272.29 1549.72 lineto
263.75 1543.45 lineto
closepath fill
1 setlinewidth
solid
0 0 0 edgecolor
newpath 261.7 1550.14 moveto
272.29 1549.72 lineto
263.75 1543.45 lineto
closepath stroke
grestore
% 81
gsave
0.10588 1 1 nodecolor
27 1422 27 18 ellipse_path fill
1 setlinewidth
filled
0.10588 1 1 nodecolor
27 1422 27 18 ellipse_path stroke
0 0 0 nodecolor
14 /Times-Roman set_font
20 1418.3 moveto 14 (81) alignedtext
grestore
% 121
gsave
0.10588 1 1 nodecolor
117 1422 27 18 ellipse_path fill
1 setlinewidth
filled
0.10588 1 1 nodecolor
117 1422 27 18 ellipse_path stroke
0 0 0 nodecolor
14 /Times-Roman set_font
106.5 1418.3 moveto 21 (121) alignedtext
grestore
% 81->121
gsave
3 setlinewidth
0.10588 1 1 edgecolor
newpath 54.4 1422 moveto
62.39 1422 71.31 1422 79.82 1422 curveto
stroke
0.10588 1 1 edgecolor
newpath 79.92 1425.5 moveto
89.92 1422 lineto
79.92 1418.5 lineto
closepath fill
3 setlinewidth
solid
0.10588 1 1 edgecolor
newpath 79.92 1425.5 moveto
89.92 1422 lineto
79.92 1418.5 lineto
closepath stroke
grestore
% 133
gsave
1 setlinewidth
0 0 0 nodecolor
207 1476 27 18 ellipse_path stroke
0 0 0 nodecolor
14 /Times-Roman set_font
196.5 1472.3 moveto 21 (133) alignedtext
grestore
% 121->133
gsave
3 setlinewidth
0.10588 1 1 edgecolor
newpath 137.53 1433.98 moveto
149.38 1441.26 164.7 1450.66 177.84 1458.72 curveto
stroke
0.10588 1 1 edgecolor
newpath 176.17 1461.8 moveto
186.52 1464.05 lineto
179.83 1455.84 lineto
closepath fill
3 setlinewidth
solid
0.10588 1 1 edgecolor
newpath 176.17 1461.8 moveto
186.52 1464.05 lineto
179.83 1455.84 lineto
closepath stroke
grestore
% 83
gsave
1 setlinewidth
0 0 0 nodecolor
297 288 27 18 ellipse_path stroke
0 0 0 nodecolor
14 /Times-Roman set_font
290 284.3 moveto 14 (83) alignedtext
grestore
% 83->21
gsave
1 setlinewidth
0 0 0 edgecolor
newpath 322.05 280.62 moveto
331.44 277.74 342.36 274.39 352.5 271.28 curveto
stroke
0 0 0 edgecolor
newpath 353.75 274.55 moveto
362.29 268.28 lineto
351.7 267.86 lineto
closepath fill
1 setlinewidth
solid
0 0 0 edgecolor
newpath 353.75 274.55 moveto
362.29 268.28 lineto
351.7 267.86 lineto
closepath stroke
grestore
% 85
gsave
1 setlinewidth
0 0 0 nodecolor
117 1800 27 18 ellipse_path stroke
0 0 0 nodecolor
14 /Times-Roman set_font
109.5 1796.3 moveto 15 (85) alignedtext
grestore
% 85->27
gsave
1 setlinewidth
0 0 0 edgecolor
newpath 137.53 1788.02 moveto
149.38 1780.74 164.7 1771.34 177.84 1763.28 curveto
stroke
0 0 0 edgecolor
newpath 179.83 1766.16 moveto
186.52 1757.95 lineto
176.17 1760.2 lineto
closepath fill
1 setlinewidth
solid
0 0 0 edgecolor
newpath 179.83 1766.16 moveto
186.52 1757.95 lineto
176.17 1760.2 lineto
closepath stroke
grestore
% 87
gsave
1 setlinewidth
0 0 0 nodecolor
207 1206 27 18 ellipse_path stroke
0 0 0 nodecolor
14 /Times-Roman set_font
200 1202.3 moveto 14 (87) alignedtext
grestore
% 87->15
gsave
1 setlinewidth
0 0 0 edgecolor
newpath 234.4 1206 moveto
242.39 1206 251.31 1206 259.82 1206 curveto
stroke
0 0 0 edgecolor
newpath 259.92 1209.5 moveto
269.92 1206 lineto
259.92 1202.5 lineto
closepath fill
1 setlinewidth
solid
0 0 0 edgecolor
newpath 259.92 1209.5 moveto
269.92 1206 lineto
259.92 1202.5 lineto
closepath stroke
grestore
% 89
gsave
1 setlinewidth
0 0 0 nodecolor
117 558 27 18 ellipse_path stroke
0 0 0 nodecolor
14 /Times-Roman set_font
109.5 554.3 moveto 15 (89) alignedtext
grestore
% 89->45
gsave
1 setlinewidth
0 0 0 edgecolor
newpath 144.4 558 moveto
152.39 558 161.31 558 169.82 558 curveto
stroke
0 0 0 edgecolor
newpath 169.92 561.5 moveto
179.92 558 lineto
169.92 554.5 lineto
closepath fill
1 setlinewidth
solid
0 0 0 edgecolor
newpath 169.92 561.5 moveto
179.92 558 lineto
169.92 554.5 lineto
closepath stroke
grestore
% 91
gsave
1 setlinewidth
0 0 0 nodecolor
297 450 27 18 ellipse_path stroke
0 0 0 nodecolor
14 /Times-Roman set_font
289.5 446.3 moveto 15 (91) alignedtext
grestore
% 91->7
gsave
1 setlinewidth
0 0 0 edgecolor
newpath 322.05 457.38 moveto
331.44 460.26 342.36 463.61 352.5 466.72 curveto
stroke
0 0 0 edgecolor
newpath 351.7 470.14 moveto
362.29 469.72 lineto
353.75 463.45 lineto
closepath fill
1 setlinewidth
solid
0 0 0 edgecolor
newpath 351.7 470.14 moveto
362.29 469.72 lineto
353.75 463.45 lineto
closepath stroke
grestore
% 93
gsave
1 setlinewidth
0 0 0 nodecolor
387 126 27 18 ellipse_path stroke
0 0 0 nodecolor
14 /Times-Roman set_font
379.5 122.3 moveto 15 (93) alignedtext
grestore
% 93->1
gsave
1 setlinewidth
0 0 0 edgecolor
newpath 402.63 141.09 moveto
406.35 144.95 410.34 149.12 414 153 curveto
427.78 167.6 443.11 184.16 455.08 197.17 curveto
stroke
0 0 0 edgecolor
newpath 452.71 199.76 moveto
462.05 204.75 lineto
457.86 195.02 lineto
closepath fill
1 setlinewidth
solid
0 0 0 edgecolor
newpath 452.71 199.76 moveto
462.05 204.75 lineto
457.86 195.02 lineto
closepath stroke
grestore
% 95
gsave
1 setlinewidth
0 0 0 nodecolor
207 1152 27 18 ellipse_path stroke
0 0 0 nodecolor
14 /Times-Roman set_font
199 1148.3 moveto 16 (95) alignedtext
grestore
% 95->15
gsave
1 setlinewidth
0 0 0 edgecolor
newpath 227.53 1163.98 moveto
239.38 1171.26 254.7 1180.66 267.84 1188.72 curveto
stroke
0 0 0 edgecolor
newpath 266.17 1191.8 moveto
276.52 1194.05 lineto
269.83 1185.84 lineto
closepath fill
1 setlinewidth
solid
0 0 0 edgecolor
newpath 266.17 1191.8 moveto
276.52 1194.05 lineto
269.83 1185.84 lineto
closepath stroke
grestore
% 97
gsave
1 setlinewidth
0 0 0 nodecolor
27 1638 27 18 ellipse_path stroke
0 0 0 nodecolor
14 /Times-Roman set_font
19.5 1634.3 moveto 15 (97) alignedtext
grestore
% 97->49
gsave
1 setlinewidth
0 0 0 edgecolor
newpath 54.4 1638 moveto
62.39 1638 71.31 1638 79.82 1638 curveto
stroke
0 0 0 edgecolor
newpath 79.92 1641.5 moveto
89.92 1638 lineto
79.92 1634.5 lineto
closepath fill
1 setlinewidth
solid
0 0 0 edgecolor
newpath 79.92 1641.5 moveto
89.92 1638 lineto
79.92 1634.5 lineto
closepath stroke
grestore
% 99
gsave
1 setlinewidth
0 0 0 nodecolor
207 504 27 18 ellipse_path stroke
0 0 0 nodecolor
14 /Times-Roman set_font
199 500.3 moveto 16 (99) alignedtext
grestore
% 99->39
gsave
1 setlinewidth
0 0 0 edgecolor
newpath 234.4 504 moveto
242.39 504 251.31 504 259.82 504 curveto
stroke
0 0 0 edgecolor
newpath 259.92 507.5 moveto
269.92 504 lineto
259.92 500.5 lineto
closepath fill
1 setlinewidth
solid
0 0 0 edgecolor
newpath 259.92 507.5 moveto
269.92 504 lineto
259.92 500.5 lineto
closepath stroke
grestore
% 101
gsave
1 setlinewidth
0 0 0 nodecolor
27 828 27 18 ellipse_path stroke
0 0 0 nodecolor
14 /Times-Roman set_font
16 824.3 moveto 22 (101) alignedtext
grestore
% 101->51
gsave
1 setlinewidth
0 0 0 edgecolor
newpath 54.4 828 moveto
62.39 828 71.31 828 79.82 828 curveto
stroke
0 0 0 edgecolor
newpath 79.92 831.5 moveto
89.92 828 lineto
79.92 824.5 lineto
closepath fill
1 setlinewidth
solid
0 0 0 edgecolor
newpath 79.92 831.5 moveto
89.92 828 lineto
79.92 824.5 lineto
closepath stroke
grestore
% 103
gsave
1 setlinewidth
0 0 0 nodecolor
207 612 27 18 ellipse_path stroke
0 0 0 nodecolor
14 /Times-Roman set_font
196 608.3 moveto 22 (103) alignedtext
grestore
% 103->13
gsave
1 setlinewidth
0 0 0 edgecolor
newpath 234.4 612 moveto
242.39 612 251.31 612 259.82 612 curveto
stroke
0 0 0 edgecolor
newpath 259.92 615.5 moveto
269.92 612 lineto
259.92 608.5 lineto
closepath fill
1 setlinewidth
solid
0 0 0 edgecolor
newpath 259.92 615.5 moveto
269.92 612 lineto
259.92 608.5 lineto
closepath stroke
grestore
% 105
gsave
1 setlinewidth
0 0 0 nodecolor
297 828 27 18 ellipse_path stroke
0 0 0 nodecolor
14 /Times-Roman set_font
286 824.3 moveto 22 (105) alignedtext
grestore
% 105->3
gsave
1 setlinewidth
0 0 0 edgecolor
newpath 313.27 842.55 moveto
316.98 846.43 320.8 850.73 324 855 curveto
343.65 881.18 361.74 914.16 373.24 936.74 curveto
stroke
0 0 0 edgecolor
newpath 370.14 938.37 moveto
377.75 945.74 lineto
376.4 935.23 lineto
closepath fill
1 setlinewidth
solid
0 0 0 edgecolor
newpath 370.14 938.37 moveto
377.75 945.74 lineto
376.4 935.23 lineto
closepath stroke
grestore
% 107
gsave
1 setlinewidth
0 0 0 nodecolor
117 1746 27 18 ellipse_path stroke
0 0 0 nodecolor
14 /Times-Roman set_font
106 1742.3 moveto 22 (107) alignedtext
grestore
% 107->27
gsave
1 setlinewidth
0 0 0 edgecolor
newpath 144.4 1746 moveto
152.39 1746 161.31 1746 169.82 1746 curveto
stroke
0 0 0 edgecolor
newpath 169.92 1749.5 moveto
179.92 1746 lineto
169.92 1742.5 lineto
closepath fill
1 setlinewidth
solid
0 0 0 edgecolor
newpath 169.92 1749.5 moveto
179.92 1746 lineto
169.92 1742.5 lineto
closepath stroke
grestore
% 109
gsave
1 setlinewidth
0 0 0 nodecolor
27 774 27 18 ellipse_path stroke
0 0 0 nodecolor
14 /Times-Roman set_font
16 770.3 moveto 22 (109) alignedtext
grestore
% 109->55
gsave
1 setlinewidth
0 0 0 edgecolor
newpath 54.4 774 moveto
62.39 774 71.31 774 79.82 774 curveto
stroke
0 0 0 edgecolor
newpath 79.92 777.5 moveto
89.92 774 lineto
79.92 770.5 lineto
closepath fill
1 setlinewidth
solid
0 0 0 edgecolor
newpath 79.92 777.5 moveto
89.92 774 lineto
79.92 770.5 lineto
closepath stroke
grestore
% 111
gsave
1 setlinewidth
0 0 0 nodecolor
117 1962 27 18 ellipse_path stroke
0 0 0 nodecolor
14 /Times-Roman set_font
106.5 1958.3 moveto 21 (111) alignedtext
grestore
% 111->19
gsave
1 setlinewidth
0 0 0 edgecolor
newpath 142.05 1954.62 moveto
151.44 1951.74 162.36 1948.39 172.5 1945.28 curveto
stroke
0 0 0 edgecolor
newpath 173.75 1948.55 moveto
182.29 1942.28 lineto
171.7 1941.86 lineto
closepath fill
1 setlinewidth
solid
0 0 0 edgecolor
newpath 173.75 1948.55 moveto
182.29 1942.28 lineto
171.7 1941.86 lineto
closepath stroke
grestore
% 113
gsave
1 setlinewidth
0 0 0 nodecolor
117 1584 27 18 ellipse_path stroke
0 0 0 nodecolor
14 /Times-Roman set_font
106.5 1580.3 moveto 21 (113) alignedtext
grestore
% 113->57
gsave
1 setlinewidth
0 0 0 edgecolor
newpath 144.4 1584 moveto
152.39 1584 161.31 1584 169.82 1584 curveto
stroke
0 0 0 edgecolor
newpath 169.92 1587.5 moveto
179.92 1584 lineto
169.92 1580.5 lineto
closepath fill
1 setlinewidth
solid
0 0 0 edgecolor
newpath 169.92 1587.5 moveto
179.92 1584 lineto
169.92 1580.5 lineto
closepath stroke
grestore
% 115
gsave
1 setlinewidth
0 0 0 nodecolor
117 666 27 18 ellipse_path stroke
0 0 0 nodecolor
14 /Times-Roman set_font
106 662.3 moveto 22 (115) alignedtext
grestore
% 115->9
gsave
1 setlinewidth
0 0 0 edgecolor
newpath 137.53 677.98 moveto
149.38 685.26 164.7 694.66 177.84 702.72 curveto
stroke
0 0 0 edgecolor
newpath 176.17 705.8 moveto
186.52 708.05 lineto
179.83 699.84 lineto
closepath fill
1 setlinewidth
solid
0 0 0 edgecolor
newpath 176.17 705.8 moveto
186.52 708.05 lineto
179.83 699.84 lineto
closepath stroke
grestore
% 117
gsave
1 setlinewidth
0 0 0 nodecolor
207 396 27 18 ellipse_path stroke
0 0 0 nodecolor
14 /Times-Roman set_font
196.5 392.3 moveto 21 (117) alignedtext
grestore
% 117->91
gsave
1 setlinewidth
0 0 0 edgecolor
newpath 227.53 407.98 moveto
239.38 415.26 254.7 424.66 267.84 432.72 curveto
stroke
0 0 0 edgecolor
newpath 266.17 435.8 moveto
276.52 438.05 lineto
269.83 429.84 lineto
closepath fill
1 setlinewidth
solid
0 0 0 edgecolor
newpath 266.17 435.8 moveto
276.52 438.05 lineto
269.83 429.84 lineto
closepath stroke
grestore
% 119
gsave
1 setlinewidth
0 0 0 nodecolor
117 612 27 18 ellipse_path stroke
0 0 0 nodecolor
14 /Times-Roman set_font
106 608.3 moveto 22 (119) alignedtext
grestore
% 119->9
gsave
1 setlinewidth
0 0 0 edgecolor
newpath 133.07 626.7 moveto
136.79 630.58 140.66 634.84 144 639 curveto
162.08 661.48 161.92 670.52 180 693 curveto
181.25 694.56 182.58 696.13 183.95 697.7 curveto
stroke
0 0 0 edgecolor
newpath 181.59 700.3 moveto
190.93 705.3 lineto
186.74 695.57 lineto
closepath fill
1 setlinewidth
solid
0 0 0 edgecolor
newpath 181.59 700.3 moveto
190.93 705.3 lineto
186.74 695.57 lineto
closepath stroke
grestore
% 133->5
gsave
1 setlinewidth
0 0 0 edgecolor
newpath 223.73 1490.48 moveto
237.37 1503.04 257.3 1521.38 272.77 1535.62 curveto
stroke
0 0 0 edgecolor
newpath 270.68 1538.45 moveto
280.4 1542.64 lineto
275.42 1533.3 lineto
closepath fill
1 setlinewidth
solid
0 0 0 edgecolor
newpath 270.68 1538.45 moveto
280.4 1542.64 lineto
275.42 1533.3 lineto
closepath stroke
grestore
% 123
gsave
1 setlinewidth
0 0 0 nodecolor
297 234 27 18 ellipse_path stroke
0 0 0 nodecolor
14 /Times-Roman set_font
286.5 230.3 moveto 21 (123) alignedtext
grestore
% 123->21
gsave
1 setlinewidth
0 0 0 edgecolor
newpath 322.05 241.38 moveto
331.44 244.26 342.36 247.61 352.5 250.72 curveto
stroke
0 0 0 edgecolor
newpath 351.7 254.14 moveto
362.29 253.72 lineto
353.75 247.45 lineto
closepath fill
1 setlinewidth
solid
0 0 0 edgecolor
newpath 351.7 254.14 moveto
362.29 253.72 lineto
353.75 247.45 lineto
closepath stroke
grestore
% 125
gsave
1 setlinewidth
0 0 0 nodecolor
207 450 27 18 ellipse_path stroke
0 0 0 nodecolor
14 /Times-Roman set_font
196 446.3 moveto 22 (125) alignedtext
grestore
% 125->39
gsave
1 setlinewidth
0 0 0 edgecolor
newpath 227.53 461.98 moveto
239.38 469.26 254.7 478.66 267.84 486.72 curveto
stroke
0 0 0 edgecolor
newpath 266.17 489.8 moveto
276.52 492.05 lineto
269.83 483.84 lineto
closepath fill
1 setlinewidth
solid
0 0 0 edgecolor
newpath 266.17 489.8 moveto
276.52 492.05 lineto
269.83 483.84 lineto
closepath stroke
grestore
% 127
gsave
1 setlinewidth
0 0 0 nodecolor
387 72 27 18 ellipse_path stroke
0 0 0 nodecolor
14 /Times-Roman set_font
376.5 68.3 moveto 21 (127) alignedtext
grestore
% 127->1
gsave
1 setlinewidth
0 0 0 edgecolor
newpath 403.41 86.45 moveto
407.12 90.33 410.9 94.66 414 99 curveto
435.55 129.19 454.01 167.91 465.05 193.31 curveto
stroke
0 0 0 edgecolor
newpath 461.9 194.85 moveto
469.04 202.67 lineto
468.33 192.1 lineto
closepath fill
1 setlinewidth
solid
0 0 0 edgecolor
newpath 461.9 194.85 moveto
469.04 202.67 lineto
468.33 192.1 lineto
closepath stroke
grestore
% 129
gsave
1 setlinewidth
0 0 0 nodecolor
207 1368 27 18 ellipse_path stroke
0 0 0 nodecolor
14 /Times-Roman set_font
196 1364.3 moveto 22 (129) alignedtext
grestore
% 129->11
gsave
1 setlinewidth
0 0 0 edgecolor
newpath 234.4 1368 moveto
242.39 1368 251.31 1368 259.82 1368 curveto
stroke
0 0 0 edgecolor
newpath 259.92 1371.5 moveto
269.92 1368 lineto
259.92 1364.5 lineto
closepath fill
1 setlinewidth
solid
0 0 0 edgecolor
newpath 259.92 1371.5 moveto
269.92 1368 lineto
259.92 1364.5 lineto
closepath stroke
grestore
% 131
gsave
1 setlinewidth
0 0 0 nodecolor
207 1044 27 18 ellipse_path stroke
0 0 0 nodecolor
14 /Times-Roman set_font
196.5 1040.3 moveto 21 (131) alignedtext
grestore
% 131->33
gsave
1 setlinewidth
0 0 0 edgecolor
newpath 227.53 1055.98 moveto
239.38 1063.26 254.7 1072.66 267.84 1080.72 curveto
stroke
0 0 0 edgecolor
newpath 266.17 1083.8 moveto
276.52 1086.05 lineto
269.83 1077.84 lineto
closepath fill
1 setlinewidth
solid
0 0 0 edgecolor
newpath 266.17 1083.8 moveto
276.52 1086.05 lineto
269.83 1077.84 lineto
closepath stroke
grestore
% 135
gsave
1 setlinewidth
0 0 0 nodecolor
207 1098 27 18 ellipse_path stroke
0 0 0 nodecolor
14 /Times-Roman set_font
196 1094.3 moveto 22 (135) alignedtext
grestore
% 135->15
gsave
1 setlinewidth
0 0 0 edgecolor
newpath 223.07 1112.7 moveto
226.79 1116.58 230.66 1120.84 234 1125 curveto
252.08 1147.48 251.92 1156.52 270 1179 curveto
271.25 1180.56 272.58 1182.13 273.95 1183.7 curveto
stroke
0 0 0 edgecolor
newpath 271.59 1186.3 moveto
280.93 1191.3 lineto
276.74 1181.57 lineto
closepath fill
1 setlinewidth
solid
0 0 0 edgecolor
newpath 271.59 1186.3 moveto
280.93 1191.3 lineto
276.74 1181.57 lineto
closepath stroke
grestore
% 137
gsave
1 setlinewidth
0 0 0 nodecolor
207 936 27 18 ellipse_path stroke
0 0 0 nodecolor
14 /Times-Roman set_font
196.5 932.3 moveto 21 (137) alignedtext
grestore
% 137->69
gsave
1 setlinewidth
0 0 0 edgecolor
newpath 234.4 936 moveto
242.39 936 251.31 936 259.82 936 curveto
stroke
0 0 0 edgecolor
newpath 259.92 939.5 moveto
269.92 936 lineto
259.92 932.5 lineto
closepath fill
1 setlinewidth
solid
0 0 0 edgecolor
newpath 259.92 939.5 moveto
269.92 936 lineto
259.92 932.5 lineto
closepath stroke
grestore
% 139
gsave
1 setlinewidth
0 0 0 nodecolor
207 990 27 18 ellipse_path stroke
0 0 0 nodecolor
14 /Times-Roman set_font
196 986.3 moveto 22 (139) alignedtext
grestore
% 139->35
gsave
1 setlinewidth
0 0 0 edgecolor
newpath 227.53 1001.98 moveto
239.38 1009.26 254.7 1018.66 267.84 1026.72 curveto
stroke
0 0 0 edgecolor
newpath 266.17 1029.8 moveto
276.52 1032.05 lineto
269.83 1023.84 lineto
closepath fill
1 setlinewidth
solid
0 0 0 edgecolor
newpath 266.17 1029.8 moveto
276.52 1032.05 lineto
269.83 1023.84 lineto
closepath stroke
grestore
% 141
gsave
1 setlinewidth
0 0 0 nodecolor
297 774 27 18 ellipse_path stroke
0 0 0 nodecolor
14 /Times-Roman set_font
286 770.3 moveto 22 (141) alignedtext
grestore
% 141->3
gsave
1 setlinewidth
0 0 0 edgecolor
newpath 313.74 788.22 moveto
317.44 792.11 321.14 796.5 324 801 curveto
351.4 844.12 369.71 901.23 378.95 934.85 curveto
stroke
0 0 0 edgecolor
newpath 375.67 936.14 moveto
381.63 944.9 lineto
382.43 934.33 lineto
closepath fill
1 setlinewidth
solid
0 0 0 edgecolor
newpath 375.67 936.14 moveto
381.63 944.9 lineto
382.43 934.33 lineto
closepath stroke
grestore
% 143
gsave
1 setlinewidth
0 0 0 nodecolor
297 180 27 18 ellipse_path stroke
0 0 0 nodecolor
14 /Times-Roman set_font
286 176.3 moveto 22 (143) alignedtext
grestore
% 143->21
gsave
1 setlinewidth
0 0 0 edgecolor
newpath 313.73 194.48 moveto
327.37 207.04 347.3 225.38 362.77 239.62 curveto
stroke
0 0 0 edgecolor
newpath 360.68 242.45 moveto
370.4 246.64 lineto
365.42 237.3 lineto
closepath fill
1 setlinewidth
solid
0 0 0 edgecolor
newpath 360.68 242.45 moveto
370.4 246.64 lineto
365.42 237.3 lineto
closepath stroke
grestore
% 145
gsave
1 setlinewidth
0 0 0 nodecolor
117 504 27 18 ellipse_path stroke
0 0 0 nodecolor
14 /Times-Roman set_font
105.5 500.3 moveto 23 (145) alignedtext
grestore
% 145->45
gsave
1 setlinewidth
0 0 0 edgecolor
newpath 137.53 515.98 moveto
149.38 523.26 164.7 532.66 177.84 540.72 curveto
stroke
0 0 0 edgecolor
newpath 176.17 543.8 moveto
186.52 546.05 lineto
179.83 537.84 lineto
closepath fill
1 setlinewidth
solid
0 0 0 edgecolor
newpath 176.17 543.8 moveto
186.52 546.05 lineto
179.83 537.84 lineto
closepath stroke
grestore
% 147
gsave
1 setlinewidth
0 0 0 nodecolor
117 1530 27 18 ellipse_path stroke
0 0 0 nodecolor
14 /Times-Roman set_font
106 1526.3 moveto 22 (147) alignedtext
grestore
% 147->57
gsave
1 setlinewidth
0 0 0 edgecolor
newpath 137.53 1541.98 moveto
149.38 1549.26 164.7 1558.66 177.84 1566.72 curveto
stroke
0 0 0 edgecolor
newpath 176.17 1569.8 moveto
186.52 1572.05 lineto
179.83 1563.84 lineto
closepath fill
1 setlinewidth
solid
0 0 0 edgecolor
newpath 176.17 1569.8 moveto
186.52 1572.05 lineto
179.83 1563.84 lineto
closepath stroke
grestore
% 149
gsave
1 setlinewidth
0 0 0 nodecolor
207 18 27 18 ellipse_path stroke
0 0 0 nodecolor
14 /Times-Roman set_font
195.5 14.3 moveto 23 (149) alignedtext
grestore
% 149->75
gsave
1 setlinewidth
0 0 0 edgecolor
newpath 234.4 18 moveto
242.39 18 251.31 18 259.82 18 curveto
stroke
0 0 0 edgecolor
newpath 259.92 21.5 moveto
269.92 18 lineto
259.92 14.5 lineto
closepath fill
1 setlinewidth
solid
0 0 0 edgecolor
newpath 259.92 21.5 moveto
269.92 18 lineto
259.92 14.5 lineto
closepath stroke
grestore
% 151
gsave
1 setlinewidth
0 0 0 nodecolor
117 1908 27 18 ellipse_path stroke
0 0 0 nodecolor
14 /Times-Roman set_font
106 1904.3 moveto 22 (151) alignedtext
grestore
% 151->19
gsave
1 setlinewidth
0 0 0 edgecolor
newpath 142.05 1915.38 moveto
151.44 1918.26 162.36 1921.61 172.5 1924.72 curveto
stroke
0 0 0 edgecolor
newpath 171.7 1928.14 moveto
182.29 1927.72 lineto
173.75 1921.45 lineto
closepath fill
1 setlinewidth
solid
0 0 0 edgecolor
newpath 171.7 1928.14 moveto
182.29 1927.72 lineto
173.75 1921.45 lineto
closepath stroke
grestore
% 153
gsave
1 setlinewidth
0 0 0 nodecolor
117 396 27 18 ellipse_path stroke
0 0 0 nodecolor
14 /Times-Roman set_font
106 392.3 moveto 22 (153) alignedtext
grestore
% 153->117
gsave
1 setlinewidth
0 0 0 edgecolor
newpath 144.4 396 moveto
152.39 396 161.31 396 169.82 396 curveto
stroke
0 0 0 edgecolor
newpath 169.92 399.5 moveto
179.92 396 lineto
169.92 392.5 lineto
closepath fill
1 setlinewidth
solid
0 0 0 edgecolor
newpath 169.92 399.5 moveto
179.92 396 lineto
169.92 392.5 lineto
closepath stroke
grestore
% 155
gsave
1 setlinewidth
0 0 0 nodecolor
297 720 27 18 ellipse_path stroke
0 0 0 nodecolor
14 /Times-Roman set_font
286 716.3 moveto 22 (155) alignedtext
grestore
% 155->3
gsave
1 setlinewidth
0 0 0 edgecolor
newpath 314.01 734.06 moveto
317.71 737.95 321.33 742.38 324 747 curveto
359.57 808.69 375.94 892.22 382.4 935.08 curveto
stroke
0 0 0 edgecolor
newpath 378.95 935.67 moveto
383.84 945.07 lineto
385.88 934.67 lineto
closepath fill
1 setlinewidth
solid
0 0 0 edgecolor
newpath 378.95 935.67 moveto
383.84 945.07 lineto
385.88 934.67 lineto
closepath stroke
grestore
% 157
gsave
1 setlinewidth
0 0 0 nodecolor
117 1476 27 18 ellipse_path stroke
0 0 0 nodecolor
14 /Times-Roman set_font
106 1472.3 moveto 22 (157) alignedtext
grestore
% 157->79
gsave
1 setlinewidth
0 0 0 edgecolor
newpath 137.53 1487.98 moveto
149.38 1495.26 164.7 1504.66 177.84 1512.72 curveto
stroke
0 0 0 edgecolor
newpath 176.17 1515.8 moveto
186.52 1518.05 lineto
179.83 1509.84 lineto
closepath fill
1 setlinewidth
solid
0 0 0 edgecolor
newpath 176.17 1515.8 moveto
186.52 1518.05 lineto
179.83 1509.84 lineto
closepath stroke
grestore
% 159
gsave
1 setlinewidth
0 0 0 nodecolor
117 1692 27 18 ellipse_path stroke
0 0 0 nodecolor
14 /Times-Roman set_font
106 1688.3 moveto 22 (159) alignedtext
grestore
% 159->27
gsave
1 setlinewidth
0 0 0 edgecolor
newpath 137.53 1703.98 moveto
149.38 1711.26 164.7 1720.66 177.84 1728.72 curveto
stroke
0 0 0 edgecolor
newpath 176.17 1731.8 moveto
186.52 1734.05 lineto
179.83 1725.84 lineto
closepath fill
1 setlinewidth
solid
0 0 0 edgecolor
newpath 176.17 1731.8 moveto
186.52 1734.05 lineto
179.83 1725.84 lineto
closepath stroke
grestore
% 161
gsave
1 setlinewidth
0 0 0 nodecolor
297 666 27 18 ellipse_path stroke
0 0 0 nodecolor
14 /Times-Roman set_font
286 662.3 moveto 22 (161) alignedtext
grestore
% 161->3
gsave
1 setlinewidth
0 0 0 edgecolor
newpath 314.19 679.96 moveto
317.88 683.85 321.46 688.31 324 693 curveto
367.6 773.55 380.64 883.69 384.46 934.81 curveto
stroke
0 0 0 edgecolor
newpath 380.97 935.05 moveto
385.15 944.79 lineto
387.96 934.57 lineto
closepath fill
1 setlinewidth
solid
0 0 0 edgecolor
newpath 380.97 935.05 moveto
385.15 944.79 lineto
387.96 934.57 lineto
closepath stroke
grestore
% 163
gsave
1 setlinewidth
0 0 0 nodecolor
207 342 27 18 ellipse_path stroke
0 0 0 nodecolor
14 /Times-Roman set_font
196 338.3 moveto 22 (163) alignedtext
grestore
% 163->41
gsave
1 setlinewidth
0 0 0 edgecolor
newpath 227.53 353.98 moveto
239.38 361.26 254.7 370.66 267.84 378.72 curveto
stroke
0 0 0 edgecolor
newpath 266.17 381.8 moveto
276.52 384.05 lineto
269.83 375.84 lineto
closepath fill
1 setlinewidth
solid
0 0 0 edgecolor
newpath 266.17 381.8 moveto
276.52 384.05 lineto
269.83 375.84 lineto
closepath stroke
grestore
endpage
showpage
grestore
%%PageTrailer
%%EndPage: 1
%%Trailer
end
restore
%%EOF
