%!PS-Adobe-3.0 EPSF-3.0
%%Creator: graphviz version 2.38.0 (20140413.2041)
%%Title: sigma odd
%%Pages: 1
%%BoundingBox: 36 36 548 1268
%%EndComments
save
%%BeginProlog
/DotDict 200 dict def
DotDict begin

/setupLatin1 {
mark
/EncodingVector 256 array def
 EncodingVector 0

ISOLatin1Encoding 0 255 getinterval putinterval
EncodingVector 45 /hyphen put

% Set up ISO Latin 1 character encoding
/starnetISO {
        dup dup findfont dup length dict begin
        { 1 index /FID ne { def }{ pop pop } ifelse
        } forall
        /Encoding EncodingVector def
        currentdict end definefont
} def
/Times-Roman starnetISO def
/Times-Italic starnetISO def
/Times-Bold starnetISO def
/Times-BoldItalic starnetISO def
/Helvetica starnetISO def
/Helvetica-Oblique starnetISO def
/Helvetica-Bold starnetISO def
/Helvetica-BoldOblique starnetISO def
/Courier starnetISO def
/Courier-Oblique starnetISO def
/Courier-Bold starnetISO def
/Courier-BoldOblique starnetISO def
cleartomark
} bind def

%%BeginResource: procset graphviz 0 0
/coord-font-family /Times-Roman def
/default-font-family /Times-Roman def
/coordfont coord-font-family findfont 8 scalefont def

/InvScaleFactor 1.0 def
/set_scale {
       dup 1 exch div /InvScaleFactor exch def
       scale
} bind def

% styles
/solid { [] 0 setdash } bind def
/dashed { [9 InvScaleFactor mul dup ] 0 setdash } bind def
/dotted { [1 InvScaleFactor mul 6 InvScaleFactor mul] 0 setdash } bind def
/invis {/fill {newpath} def /stroke {newpath} def /show {pop newpath} def} bind def
/bold { 2 setlinewidth } bind def
/filled { } bind def
/unfilled { } bind def
/rounded { } bind def
/diagonals { } bind def
/tapered { } bind def

% hooks for setting color 
/nodecolor { sethsbcolor } bind def
/edgecolor { sethsbcolor } bind def
/graphcolor { sethsbcolor } bind def
/nopcolor {pop pop pop} bind def

/beginpage {	% i j npages
	/npages exch def
	/j exch def
	/i exch def
	/str 10 string def
	npages 1 gt {
		gsave
			coordfont setfont
			0 0 moveto
			(\() show i str cvs show (,) show j str cvs show (\)) show
		grestore
	} if
} bind def

/set_font {
	findfont exch
	scalefont setfont
} def

% draw text fitted to its expected width
/alignedtext {			% width text
	/text exch def
	/width exch def
	gsave
		width 0 gt {
			[] 0 setdash
			text stringwidth pop width exch sub text length div 0 text ashow
		} if
	grestore
} def

/boxprim {				% xcorner ycorner xsize ysize
		4 2 roll
		moveto
		2 copy
		exch 0 rlineto
		0 exch rlineto
		pop neg 0 rlineto
		closepath
} bind def

/ellipse_path {
	/ry exch def
	/rx exch def
	/y exch def
	/x exch def
	matrix currentmatrix
	newpath
	x y translate
	rx ry scale
	0 0 1 0 360 arc
	setmatrix
} bind def

/endpage { showpage } bind def
/showpage { } def

/layercolorseq
	[	% layer color sequence - darkest to lightest
		[0 0 0]
		[.2 .8 .8]
		[.4 .8 .8]
		[.6 .8 .8]
		[.8 .8 .8]
	]
def

/layerlen layercolorseq length def

/setlayer {/maxlayer exch def /curlayer exch def
	layercolorseq curlayer 1 sub layerlen mod get
	aload pop sethsbcolor
	/nodecolor {nopcolor} def
	/edgecolor {nopcolor} def
	/graphcolor {nopcolor} def
} bind def

/onlayer { curlayer ne {invis} if } def

/onlayers {
	/myupper exch def
	/mylower exch def
	curlayer mylower lt
	curlayer myupper gt
	or
	{invis} if
} def

/curlayer 0 def

%%EndResource
%%EndProlog
%%BeginSetup
14 default-font-family set_font
1 setmiterlimit
% /arrowlength 10 def
% /arrowwidth 5 def

% make sure pdfmark is harmless for PS-interpreters other than Distiller
/pdfmark where {pop} {userdict /pdfmark /cleartomark load put} ifelse
% make '<<' and '>>' safe on PS Level 1 devices
/languagelevel where {pop languagelevel}{1} ifelse
2 lt {
    userdict (<<) cvn ([) cvn load put
    userdict (>>) cvn ([) cvn load put
} if

%%EndSetup
setupLatin1
%%Page: 1 1
%%PageBoundingBox: 36 36 548 1268
%%PageOrientation: Portrait
0 0 1 beginpage
gsave
36 36 512 1232 boxprim clip newpath
1 1 set_scale 0 rotate 40 40 translate
% 1
gsave
0 0 0.82745 nodecolor
477 234 27 18 ellipse_path fill
1 setlinewidth
filled
0 0 0 nodecolor
477 234 27 18 ellipse_path stroke
0 0 0 nodecolor
14 /Times-Roman set_font
473.5 230.3 moveto 7 (1) alignedtext
grestore
% 1->1
gsave
1 setlinewidth
0 0 0 edgecolor
newpath 461.77 249.17 moveto
457.16 259.66 462.23 270 477 270 curveto
486.92 270 492.47 265.33 493.64 259.09 curveto
stroke
0 0 0 edgecolor
newpath 497.1 258.57 moveto
492.23 249.17 lineto
490.17 259.56 lineto
closepath fill
1 setlinewidth
solid
0 0 0 edgecolor
newpath 497.1 258.57 moveto
492.23 249.17 lineto
490.17 259.56 lineto
closepath stroke
grestore
% 3
gsave
1 setlinewidth
0 0 0 nodecolor
387 693 27 18 ellipse_path stroke
0 0 0 nodecolor
14 /Times-Roman set_font
383.5 689.3 moveto 7 (3) alignedtext
grestore
% 3->1
gsave
1 setlinewidth
0 0 0 edgecolor
newpath 391.45 675.01 moveto
404.95 604.59 454.26 347.41 470.66 261.87 curveto
stroke
0 0 0 edgecolor
newpath 474.13 262.35 moveto
472.57 251.87 lineto
467.25 261.03 lineto
closepath fill
1 setlinewidth
solid
0 0 0 edgecolor
newpath 474.13 262.35 moveto
472.57 251.87 lineto
467.25 261.03 lineto
closepath stroke
grestore
% 5
gsave
1 setlinewidth
0 0 0 nodecolor
297 1044 27 18 ellipse_path stroke
0 0 0 nodecolor
14 /Times-Roman set_font
293 1040.3 moveto 8 (5) alignedtext
grestore
% 5->3
gsave
1 setlinewidth
0 0 0 edgecolor
newpath 302.48 1026.11 moveto
316.84 968.84 361.75 789.72 379.08 720.6 curveto
stroke
0 0 0 edgecolor
newpath 382.49 721.4 moveto
381.52 710.85 lineto
375.7 719.7 lineto
closepath fill
1 setlinewidth
solid
0 0 0 edgecolor
newpath 382.49 721.4 moveto
381.52 710.85 lineto
375.7 719.7 lineto
closepath stroke
grestore
% 7
gsave
1 setlinewidth
0 0 0 nodecolor
387 369 27 18 ellipse_path stroke
0 0 0 nodecolor
14 /Times-Roman set_font
383.5 365.3 moveto 7 (7) alignedtext
grestore
% 7->1
gsave
1 setlinewidth
0 0 0 edgecolor
newpath 398.61 352.72 moveto
413.81 329.4 441.9 286.32 459.73 258.96 curveto
stroke
0 0 0 edgecolor
newpath 462.82 260.63 moveto
465.35 250.34 lineto
456.95 256.81 lineto
closepath fill
1 setlinewidth
solid
0 0 0 edgecolor
newpath 462.82 260.63 moveto
465.35 250.34 lineto
456.95 256.81 lineto
closepath stroke
grestore
% 9
gsave
0.10588 1 1 nodecolor
207 504 27 18 ellipse_path fill
1 setlinewidth
filled
0.10588 1 1 nodecolor
207 504 27 18 ellipse_path stroke
0 0 0 nodecolor
14 /Times-Roman set_font
203 500.3 moveto 8 (9) alignedtext
grestore
% 13
gsave
1 setlinewidth
0 0 0 nodecolor
297 450 27 18 ellipse_path stroke
0 0 0 nodecolor
14 /Times-Roman set_font
290 446.3 moveto 14 (13) alignedtext
grestore
% 9->13
gsave
3 setlinewidth
0.10588 1 1 edgecolor
newpath 227.53 492.02 moveto
239.38 484.74 254.7 475.34 267.84 467.28 curveto
stroke
0.10588 1 1 edgecolor
newpath 269.83 470.16 moveto
276.52 461.95 lineto
266.17 464.2 lineto
closepath fill
3 setlinewidth
solid
0.10588 1 1 edgecolor
newpath 269.83 470.16 moveto
276.52 461.95 lineto
266.17 464.2 lineto
closepath stroke
grestore
% 13->7
gsave
1 setlinewidth
0 0 0 edgecolor
newpath 313.73 435.52 moveto
327.37 422.96 347.3 404.62 362.77 390.38 curveto
stroke
0 0 0 edgecolor
newpath 365.42 392.7 moveto
370.4 383.36 lineto
360.68 387.55 lineto
closepath fill
1 setlinewidth
solid
0 0 0 edgecolor
newpath 365.42 392.7 moveto
370.4 383.36 lineto
360.68 387.55 lineto
closepath stroke
grestore
% 11
gsave
1 setlinewidth
0 0 0 nodecolor
297 896 27 18 ellipse_path stroke
0 0 0 nodecolor
14 /Times-Roman set_font
290 892.3 moveto 14 (11) alignedtext
grestore
% 11->3
gsave
1 setlinewidth
0 0 0 edgecolor
newpath 309.4 879.68 moveto
314.26 872.34 319.76 863.44 324 855 curveto
346.92 809.35 366.69 753.06 377.42 720.28 curveto
stroke
0 0 0 edgecolor
newpath 380.83 721.1 moveto
380.58 710.51 lineto
374.17 718.95 lineto
closepath fill
1 setlinewidth
solid
0 0 0 edgecolor
newpath 380.83 721.1 moveto
380.58 710.51 lineto
374.17 718.95 lineto
closepath stroke
grestore
% 15
gsave
1 setlinewidth
0 0 0 nodecolor
297 828 27 18 ellipse_path stroke
0 0 0 nodecolor
14 /Times-Roman set_font
289.5 824.3 moveto 15 (15) alignedtext
grestore
% 15->3
gsave
1 setlinewidth
0 0 0 edgecolor
newpath 313.27 813.45 moveto
316.98 809.57 320.8 805.27 324 801 curveto
343.65 774.82 361.74 741.84 373.24 719.26 curveto
stroke
0 0 0 edgecolor
newpath 376.4 720.77 moveto
377.75 710.26 lineto
370.14 717.63 lineto
closepath fill
1 setlinewidth
solid
0 0 0 edgecolor
newpath 376.4 720.77 moveto
377.75 710.26 lineto
370.14 717.63 lineto
closepath stroke
grestore
% 17
gsave
1 setlinewidth
0 0 0 nodecolor
117 612 27 18 ellipse_path stroke
0 0 0 nodecolor
14 /Times-Roman set_font
110 608.3 moveto 14 (17) alignedtext
grestore
% 17->9
gsave
1 setlinewidth
0 0 0 edgecolor
newpath 132.89 597.14 moveto
136.6 593.27 140.52 589.05 144 585 curveto
159.68 566.75 176.18 545.07 188.21 528.72 curveto
stroke
0 0 0 edgecolor
newpath 191.33 530.39 moveto
194.4 520.25 lineto
185.67 526.26 lineto
closepath fill
1 setlinewidth
solid
0 0 0 edgecolor
newpath 191.33 530.39 moveto
194.4 520.25 lineto
185.67 526.26 lineto
closepath stroke
grestore
% 19
gsave
1 setlinewidth
0 0 0 nodecolor
207 1206 27 18 ellipse_path stroke
0 0 0 nodecolor
14 /Times-Roman set_font
199.5 1202.3 moveto 15 (19) alignedtext
grestore
% 19->5
gsave
1 setlinewidth
0 0 0 edgecolor
newpath 217.09 1189.27 moveto
232.43 1161.02 263.6 1103.65 281.84 1070.07 curveto
stroke
0 0 0 edgecolor
newpath 285.13 1071.34 moveto
286.83 1060.88 lineto
278.98 1067.99 lineto
closepath fill
1 setlinewidth
solid
0 0 0 edgecolor
newpath 285.13 1071.34 moveto
286.83 1060.88 lineto
278.98 1067.99 lineto
closepath stroke
grestore
% 21
gsave
1 setlinewidth
0 0 0 nodecolor
387 234 27 18 ellipse_path stroke
0 0 0 nodecolor
14 /Times-Roman set_font
380 230.3 moveto 14 (21) alignedtext
grestore
% 21->1
gsave
1 setlinewidth
0 0 0 edgecolor
newpath 414.4 234 moveto
422.39 234 431.31 234 439.82 234 curveto
stroke
0 0 0 edgecolor
newpath 439.92 237.5 moveto
449.92 234 lineto
439.92 230.5 lineto
closepath fill
1 setlinewidth
solid
0 0 0 edgecolor
newpath 439.92 237.5 moveto
449.92 234 lineto
439.92 230.5 lineto
closepath stroke
grestore
% 23
gsave
1 setlinewidth
0 0 0 nodecolor
297 774 27 18 ellipse_path stroke
0 0 0 nodecolor
14 /Times-Roman set_font
290 770.3 moveto 14 (23) alignedtext
grestore
% 23->3
gsave
1 setlinewidth
0 0 0 edgecolor
newpath 313.73 759.52 moveto
327.37 746.96 347.3 728.62 362.77 714.38 curveto
stroke
0 0 0 edgecolor
newpath 365.42 716.7 moveto
370.4 707.36 lineto
360.68 711.55 lineto
closepath fill
1 setlinewidth
solid
0 0 0 edgecolor
newpath 365.42 716.7 moveto
370.4 707.36 lineto
360.68 711.55 lineto
closepath stroke
grestore
% 25
gsave
0.10588 1 1 nodecolor
297 126 27 18 ellipse_path fill
1 setlinewidth
filled
0.10588 1 1 nodecolor
297 126 27 18 ellipse_path stroke
0 0 0 nodecolor
14 /Times-Roman set_font
289.5 122.3 moveto 15 (25) alignedtext
grestore
% 31
gsave
1 setlinewidth
0 0 0 nodecolor
387 126 27 18 ellipse_path stroke
0 0 0 nodecolor
14 /Times-Roman set_font
380 122.3 moveto 14 (31) alignedtext
grestore
% 25->31
gsave
3 setlinewidth
0.10588 1 1 edgecolor
newpath 324.4 126 moveto
332.39 126 341.31 126 349.82 126 curveto
stroke
0.10588 1 1 edgecolor
newpath 349.92 129.5 moveto
359.92 126 lineto
349.92 122.5 lineto
closepath fill
3 setlinewidth
solid
0.10588 1 1 edgecolor
newpath 349.92 129.5 moveto
359.92 126 lineto
349.92 122.5 lineto
closepath stroke
grestore
% 31->1
gsave
1 setlinewidth
0 0 0 edgecolor
newpath 400.98 141.94 moveto
415.69 159.99 439.81 189.58 456.71 210.33 curveto
stroke
0 0 0 edgecolor
newpath 454.22 212.81 moveto
463.25 218.35 lineto
459.64 208.39 lineto
closepath fill
1 setlinewidth
solid
0 0 0 edgecolor
newpath 454.22 212.81 moveto
463.25 218.35 lineto
459.64 208.39 lineto
closepath stroke
grestore
% 27
gsave
1 setlinewidth
0 0 0 nodecolor
207 1125 27 18 ellipse_path stroke
0 0 0 nodecolor
14 /Times-Roman set_font
200 1121.3 moveto 14 (27) alignedtext
grestore
% 27->5
gsave
1 setlinewidth
0 0 0 edgecolor
newpath 223.73 1110.52 moveto
237.37 1097.96 257.3 1079.62 272.77 1065.38 curveto
stroke
0 0 0 edgecolor
newpath 275.42 1067.7 moveto
280.4 1058.36 lineto
270.68 1062.55 lineto
closepath fill
1 setlinewidth
solid
0 0 0 edgecolor
newpath 275.42 1067.7 moveto
280.4 1058.36 lineto
270.68 1062.55 lineto
closepath stroke
grestore
% 29
gsave
1 setlinewidth
0 0 0 nodecolor
207 855 27 18 ellipse_path stroke
0 0 0 nodecolor
14 /Times-Roman set_font
199.5 851.3 moveto 15 (29) alignedtext
grestore
% 29->15
gsave
1 setlinewidth
0 0 0 edgecolor
newpath 232.05 847.62 moveto
241.44 844.74 252.36 841.39 262.5 838.28 curveto
stroke
0 0 0 edgecolor
newpath 263.75 841.55 moveto
272.29 835.28 lineto
261.7 834.86 lineto
closepath fill
1 setlinewidth
solid
0 0 0 edgecolor
newpath 263.75 841.55 moveto
272.29 835.28 lineto
261.7 834.86 lineto
closepath stroke
grestore
% 33
gsave
1 setlinewidth
0 0 0 nodecolor
297 720 27 18 ellipse_path stroke
0 0 0 nodecolor
14 /Times-Roman set_font
290 716.3 moveto 14 (33) alignedtext
grestore
% 33->3
gsave
1 setlinewidth
0 0 0 edgecolor
newpath 322.05 712.62 moveto
331.44 709.74 342.36 706.39 352.5 703.28 curveto
stroke
0 0 0 edgecolor
newpath 353.75 706.55 moveto
362.29 700.28 lineto
351.7 699.86 lineto
closepath fill
1 setlinewidth
solid
0 0 0 edgecolor
newpath 353.75 706.55 moveto
362.29 700.28 lineto
351.7 699.86 lineto
closepath stroke
grestore
% 35
gsave
1 setlinewidth
0 0 0 nodecolor
297 666 27 18 ellipse_path stroke
0 0 0 nodecolor
14 /Times-Roman set_font
289.5 662.3 moveto 15 (35) alignedtext
grestore
% 35->3
gsave
1 setlinewidth
0 0 0 edgecolor
newpath 322.05 673.38 moveto
331.44 676.26 342.36 679.61 352.5 682.72 curveto
stroke
0 0 0 edgecolor
newpath 351.7 686.14 moveto
362.29 685.72 lineto
353.75 679.45 lineto
closepath fill
1 setlinewidth
solid
0 0 0 edgecolor
newpath 351.7 686.14 moveto
362.29 685.72 lineto
353.75 679.45 lineto
closepath stroke
grestore
% 37
gsave
1 setlinewidth
0 0 0 nodecolor
117 1206 27 18 ellipse_path stroke
0 0 0 nodecolor
14 /Times-Roman set_font
110 1202.3 moveto 14 (37) alignedtext
grestore
% 37->19
gsave
1 setlinewidth
0 0 0 edgecolor
newpath 144.4 1206 moveto
152.39 1206 161.31 1206 169.82 1206 curveto
stroke
0 0 0 edgecolor
newpath 169.92 1209.5 moveto
179.92 1206 lineto
169.92 1202.5 lineto
closepath fill
1 setlinewidth
solid
0 0 0 edgecolor
newpath 169.92 1209.5 moveto
179.92 1206 lineto
169.92 1202.5 lineto
closepath stroke
grestore
% 39
gsave
1 setlinewidth
0 0 0 nodecolor
297 396 27 18 ellipse_path stroke
0 0 0 nodecolor
14 /Times-Roman set_font
289.5 392.3 moveto 15 (39) alignedtext
grestore
% 39->7
gsave
1 setlinewidth
0 0 0 edgecolor
newpath 322.05 388.62 moveto
331.44 385.74 342.36 382.39 352.5 379.28 curveto
stroke
0 0 0 edgecolor
newpath 353.75 382.55 moveto
362.29 376.28 lineto
351.7 375.86 lineto
closepath fill
1 setlinewidth
solid
0 0 0 edgecolor
newpath 353.75 382.55 moveto
362.29 376.28 lineto
351.7 375.86 lineto
closepath stroke
grestore
% 41
gsave
1 setlinewidth
0 0 0 nodecolor
297 288 27 18 ellipse_path stroke
0 0 0 nodecolor
14 /Times-Roman set_font
289 284.3 moveto 16 (41) alignedtext
grestore
% 41->21
gsave
1 setlinewidth
0 0 0 edgecolor
newpath 317.53 276.02 moveto
329.38 268.74 344.7 259.34 357.84 251.28 curveto
stroke
0 0 0 edgecolor
newpath 359.83 254.16 moveto
366.52 245.95 lineto
356.17 248.2 lineto
closepath fill
1 setlinewidth
solid
0 0 0 edgecolor
newpath 359.83 254.16 moveto
366.52 245.95 lineto
356.17 248.2 lineto
closepath stroke
grestore
% 43
gsave
1 setlinewidth
0 0 0 nodecolor
207 909 27 18 ellipse_path stroke
0 0 0 nodecolor
14 /Times-Roman set_font
199 905.3 moveto 16 (43) alignedtext
grestore
% 43->11
gsave
1 setlinewidth
0 0 0 edgecolor
newpath 233.45 905.24 moveto
241.86 904 251.38 902.59 260.4 901.26 curveto
stroke
0 0 0 edgecolor
newpath 260.92 904.72 moveto
270.3 899.8 lineto
259.89 897.8 lineto
closepath fill
1 setlinewidth
solid
0 0 0 edgecolor
newpath 260.92 904.72 moveto
270.3 899.8 lineto
259.89 897.8 lineto
closepath stroke
grestore
% 45
gsave
1 setlinewidth
0 0 0 nodecolor
207 396 27 18 ellipse_path stroke
0 0 0 nodecolor
14 /Times-Roman set_font
199 392.3 moveto 16 (45) alignedtext
grestore
% 45->39
gsave
1 setlinewidth
0 0 0 edgecolor
newpath 234.4 396 moveto
242.39 396 251.31 396 259.82 396 curveto
stroke
0 0 0 edgecolor
newpath 259.92 399.5 moveto
269.92 396 lineto
259.92 392.5 lineto
closepath fill
1 setlinewidth
solid
0 0 0 edgecolor
newpath 259.92 399.5 moveto
269.92 396 lineto
259.92 392.5 lineto
closepath stroke
grestore
% 47
gsave
1 setlinewidth
0 0 0 nodecolor
297 612 27 18 ellipse_path stroke
0 0 0 nodecolor
14 /Times-Roman set_font
289 608.3 moveto 16 (47) alignedtext
grestore
% 47->3
gsave
1 setlinewidth
0 0 0 edgecolor
newpath 313.73 626.48 moveto
327.37 639.04 347.3 657.38 362.77 671.62 curveto
stroke
0 0 0 edgecolor
newpath 360.68 674.45 moveto
370.4 678.64 lineto
365.42 669.3 lineto
closepath fill
1 setlinewidth
solid
0 0 0 edgecolor
newpath 360.68 674.45 moveto
370.4 678.64 lineto
365.42 669.3 lineto
closepath stroke
grestore
% 49
gsave
0.10588 1 1 nodecolor
117 1044 27 18 ellipse_path fill
1 setlinewidth
filled
0.10588 1 1 nodecolor
117 1044 27 18 ellipse_path stroke
0 0 0 nodecolor
14 /Times-Roman set_font
109 1040.3 moveto 16 (49) alignedtext
grestore
% 57
gsave
1 setlinewidth
0 0 0 nodecolor
207 1071 27 18 ellipse_path stroke
0 0 0 nodecolor
14 /Times-Roman set_font
199.5 1067.3 moveto 15 (57) alignedtext
grestore
% 49->57
gsave
3 setlinewidth
0.10588 1 1 edgecolor
newpath 142.05 1051.38 moveto
151.44 1054.26 162.36 1057.61 172.5 1060.72 curveto
stroke
0.10588 1 1 edgecolor
newpath 171.7 1064.14 moveto
182.29 1063.72 lineto
173.75 1057.45 lineto
closepath fill
3 setlinewidth
solid
0.10588 1 1 edgecolor
newpath 171.7 1064.14 moveto
182.29 1063.72 lineto
173.75 1057.45 lineto
closepath stroke
grestore
% 57->5
gsave
1 setlinewidth
0 0 0 edgecolor
newpath 232.05 1063.62 moveto
241.44 1060.74 252.36 1057.39 262.5 1054.28 curveto
stroke
0 0 0 edgecolor
newpath 263.75 1057.55 moveto
272.29 1051.28 lineto
261.7 1050.86 lineto
closepath fill
1 setlinewidth
solid
0 0 0 edgecolor
newpath 263.75 1057.55 moveto
272.29 1051.28 lineto
261.7 1050.86 lineto
closepath stroke
grestore
% 51
gsave
1 setlinewidth
0 0 0 nodecolor
117 558 27 18 ellipse_path stroke
0 0 0 nodecolor
14 /Times-Roman set_font
109.5 554.3 moveto 15 (51) alignedtext
grestore
% 51->9
gsave
1 setlinewidth
0 0 0 edgecolor
newpath 137.53 546.02 moveto
149.38 538.74 164.7 529.34 177.84 521.28 curveto
stroke
0 0 0 edgecolor
newpath 179.83 524.16 moveto
186.52 515.95 lineto
176.17 518.2 lineto
closepath fill
1 setlinewidth
solid
0 0 0 edgecolor
newpath 179.83 524.16 moveto
186.52 515.95 lineto
176.17 518.2 lineto
closepath stroke
grestore
% 53
gsave
1 setlinewidth
0 0 0 nodecolor
117 1152 27 18 ellipse_path stroke
0 0 0 nodecolor
14 /Times-Roman set_font
109.5 1148.3 moveto 15 (53) alignedtext
grestore
% 53->27
gsave
1 setlinewidth
0 0 0 edgecolor
newpath 142.05 1144.62 moveto
151.44 1141.74 162.36 1138.39 172.5 1135.28 curveto
stroke
0 0 0 edgecolor
newpath 173.75 1138.55 moveto
182.29 1132.28 lineto
171.7 1131.86 lineto
closepath fill
1 setlinewidth
solid
0 0 0 edgecolor
newpath 173.75 1138.55 moveto
182.29 1132.28 lineto
171.7 1131.86 lineto
closepath stroke
grestore
% 55
gsave
1 setlinewidth
0 0 0 nodecolor
117 504 27 18 ellipse_path stroke
0 0 0 nodecolor
14 /Times-Roman set_font
109 500.3 moveto 16 (55) alignedtext
grestore
% 55->9
gsave
1 setlinewidth
0 0 0 edgecolor
newpath 144.4 504 moveto
152.39 504 161.31 504 169.82 504 curveto
stroke
0 0 0 edgecolor
newpath 169.92 507.5 moveto
179.92 504 lineto
169.92 500.5 lineto
closepath fill
1 setlinewidth
solid
0 0 0 edgecolor
newpath 169.92 507.5 moveto
179.92 504 lineto
169.92 500.5 lineto
closepath stroke
grestore
% 59
gsave
1 setlinewidth
0 0 0 nodecolor
207 801 27 18 ellipse_path stroke
0 0 0 nodecolor
14 /Times-Roman set_font
199 797.3 moveto 16 (59) alignedtext
grestore
% 59->15
gsave
1 setlinewidth
0 0 0 edgecolor
newpath 232.05 808.38 moveto
241.44 811.26 252.36 814.61 262.5 817.72 curveto
stroke
0 0 0 edgecolor
newpath 261.7 821.14 moveto
272.29 820.72 lineto
263.75 814.45 lineto
closepath fill
1 setlinewidth
solid
0 0 0 edgecolor
newpath 261.7 821.14 moveto
272.29 820.72 lineto
263.75 814.45 lineto
closepath stroke
grestore
% 61
gsave
1 setlinewidth
0 0 0 nodecolor
297 72 27 18 ellipse_path stroke
0 0 0 nodecolor
14 /Times-Roman set_font
289.5 68.3 moveto 15 (61) alignedtext
grestore
% 61->31
gsave
1 setlinewidth
0 0 0 edgecolor
newpath 317.53 83.98 moveto
329.38 91.26 344.7 100.66 357.84 108.72 curveto
stroke
0 0 0 edgecolor
newpath 356.17 111.8 moveto
366.52 114.05 lineto
359.83 105.84 lineto
closepath fill
1 setlinewidth
solid
0 0 0 edgecolor
newpath 356.17 111.8 moveto
366.52 114.05 lineto
359.83 105.84 lineto
closepath stroke
grestore
% 63
gsave
1 setlinewidth
0 0 0 nodecolor
207 450 27 18 ellipse_path stroke
0 0 0 nodecolor
14 /Times-Roman set_font
199.5 446.3 moveto 15 (63) alignedtext
grestore
% 63->13
gsave
1 setlinewidth
0 0 0 edgecolor
newpath 234.4 450 moveto
242.39 450 251.31 450 259.82 450 curveto
stroke
0 0 0 edgecolor
newpath 259.92 453.5 moveto
269.92 450 lineto
259.92 446.5 lineto
closepath fill
1 setlinewidth
solid
0 0 0 edgecolor
newpath 259.92 453.5 moveto
269.92 450 lineto
259.92 446.5 lineto
closepath stroke
grestore
% 65
gsave
1 setlinewidth
0 0 0 nodecolor
297 234 27 18 ellipse_path stroke
0 0 0 nodecolor
14 /Times-Roman set_font
289 230.3 moveto 16 (65) alignedtext
grestore
% 65->21
gsave
1 setlinewidth
0 0 0 edgecolor
newpath 324.4 234 moveto
332.39 234 341.31 234 349.82 234 curveto
stroke
0 0 0 edgecolor
newpath 349.92 237.5 moveto
359.92 234 lineto
349.92 230.5 lineto
closepath fill
1 setlinewidth
solid
0 0 0 edgecolor
newpath 349.92 237.5 moveto
359.92 234 lineto
349.92 230.5 lineto
closepath stroke
grestore
% 67
gsave
1 setlinewidth
0 0 0 nodecolor
27 612 27 18 ellipse_path stroke
0 0 0 nodecolor
14 /Times-Roman set_font
19.5 608.3 moveto 15 (67) alignedtext
grestore
% 67->17
gsave
1 setlinewidth
0 0 0 edgecolor
newpath 54.4 612 moveto
62.39 612 71.31 612 79.82 612 curveto
stroke
0 0 0 edgecolor
newpath 79.92 615.5 moveto
89.92 612 lineto
79.92 608.5 lineto
closepath fill
1 setlinewidth
solid
0 0 0 edgecolor
newpath 79.92 615.5 moveto
89.92 612 lineto
79.92 608.5 lineto
closepath stroke
grestore
% 69
gsave
1 setlinewidth
0 0 0 nodecolor
297 558 27 18 ellipse_path stroke
0 0 0 nodecolor
14 /Times-Roman set_font
289 554.3 moveto 16 (69) alignedtext
grestore
% 69->3
gsave
1 setlinewidth
0 0 0 edgecolor
newpath 313.27 572.55 moveto
316.98 576.43 320.8 580.73 324 585 curveto
343.65 611.18 361.74 644.16 373.24 666.74 curveto
stroke
0 0 0 edgecolor
newpath 370.14 668.37 moveto
377.75 675.74 lineto
376.4 665.23 lineto
closepath fill
1 setlinewidth
solid
0 0 0 edgecolor
newpath 370.14 668.37 moveto
377.75 675.74 lineto
376.4 665.23 lineto
closepath stroke
grestore
% 71
gsave
1 setlinewidth
0 0 0 nodecolor
117 450 27 18 ellipse_path stroke
0 0 0 nodecolor
14 /Times-Roman set_font
110 446.3 moveto 14 (71) alignedtext
grestore
% 71->9
gsave
1 setlinewidth
0 0 0 edgecolor
newpath 137.53 461.98 moveto
149.38 469.26 164.7 478.66 177.84 486.72 curveto
stroke
0 0 0 edgecolor
newpath 176.17 489.8 moveto
186.52 492.05 lineto
179.83 483.84 lineto
closepath fill
1 setlinewidth
solid
0 0 0 edgecolor
newpath 176.17 489.8 moveto
186.52 492.05 lineto
179.83 483.84 lineto
closepath stroke
grestore
% 73
gsave
1 setlinewidth
0 0 0 nodecolor
27 1206 27 18 ellipse_path stroke
0 0 0 nodecolor
14 /Times-Roman set_font
20 1202.3 moveto 14 (73) alignedtext
grestore
% 73->37
gsave
1 setlinewidth
0 0 0 edgecolor
newpath 54.4 1206 moveto
62.39 1206 71.31 1206 79.82 1206 curveto
stroke
0 0 0 edgecolor
newpath 79.92 1209.5 moveto
89.92 1206 lineto
79.92 1202.5 lineto
closepath fill
1 setlinewidth
solid
0 0 0 edgecolor
newpath 79.92 1209.5 moveto
89.92 1206 lineto
79.92 1202.5 lineto
closepath stroke
grestore
% 75
gsave
1 setlinewidth
0 0 0 nodecolor
297 18 27 18 ellipse_path stroke
0 0 0 nodecolor
14 /Times-Roman set_font
289.5 14.3 moveto 15 (75) alignedtext
grestore
% 75->31
gsave
1 setlinewidth
0 0 0 edgecolor
newpath 313.07 32.7 moveto
316.79 36.58 320.66 40.84 324 45 curveto
342.08 67.48 341.92 76.52 360 99 curveto
361.25 100.56 362.58 102.13 363.95 103.7 curveto
stroke
0 0 0 edgecolor
newpath 361.59 106.3 moveto
370.93 111.3 lineto
366.74 101.57 lineto
closepath fill
1 setlinewidth
solid
0 0 0 edgecolor
newpath 361.59 106.3 moveto
370.93 111.3 lineto
366.74 101.57 lineto
closepath stroke
grestore
% 77
gsave
1 setlinewidth
0 0 0 nodecolor
297 504 27 18 ellipse_path stroke
0 0 0 nodecolor
14 /Times-Roman set_font
290 500.3 moveto 14 (77) alignedtext
grestore
% 77->3
gsave
1 setlinewidth
0 0 0 edgecolor
newpath 313.74 518.22 moveto
317.44 522.11 321.14 526.5 324 531 curveto
351.4 574.12 369.71 631.23 378.95 664.85 curveto
stroke
0 0 0 edgecolor
newpath 375.67 666.14 moveto
381.63 674.9 lineto
382.43 664.33 lineto
closepath fill
1 setlinewidth
solid
0 0 0 edgecolor
newpath 375.67 666.14 moveto
381.63 674.9 lineto
382.43 664.33 lineto
closepath stroke
grestore
% 79
gsave
1 setlinewidth
0 0 0 nodecolor
207 1017 27 18 ellipse_path stroke
0 0 0 nodecolor
14 /Times-Roman set_font
199.5 1013.3 moveto 15 (79) alignedtext
grestore
% 79->5
gsave
1 setlinewidth
0 0 0 edgecolor
newpath 232.05 1024.38 moveto
241.44 1027.26 252.36 1030.61 262.5 1033.72 curveto
stroke
0 0 0 edgecolor
newpath 261.7 1037.14 moveto
272.29 1036.72 lineto
263.75 1030.45 lineto
closepath fill
1 setlinewidth
solid
0 0 0 edgecolor
newpath 261.7 1037.14 moveto
272.29 1036.72 lineto
263.75 1030.45 lineto
closepath stroke
grestore
% 81
gsave
0.10588 1 1 nodecolor
27 963 27 18 ellipse_path fill
1 setlinewidth
filled
0.10588 1 1 nodecolor
27 963 27 18 ellipse_path stroke
0 0 0 nodecolor
14 /Times-Roman set_font
20 959.3 moveto 14 (81) alignedtext
grestore
% 121
gsave
0.10588 1 1 nodecolor
117 963 27 18 ellipse_path fill
1 setlinewidth
filled
0.10588 1 1 nodecolor
117 963 27 18 ellipse_path stroke
0 0 0 nodecolor
14 /Times-Roman set_font
106.5 959.3 moveto 21 (121) alignedtext
grestore
% 81->121
gsave
3 setlinewidth
0.10588 1 1 edgecolor
newpath 54.4 963 moveto
62.39 963 71.31 963 79.82 963 curveto
stroke
0.10588 1 1 edgecolor
newpath 79.92 966.5 moveto
89.92 963 lineto
79.92 959.5 lineto
closepath fill
3 setlinewidth
solid
0.10588 1 1 edgecolor
newpath 79.92 966.5 moveto
89.92 963 lineto
79.92 959.5 lineto
closepath stroke
grestore
% 133
gsave
1 setlinewidth
0 0 0 nodecolor
207 963 27 18 ellipse_path stroke
0 0 0 nodecolor
14 /Times-Roman set_font
196.5 959.3 moveto 21 (133) alignedtext
grestore
% 121->133
gsave
3 setlinewidth
0.10588 1 1 edgecolor
newpath 144.4 963 moveto
152.39 963 161.31 963 169.82 963 curveto
stroke
0.10588 1 1 edgecolor
newpath 169.92 966.5 moveto
179.92 963 lineto
169.92 959.5 lineto
closepath fill
3 setlinewidth
solid
0.10588 1 1 edgecolor
newpath 169.92 966.5 moveto
179.92 963 lineto
169.92 959.5 lineto
closepath stroke
grestore
% 83
gsave
1 setlinewidth
0 0 0 nodecolor
297 180 27 18 ellipse_path stroke
0 0 0 nodecolor
14 /Times-Roman set_font
290 176.3 moveto 14 (83) alignedtext
grestore
% 83->21
gsave
1 setlinewidth
0 0 0 edgecolor
newpath 317.53 191.98 moveto
329.38 199.26 344.7 208.66 357.84 216.72 curveto
stroke
0 0 0 edgecolor
newpath 356.17 219.8 moveto
366.52 222.05 lineto
359.83 213.84 lineto
closepath fill
1 setlinewidth
solid
0 0 0 edgecolor
newpath 356.17 219.8 moveto
366.52 222.05 lineto
359.83 213.84 lineto
closepath stroke
grestore
% 85
gsave
1 setlinewidth
0 0 0 nodecolor
117 1098 27 18 ellipse_path stroke
0 0 0 nodecolor
14 /Times-Roman set_font
109.5 1094.3 moveto 15 (85) alignedtext
grestore
% 85->27
gsave
1 setlinewidth
0 0 0 edgecolor
newpath 142.05 1105.38 moveto
151.44 1108.26 162.36 1111.61 172.5 1114.72 curveto
stroke
0 0 0 edgecolor
newpath 171.7 1118.14 moveto
182.29 1117.72 lineto
173.75 1111.45 lineto
closepath fill
1 setlinewidth
solid
0 0 0 edgecolor
newpath 171.7 1118.14 moveto
182.29 1117.72 lineto
173.75 1111.45 lineto
closepath stroke
grestore
% 87
gsave
1 setlinewidth
0 0 0 nodecolor
207 747 27 18 ellipse_path stroke
0 0 0 nodecolor
14 /Times-Roman set_font
200 743.3 moveto 14 (87) alignedtext
grestore
% 87->15
gsave
1 setlinewidth
0 0 0 edgecolor
newpath 223.73 761.48 moveto
237.37 774.04 257.3 792.38 272.77 806.62 curveto
stroke
0 0 0 edgecolor
newpath 270.68 809.45 moveto
280.4 813.64 lineto
275.42 804.3 lineto
closepath fill
1 setlinewidth
solid
0 0 0 edgecolor
newpath 270.68 809.45 moveto
280.4 813.64 lineto
275.42 804.3 lineto
closepath stroke
grestore
% 89
gsave
1 setlinewidth
0 0 0 nodecolor
117 396 27 18 ellipse_path stroke
0 0 0 nodecolor
14 /Times-Roman set_font
109.5 392.3 moveto 15 (89) alignedtext
grestore
% 89->45
gsave
1 setlinewidth
0 0 0 edgecolor
newpath 144.4 396 moveto
152.39 396 161.31 396 169.82 396 curveto
stroke
0 0 0 edgecolor
newpath 169.92 399.5 moveto
179.92 396 lineto
169.92 392.5 lineto
closepath fill
1 setlinewidth
solid
0 0 0 edgecolor
newpath 169.92 399.5 moveto
179.92 396 lineto
169.92 392.5 lineto
closepath stroke
grestore
% 91
gsave
1 setlinewidth
0 0 0 nodecolor
297 342 27 18 ellipse_path stroke
0 0 0 nodecolor
14 /Times-Roman set_font
289.5 338.3 moveto 15 (91) alignedtext
grestore
% 91->7
gsave
1 setlinewidth
0 0 0 edgecolor
newpath 322.05 349.38 moveto
331.44 352.26 342.36 355.61 352.5 358.72 curveto
stroke
0 0 0 edgecolor
newpath 351.7 362.14 moveto
362.29 361.72 lineto
353.75 355.45 lineto
closepath fill
1 setlinewidth
solid
0 0 0 edgecolor
newpath 351.7 362.14 moveto
362.29 361.72 lineto
353.75 355.45 lineto
closepath stroke
grestore
% 93
gsave
1 setlinewidth
0 0 0 nodecolor
387 72 27 18 ellipse_path stroke
0 0 0 nodecolor
14 /Times-Roman set_font
379.5 68.3 moveto 15 (93) alignedtext
grestore
% 93->1
gsave
1 setlinewidth
0 0 0 edgecolor
newpath 403.54 86.35 moveto
407.25 90.24 410.99 94.59 414 99 curveto
437.55 133.54 456.14 178.46 466.6 206.77 curveto
stroke
0 0 0 edgecolor
newpath 463.39 208.19 moveto
470.08 216.4 lineto
469.97 205.81 lineto
closepath fill
1 setlinewidth
solid
0 0 0 edgecolor
newpath 463.39 208.19 moveto
470.08 216.4 lineto
469.97 205.81 lineto
closepath stroke
grestore
% 95
gsave
1 setlinewidth
0 0 0 nodecolor
207 693 27 18 ellipse_path stroke
0 0 0 nodecolor
14 /Times-Roman set_font
199 689.3 moveto 16 (95) alignedtext
grestore
% 95->15
gsave
1 setlinewidth
0 0 0 edgecolor
newpath 223.58 707.33 moveto
227.28 711.21 231.02 715.57 234 720 curveto
256 752.68 248 768.32 270 801 curveto
271.12 802.66 272.34 804.31 273.63 805.93 curveto
stroke
0 0 0 edgecolor
newpath 271.2 808.46 moveto
280.42 813.67 lineto
276.46 803.85 lineto
closepath fill
1 setlinewidth
solid
0 0 0 edgecolor
newpath 271.2 808.46 moveto
280.42 813.67 lineto
276.46 803.85 lineto
closepath stroke
grestore
% 97
gsave
1 setlinewidth
0 0 0 nodecolor
27 1044 27 18 ellipse_path stroke
0 0 0 nodecolor
14 /Times-Roman set_font
19.5 1040.3 moveto 15 (97) alignedtext
grestore
% 97->49
gsave
1 setlinewidth
0 0 0 edgecolor
newpath 54.4 1044 moveto
62.39 1044 71.31 1044 79.82 1044 curveto
stroke
0 0 0 edgecolor
newpath 79.92 1047.5 moveto
89.92 1044 lineto
79.92 1040.5 lineto
closepath fill
1 setlinewidth
solid
0 0 0 edgecolor
newpath 79.92 1047.5 moveto
89.92 1044 lineto
79.92 1040.5 lineto
closepath stroke
grestore
% 99
gsave
1 setlinewidth
0 0 0 nodecolor
207 342 27 18 ellipse_path stroke
0 0 0 nodecolor
14 /Times-Roman set_font
199 338.3 moveto 16 (99) alignedtext
grestore
% 99->39
gsave
1 setlinewidth
0 0 0 edgecolor
newpath 227.53 353.98 moveto
239.38 361.26 254.7 370.66 267.84 378.72 curveto
stroke
0 0 0 edgecolor
newpath 266.17 381.8 moveto
276.52 384.05 lineto
269.83 375.84 lineto
closepath fill
1 setlinewidth
solid
0 0 0 edgecolor
newpath 266.17 381.8 moveto
276.52 384.05 lineto
269.83 375.84 lineto
closepath stroke
grestore
% 101
gsave
1 setlinewidth
0 0 0 nodecolor
27 558 27 18 ellipse_path stroke
0 0 0 nodecolor
14 /Times-Roman set_font
16 554.3 moveto 22 (101) alignedtext
grestore
% 101->51
gsave
1 setlinewidth
0 0 0 edgecolor
newpath 54.4 558 moveto
62.39 558 71.31 558 79.82 558 curveto
stroke
0 0 0 edgecolor
newpath 79.92 561.5 moveto
89.92 558 lineto
79.92 554.5 lineto
closepath fill
1 setlinewidth
solid
0 0 0 edgecolor
newpath 79.92 561.5 moveto
89.92 558 lineto
79.92 554.5 lineto
closepath stroke
grestore
% 133->5
gsave
1 setlinewidth
0 0 0 edgecolor
newpath 223.73 977.48 moveto
237.37 990.04 257.3 1008.38 272.77 1022.62 curveto
stroke
0 0 0 edgecolor
newpath 270.68 1025.45 moveto
280.4 1029.64 lineto
275.42 1020.3 lineto
closepath fill
1 setlinewidth
solid
0 0 0 edgecolor
newpath 270.68 1025.45 moveto
280.4 1029.64 lineto
275.42 1020.3 lineto
closepath stroke
grestore
endpage
showpage
grestore
%%PageTrailer
%%EndPage: 1
%%Trailer
end
restore
%%EOF
