%!PS-Adobe-3.0 EPSF-3.0
%%Creator: graphviz version 2.38.0 (20140413.2041)
%%Title: sigma odd 1 to 21 (sigma_odd in black, varsigma_odd in blue, Odd in gray)
%%Pages: 1
%%BoundingBox: 36 36 728 704
%%EndComments
save
%%BeginProlog
/DotDict 200 dict def
DotDict begin

/setupLatin1 {
mark
/EncodingVector 256 array def
 EncodingVector 0

ISOLatin1Encoding 0 255 getinterval putinterval
EncodingVector 45 /hyphen put

% Set up ISO Latin 1 character encoding
/starnetISO {
        dup dup findfont dup length dict begin
        { 1 index /FID ne { def }{ pop pop } ifelse
        } forall
        /Encoding EncodingVector def
        currentdict end definefont
} def
/Times-Roman starnetISO def
/Times-Italic starnetISO def
/Times-Bold starnetISO def
/Times-BoldItalic starnetISO def
/Helvetica starnetISO def
/Helvetica-Oblique starnetISO def
/Helvetica-Bold starnetISO def
/Helvetica-BoldOblique starnetISO def
/Courier starnetISO def
/Courier-Oblique starnetISO def
/Courier-Bold starnetISO def
/Courier-BoldOblique starnetISO def
cleartomark
} bind def

%%BeginResource: procset graphviz 0 0
/coord-font-family /Times-Roman def
/default-font-family /Times-Roman def
/coordfont coord-font-family findfont 8 scalefont def

/InvScaleFactor 1.0 def
/set_scale {
       dup 1 exch div /InvScaleFactor exch def
       scale
} bind def

% styles
/solid { [] 0 setdash } bind def
/dashed { [9 InvScaleFactor mul dup ] 0 setdash } bind def
/dotted { [1 InvScaleFactor mul 6 InvScaleFactor mul] 0 setdash } bind def
/invis {/fill {newpath} def /stroke {newpath} def /show {pop newpath} def} bind def
/bold { 2 setlinewidth } bind def
/filled { } bind def
/unfilled { } bind def
/rounded { } bind def
/diagonals { } bind def
/tapered { } bind def

% hooks for setting color 
/nodecolor { sethsbcolor } bind def
/edgecolor { sethsbcolor } bind def
/graphcolor { sethsbcolor } bind def
/nopcolor {pop pop pop} bind def

/beginpage {	% i j npages
	/npages exch def
	/j exch def
	/i exch def
	/str 10 string def
	npages 1 gt {
		gsave
			coordfont setfont
			0 0 moveto
			(\() show i str cvs show (,) show j str cvs show (\)) show
		grestore
	} if
} bind def

/set_font {
	findfont exch
	scalefont setfont
} def

% draw text fitted to its expected width
/alignedtext {			% width text
	/text exch def
	/width exch def
	gsave
		width 0 gt {
			[] 0 setdash
			text stringwidth pop width exch sub text length div 0 text ashow
		} if
	grestore
} def

/boxprim {				% xcorner ycorner xsize ysize
		4 2 roll
		moveto
		2 copy
		exch 0 rlineto
		0 exch rlineto
		pop neg 0 rlineto
		closepath
} bind def

/ellipse_path {
	/ry exch def
	/rx exch def
	/y exch def
	/x exch def
	matrix currentmatrix
	newpath
	x y translate
	rx ry scale
	0 0 1 0 360 arc
	setmatrix
} bind def

/endpage { showpage } bind def
/showpage { } def

/layercolorseq
	[	% layer color sequence - darkest to lightest
		[0 0 0]
		[.2 .8 .8]
		[.4 .8 .8]
		[.6 .8 .8]
		[.8 .8 .8]
	]
def

/layerlen layercolorseq length def

/setlayer {/maxlayer exch def /curlayer exch def
	layercolorseq curlayer 1 sub layerlen mod get
	aload pop sethsbcolor
	/nodecolor {nopcolor} def
	/edgecolor {nopcolor} def
	/graphcolor {nopcolor} def
} bind def

/onlayer { curlayer ne {invis} if } def

/onlayers {
	/myupper exch def
	/mylower exch def
	curlayer mylower lt
	curlayer myupper gt
	or
	{invis} if
} def

/curlayer 0 def

%%EndResource
%%EndProlog
%%BeginSetup
14 default-font-family set_font
1 setmiterlimit
% /arrowlength 10 def
% /arrowwidth 5 def

% make sure pdfmark is harmless for PS-interpreters other than Distiller
/pdfmark where {pop} {userdict /pdfmark /cleartomark load put} ifelse
% make '<<' and '>>' safe on PS Level 1 devices
/languagelevel where {pop languagelevel}{1} ifelse
2 lt {
    userdict (<<) cvn ([) cvn load put
    userdict (>>) cvn ([) cvn load put
} if

%%EndSetup
setupLatin1
%%Page: 1 1
%%PageBoundingBox: 36 36 728 704
%%PageOrientation: Portrait
0 0 1 beginpage
gsave
36 36 692 668 boxprim clip newpath
1 1 set_scale 0 rotate 40 40 translate
% 1
gsave
0 0 0.82745 nodecolor
657 240 27 18 ellipse_path fill
1 setlinewidth
filled
0 0 0 nodecolor
657 240 27 18 ellipse_path stroke
0 0 0 nodecolor
14 /Times-Roman set_font
653.5 236.3 moveto 7 (1) alignedtext
grestore
% 1->1
gsave
1 setlinewidth
0 0 0 edgecolor
newpath 651.61 257.78 moveto
650.69 267.31 652.49 276 657 276 curveto
659.75 276 661.49 272.77 662.22 268.1 curveto
stroke
0 0 0 edgecolor
newpath 665.73 267.84 moveto
662.39 257.78 lineto
658.73 267.72 lineto
closepath fill
1 setlinewidth
solid
0 0 0 edgecolor
newpath 665.73 267.84 moveto
662.39 257.78 lineto
658.73 267.72 lineto
closepath stroke
grestore
% 1->1
gsave
1 setlinewidth
0.66667 1 1 edgecolor
newpath 648.22 257.14 moveto
643.06 274.58 645.98 294 657 294 curveto
665.95 294 669.56 281.18 667.83 267.02 curveto
stroke
0.66667 1 1 edgecolor
newpath 671.24 266.22 moveto
665.78 257.14 lineto
664.38 267.64 lineto
closepath fill
1 setlinewidth
solid
0.66667 1 1 edgecolor
newpath 671.24 266.22 moveto
665.78 257.14 lineto
664.38 267.64 lineto
closepath stroke
grestore
% 1->1
gsave
1 setlinewidth
0 0 0.82745 edgecolor
newpath 646.23 256.63 moveto
635.39 281.22 638.98 312 657 312 curveto
672.77 312 677.48 288.43 671.16 266.07 curveto
stroke
0 0 0.82745 edgecolor
newpath 674.44 264.86 moveto
667.77 256.63 lineto
667.85 267.23 lineto
closepath fill
1 setlinewidth
solid
0 0 0.82745 edgecolor
newpath 674.44 264.86 moveto
667.77 256.63 lineto
667.85 267.23 lineto
closepath stroke
grestore
% 4
gsave
0.10588 1 1 nodecolor
567 424 27 18 ellipse_path fill
1 setlinewidth
filled
0.10588 1 1 nodecolor
567 424 27 18 ellipse_path stroke
0 0 0 nodecolor
14 /Times-Roman set_font
562.5 420.3 moveto 9 (4) alignedtext
grestore
% 4->1
gsave
1 setlinewidth
0 0 0 edgecolor
newpath 572.73 406.41 moveto
578.37 395.15 587.8 384.47 594 374 curveto
614.96 338.62 631.99 294.84 642.86 266.59 curveto
stroke
0 0 0 edgecolor
newpath 646.25 267.51 moveto
646.58 256.93 lineto
639.72 265 lineto
closepath fill
1 setlinewidth
solid
0 0 0 edgecolor
newpath 646.25 267.51 moveto
646.58 256.93 lineto
639.72 265 lineto
closepath stroke
grestore
% 4->1
gsave
1 setlinewidth
0.66667 1 1 edgecolor
newpath 581.94 408.73 moveto
586.15 403.64 590.57 397.79 594 392 curveto
618.27 351.02 637.28 298.78 647.55 267.43 curveto
stroke
0.66667 1 1 edgecolor
newpath 650.96 268.24 moveto
650.69 257.65 lineto
644.3 266.1 lineto
closepath fill
1 setlinewidth
solid
0.66667 1 1 edgecolor
newpath 650.96 268.24 moveto
650.69 257.65 lineto
644.3 266.1 lineto
closepath stroke
grestore
% 4->1
gsave
1 setlinewidth
0 0 0.82745 edgecolor
newpath 590.7 415.14 moveto
591.87 413.45 592.98 411.72 594 410 curveto
621.23 364.03 641.83 303.86 650.91 267.88 curveto
stroke
0 0 0.82745 edgecolor
newpath 654.36 268.51 moveto
653.25 257.97 lineto
647.54 266.9 lineto
closepath fill
1 setlinewidth
solid
0 0 0.82745 edgecolor
newpath 654.36 268.51 moveto
653.25 257.97 lineto
647.54 266.9 lineto
closepath stroke
grestore
% 9
gsave
0.10588 1 1 nodecolor
207 195 27 18 ellipse_path fill
1 setlinewidth
filled
0.10588 1 1 nodecolor
207 195 27 18 ellipse_path stroke
0 0 0 nodecolor
14 /Times-Roman set_font
203 191.3 moveto 8 (9) alignedtext
grestore
% 9->9
gsave
1 setlinewidth
0 0 0.82745 edgecolor
newpath 191.77 210.17 moveto
187.16 220.66 192.23 231 207 231 curveto
216.92 231 222.47 226.33 223.64 220.09 curveto
stroke
0 0 0.82745 edgecolor
newpath 227.1 219.57 moveto
222.23 210.17 lineto
220.17 220.56 lineto
closepath fill
1 setlinewidth
solid
0 0 0.82745 edgecolor
newpath 227.1 219.57 moveto
222.23 210.17 lineto
220.17 220.56 lineto
closepath stroke
grestore
% 13
gsave
1 setlinewidth
0 0 0 nodecolor
297 167 27 18 ellipse_path stroke
0 0 0 nodecolor
14 /Times-Roman set_font
290 163.3 moveto 14 (13) alignedtext
grestore
% 9->13
gsave
1 setlinewidth
0 0 0 edgecolor
newpath 227.53 183.07 moveto
237.07 179.13 248.85 175.07 259.94 171.82 curveto
stroke
0 0 0 edgecolor
newpath 261.14 175.12 moveto
269.85 169.09 lineto
259.28 168.37 lineto
closepath fill
1 setlinewidth
solid
0 0 0 edgecolor
newpath 261.14 175.12 moveto
269.85 169.09 lineto
259.28 168.37 lineto
closepath stroke
grestore
% 9->13
gsave
1 setlinewidth
0.66667 1 1 edgecolor
newpath 233.93 192.97 moveto
244.33 190.31 256.36 186.53 267.05 182.6 curveto
stroke
0.66667 1 1 edgecolor
newpath 268.35 185.85 moveto
276.4 178.96 lineto
265.81 179.32 lineto
closepath fill
1 setlinewidth
solid
0.66667 1 1 edgecolor
newpath 268.35 185.85 moveto
276.4 178.96 lineto
265.81 179.32 lineto
closepath stroke
grestore
% 16
gsave
0.10588 1 1 nodecolor
567 294 27 18 ellipse_path fill
1 setlinewidth
filled
0.10588 1 1 nodecolor
567 294 27 18 ellipse_path stroke
0 0 0 nodecolor
14 /Times-Roman set_font
559.5 290.3 moveto 15 (16) alignedtext
grestore
% 16->1
gsave
1 setlinewidth
0 0 0 edgecolor
newpath 579.15 277.81 moveto
589.72 267.86 606.16 256.47 621.14 248.16 curveto
stroke
0 0 0 edgecolor
newpath 622.96 251.15 moveto
630.2 243.41 lineto
619.72 244.95 lineto
closepath fill
1 setlinewidth
solid
0 0 0 edgecolor
newpath 622.96 251.15 moveto
630.2 243.41 lineto
619.72 244.95 lineto
closepath stroke
grestore
% 16->1
gsave
1 setlinewidth
0.66667 1 1 edgecolor
newpath 587.53 282.02 moveto
599.38 274.74 614.7 265.34 627.84 257.28 curveto
stroke
0.66667 1 1 edgecolor
newpath 629.83 260.16 moveto
636.52 251.95 lineto
626.17 254.2 lineto
closepath fill
1 setlinewidth
solid
0.66667 1 1 edgecolor
newpath 629.83 260.16 moveto
636.52 251.95 lineto
626.17 254.2 lineto
closepath stroke
grestore
% 16->1
gsave
1 setlinewidth
0 0 0.82745 edgecolor
newpath 593.93 290.52 moveto
607.73 283.77 624.42 273.17 637.01 262.99 curveto
stroke
0 0 0.82745 edgecolor
newpath 639.35 265.6 moveto
644.62 256.41 lineto
634.77 260.3 lineto
closepath fill
1 setlinewidth
solid
0 0 0.82745 edgecolor
newpath 639.35 265.6 moveto
644.62 256.41 lineto
634.77 260.3 lineto
closepath stroke
grestore
% 2
gsave
1 setlinewidth
0 0 0 nodecolor
567 240 27 18 ellipse_path stroke
0 0 0 nodecolor
14 /Times-Roman set_font
563.5 236.3 moveto 7 (2) alignedtext
grestore
% 2->1
gsave
1 setlinewidth
0 0 0 edgecolor
newpath 587.97 228.48 moveto
599.22 226.41 613.5 225.97 626.06 227.13 curveto
stroke
0 0 0 edgecolor
newpath 625.73 230.62 moveto
636.11 228.49 lineto
626.67 223.68 lineto
closepath fill
1 setlinewidth
solid
0 0 0 edgecolor
newpath 625.73 230.62 moveto
636.11 228.49 lineto
626.67 223.68 lineto
closepath stroke
grestore
% 2->1
gsave
1 setlinewidth
0.66667 1 1 edgecolor
newpath 594.4 240 moveto
602.39 240 611.31 240 619.82 240 curveto
stroke
0.66667 1 1 edgecolor
newpath 619.92 243.5 moveto
629.92 240 lineto
619.92 236.5 lineto
closepath fill
1 setlinewidth
solid
0.66667 1 1 edgecolor
newpath 619.92 243.5 moveto
629.92 240 lineto
619.92 236.5 lineto
closepath stroke
grestore
% 2->1
gsave
1 setlinewidth
0 0 0.82745 edgecolor
newpath 587.97 251.52 moveto
599.22 253.59 613.5 254.03 626.06 252.87 curveto
stroke
0 0 0.82745 edgecolor
newpath 626.67 256.32 moveto
636.11 251.51 lineto
625.73 249.38 lineto
closepath fill
1 setlinewidth
solid
0 0 0.82745 edgecolor
newpath 626.67 256.32 moveto
636.11 251.51 lineto
625.73 249.38 lineto
closepath stroke
grestore
% 3
gsave
1 setlinewidth
0 0 0 nodecolor
477 469 27 18 ellipse_path stroke
0 0 0 nodecolor
14 /Times-Roman set_font
473.5 465.3 moveto 7 (3) alignedtext
grestore
% 3->1
gsave
1 setlinewidth
0.66667 1 1 edgecolor
newpath 503.87 472.34 moveto
529.8 474.17 569.32 472.62 594 451 curveto
647.44 404.18 655.95 313.94 656.61 268.14 curveto
stroke
0.66667 1 1 edgecolor
newpath 660.11 268.04 moveto
656.64 258.03 lineto
653.11 268.02 lineto
closepath fill
1 setlinewidth
solid
0.66667 1 1 edgecolor
newpath 660.11 268.04 moveto
656.64 258.03 lineto
653.11 268.02 lineto
closepath stroke
grestore
% 3->4
gsave
1 setlinewidth
0 0 0 edgecolor
newpath 498.85 458.34 moveto
509.95 452.66 523.8 445.58 536.03 439.33 curveto
stroke
0 0 0 edgecolor
newpath 537.68 442.41 moveto
544.99 434.74 lineto
534.49 436.18 lineto
closepath fill
1 setlinewidth
solid
0 0 0 edgecolor
newpath 537.68 442.41 moveto
544.99 434.74 lineto
534.49 436.18 lineto
closepath stroke
grestore
% 3->3
gsave
1 setlinewidth
0 0 0.82745 edgecolor
newpath 461.77 484.17 moveto
457.16 494.66 462.23 505 477 505 curveto
486.92 505 492.47 500.33 493.64 494.09 curveto
stroke
0 0 0.82745 edgecolor
newpath 497.1 493.57 moveto
492.23 484.17 lineto
490.17 494.56 lineto
closepath fill
1 setlinewidth
solid
0 0 0.82745 edgecolor
newpath 497.1 493.57 moveto
492.23 484.17 lineto
490.17 494.56 lineto
closepath stroke
grestore
% 5
gsave
1 setlinewidth
0 0 0 nodecolor
297 583 27 18 ellipse_path stroke
0 0 0 nodecolor
14 /Times-Roman set_font
293 579.3 moveto 8 (5) alignedtext
grestore
% 5->3
gsave
1 setlinewidth
0.66667 1 1 edgecolor
newpath 317.98 571.55 moveto
341.32 558.04 380.95 534.66 414 513 curveto
426.02 505.12 439.03 495.99 450.02 488.09 curveto
stroke
0.66667 1 1 edgecolor
newpath 452.29 490.76 moveto
458.34 482.06 lineto
448.18 485.09 lineto
closepath fill
1 setlinewidth
solid
0.66667 1 1 edgecolor
newpath 452.29 490.76 moveto
458.34 482.06 lineto
448.18 485.09 lineto
closepath stroke
grestore
% 5->5
gsave
1 setlinewidth
0 0 0.82745 edgecolor
newpath 281.77 598.17 moveto
277.16 608.66 282.23 619 297 619 curveto
306.92 619 312.47 614.33 313.64 608.09 curveto
stroke
0 0 0.82745 edgecolor
newpath 317.1 607.57 moveto
312.23 598.17 lineto
310.17 608.56 lineto
closepath fill
1 setlinewidth
solid
0 0 0.82745 edgecolor
newpath 317.1 607.57 moveto
312.23 598.17 lineto
310.17 608.56 lineto
closepath stroke
grestore
% 6
gsave
1 setlinewidth
0 0 0 nodecolor
387 583 27 18 ellipse_path stroke
0 0 0 nodecolor
14 /Times-Roman set_font
383 579.3 moveto 8 (6) alignedtext
grestore
% 5->6
gsave
1 setlinewidth
0 0 0 edgecolor
newpath 324.4 583 moveto
332.39 583 341.31 583 349.82 583 curveto
stroke
0 0 0 edgecolor
newpath 349.92 586.5 moveto
359.92 583 lineto
349.92 579.5 lineto
closepath fill
1 setlinewidth
solid
0 0 0 edgecolor
newpath 349.92 586.5 moveto
359.92 583 lineto
349.92 579.5 lineto
closepath stroke
grestore
% 6->1
gsave
1 setlinewidth
0.66667 1 1 edgecolor
newpath 413.31 578.07 moveto
458.45 567.8 552.04 539.47 594 475 curveto
636.83 409.2 650.15 314.89 654.24 268.29 curveto
stroke
0.66667 1 1 edgecolor
newpath 657.75 268.28 moveto
655.05 258.04 lineto
650.77 267.73 lineto
closepath fill
1 setlinewidth
solid
0.66667 1 1 edgecolor
newpath 657.75 268.28 moveto
655.05 258.04 lineto
650.77 267.73 lineto
closepath stroke
grestore
% 6->4
gsave
1 setlinewidth
0 0 0 edgecolor
newpath 409.95 573.47 moveto
434.77 561.95 475.42 540.73 504 514 curveto
524 495.29 541.16 469.05 552.33 449.74 curveto
stroke
0 0 0 edgecolor
newpath 555.46 451.31 moveto
557.31 440.87 lineto
549.36 447.87 lineto
closepath fill
1 setlinewidth
solid
0 0 0 edgecolor
newpath 555.46 451.31 moveto
557.31 440.87 lineto
549.36 447.87 lineto
closepath stroke
grestore
% 6->3
gsave
1 setlinewidth
0 0 0.82745 edgecolor
newpath 400.81 567.46 moveto
405.04 562.26 409.76 556.41 414 551 curveto
429.1 531.74 445.81 509.59 458.07 493.17 curveto
stroke
0 0 0.82745 edgecolor
newpath 460.88 495.26 moveto
464.05 485.15 lineto
455.26 491.08 lineto
closepath fill
1 setlinewidth
solid
0 0 0.82745 edgecolor
newpath 460.88 495.26 moveto
464.05 485.15 lineto
455.26 491.08 lineto
closepath stroke
grestore
% 7
gsave
1 setlinewidth
0 0 0 nodecolor
477 190 27 18 ellipse_path stroke
0 0 0 nodecolor
14 /Times-Roman set_font
473.5 186.3 moveto 7 (7) alignedtext
grestore
% 7->1
gsave
1 setlinewidth
0.66667 1 1 edgecolor
newpath 503.74 193.48 moveto
527.51 197.07 563.63 203.5 594 213 curveto
604.5 216.29 615.63 220.79 625.51 225.17 curveto
stroke
0.66667 1 1 edgecolor
newpath 624.36 228.49 moveto
634.91 229.47 lineto
627.27 222.13 lineto
closepath fill
1 setlinewidth
solid
0.66667 1 1 edgecolor
newpath 624.36 228.49 moveto
634.91 229.47 lineto
627.27 222.13 lineto
closepath stroke
grestore
% 7->7
gsave
1 setlinewidth
0 0 0.82745 edgecolor
newpath 461.77 205.17 moveto
457.16 215.66 462.23 226 477 226 curveto
486.92 226 492.47 221.33 493.64 215.09 curveto
stroke
0 0 0.82745 edgecolor
newpath 497.1 214.57 moveto
492.23 205.17 lineto
490.17 215.56 lineto
closepath fill
1 setlinewidth
solid
0 0 0.82745 edgecolor
newpath 497.1 214.57 moveto
492.23 205.17 lineto
490.17 215.56 lineto
closepath stroke
grestore
% 8
gsave
1 setlinewidth
0 0 0 nodecolor
567 148 27 18 ellipse_path stroke
0 0 0 nodecolor
14 /Times-Roman set_font
563.5 144.3 moveto 7 (8) alignedtext
grestore
% 7->8
gsave
1 setlinewidth
0 0 0 edgecolor
newpath 499.3 179.83 moveto
510.14 174.66 523.51 168.28 535.42 162.59 curveto
stroke
0 0 0 edgecolor
newpath 537.07 165.69 moveto
544.59 158.22 lineto
534.06 159.37 lineto
closepath fill
1 setlinewidth
solid
0 0 0 edgecolor
newpath 537.07 165.69 moveto
544.59 158.22 lineto
534.06 159.37 lineto
closepath stroke
grestore
% 8->1
gsave
1 setlinewidth
0 0 0 edgecolor
newpath 589.3 158.51 moveto
605.54 172.74 627.44 196.14 641.65 214.71 curveto
stroke
0 0 0 edgecolor
newpath 638.86 216.83 moveto
647.58 222.85 lineto
644.52 212.71 lineto
closepath fill
1 setlinewidth
solid
0 0 0 edgecolor
newpath 638.86 216.83 moveto
647.58 222.85 lineto
644.52 212.71 lineto
closepath stroke
grestore
% 8->1
gsave
1 setlinewidth
0.66667 1 1 edgecolor
newpath 582.53 163.19 moveto
596.76 178.06 618.58 200.88 634.75 217.79 curveto
stroke
0.66667 1 1 edgecolor
newpath 632.3 220.28 moveto
641.74 225.09 lineto
637.36 215.45 lineto
closepath fill
1 setlinewidth
solid
0.66667 1 1 edgecolor
newpath 632.3 220.28 moveto
641.74 225.09 lineto
637.36 215.45 lineto
closepath stroke
grestore
% 8->1
gsave
1 setlinewidth
0 0 0.82745 edgecolor
newpath 576.44 165.18 moveto
588 181.99 609.36 205.78 627.03 222.49 curveto
stroke
0 0 0.82745 edgecolor
newpath 625.1 225.46 moveto
634.85 229.62 lineto
629.82 220.29 lineto
closepath fill
1 setlinewidth
solid
0 0 0.82745 edgecolor
newpath 625.1 225.46 moveto
634.85 229.62 lineto
629.82 220.29 lineto
closepath stroke
grestore
% 13->7
gsave
1 setlinewidth
0.66667 1 1 edgecolor
newpath 323.88 170.34 moveto
354.55 174.31 405.83 180.93 440.27 185.38 curveto
stroke
0.66667 1 1 edgecolor
newpath 440.01 188.88 moveto
450.37 186.69 lineto
440.91 181.94 lineto
closepath fill
1 setlinewidth
solid
0.66667 1 1 edgecolor
newpath 440.01 188.88 moveto
450.37 186.69 lineto
440.91 181.94 lineto
closepath stroke
grestore
% 13->13
gsave
1 setlinewidth
0 0 0.82745 edgecolor
newpath 281.77 182.17 moveto
277.16 192.66 282.23 203 297 203 curveto
306.92 203 312.47 198.33 313.64 192.09 curveto
stroke
0 0 0.82745 edgecolor
newpath 317.1 191.57 moveto
312.23 182.17 lineto
310.17 192.56 lineto
closepath fill
1 setlinewidth
solid
0 0 0.82745 edgecolor
newpath 317.1 191.57 moveto
312.23 182.17 lineto
310.17 192.56 lineto
closepath stroke
grestore
% 14
gsave
1 setlinewidth
0 0 0 nodecolor
387 144 27 18 ellipse_path stroke
0 0 0 nodecolor
14 /Times-Roman set_font
379 140.3 moveto 16 (14) alignedtext
grestore
% 13->14
gsave
1 setlinewidth
0 0 0 edgecolor
newpath 322.51 160.59 moveto
331.57 158.23 342.01 155.5 351.78 152.95 curveto
stroke
0 0 0 edgecolor
newpath 352.83 156.29 moveto
361.62 150.37 lineto
351.06 149.51 lineto
closepath fill
1 setlinewidth
solid
0 0 0 edgecolor
newpath 352.83 156.29 moveto
361.62 150.37 lineto
351.06 149.51 lineto
closepath stroke
grestore
% 10
gsave
1 setlinewidth
0 0 0 nodecolor
207 537 27 18 ellipse_path stroke
0 0 0 nodecolor
14 /Times-Roman set_font
199.5 533.3 moveto 15 (10) alignedtext
grestore
% 10->3
gsave
1 setlinewidth
0.66667 1 1 edgecolor
newpath 232.73 530.72 moveto
280.7 518.55 386.45 491.72 441.37 477.79 curveto
stroke
0.66667 1 1 edgecolor
newpath 442.5 481.11 moveto
451.33 475.26 lineto
440.77 474.33 lineto
closepath fill
1 setlinewidth
solid
0.66667 1 1 edgecolor
newpath 442.5 481.11 moveto
451.33 475.26 lineto
440.77 474.33 lineto
closepath stroke
grestore
% 10->5
gsave
1 setlinewidth
0 0 0.82745 edgecolor
newpath 228.85 547.9 moveto
240.03 553.74 254 561.04 266.29 567.47 curveto
stroke
0 0 0.82745 edgecolor
newpath 264.81 570.65 moveto
275.29 572.18 lineto
268.05 564.44 lineto
closepath fill
1 setlinewidth
solid
0 0 0.82745 edgecolor
newpath 264.81 570.65 moveto
275.29 572.18 lineto
268.05 564.44 lineto
closepath stroke
grestore
% 10->6
gsave
1 setlinewidth
0 0 0 edgecolor
newpath 234.21 539.42 moveto
258 542.05 293.85 547.12 324 556 curveto
334.67 559.14 345.93 563.66 355.89 568.1 curveto
stroke
0 0 0 edgecolor
newpath 354.42 571.28 moveto
364.97 572.28 lineto
357.35 564.92 lineto
closepath fill
1 setlinewidth
solid
0 0 0 edgecolor
newpath 354.42 571.28 moveto
364.97 572.28 lineto
357.35 564.92 lineto
closepath stroke
grestore
% 11
gsave
1 setlinewidth
0 0 0 nodecolor
297 415 27 18 ellipse_path stroke
0 0 0 nodecolor
14 /Times-Roman set_font
290 411.3 moveto 14 (11) alignedtext
grestore
% 11->3
gsave
1 setlinewidth
0.66667 1 1 edgecolor
newpath 320.83 423.54 moveto
332.49 427.79 346.93 432.88 360 437 curveto
387.25 445.58 418.49 454.13 441.68 460.23 curveto
stroke
0.66667 1 1 edgecolor
newpath 440.85 463.63 moveto
451.41 462.76 lineto
442.62 456.85 lineto
closepath fill
1 setlinewidth
solid
0.66667 1 1 edgecolor
newpath 440.85 463.63 moveto
451.41 462.76 lineto
442.62 456.85 lineto
closepath stroke
grestore
% 11->11
gsave
1 setlinewidth
0 0 0.82745 edgecolor
newpath 281.77 430.17 moveto
277.16 440.66 282.23 451 297 451 curveto
306.92 451 312.47 446.33 313.64 440.09 curveto
stroke
0 0 0.82745 edgecolor
newpath 317.1 439.57 moveto
312.23 430.17 lineto
310.17 440.56 lineto
closepath fill
1 setlinewidth
solid
0 0 0.82745 edgecolor
newpath 317.1 439.57 moveto
312.23 430.17 lineto
310.17 440.56 lineto
closepath stroke
grestore
% 12
gsave
1 setlinewidth
0 0 0 nodecolor
387 377 27 18 ellipse_path stroke
0 0 0 nodecolor
14 /Times-Roman set_font
380 373.3 moveto 14 (12) alignedtext
grestore
% 11->12
gsave
1 setlinewidth
0 0 0 edgecolor
newpath 320.21 405.41 moveto
330.63 400.91 343.23 395.47 354.61 390.56 curveto
stroke
0 0 0 edgecolor
newpath 356.01 393.76 moveto
363.8 386.59 lineto
353.23 387.34 lineto
closepath fill
1 setlinewidth
solid
0 0 0 edgecolor
newpath 356.01 393.76 moveto
363.8 386.59 lineto
353.23 387.34 lineto
closepath stroke
grestore
% 12->1
gsave
1 setlinewidth
0.66667 1 1 edgecolor
newpath 413.93 379.12 moveto
455.62 381.19 538.48 379.7 594 342 curveto
620.4 324.07 637.48 290.8 646.89 267.14 curveto
stroke
0.66667 1 1 edgecolor
newpath 650.21 268.25 moveto
650.46 257.66 lineto
643.66 265.78 lineto
closepath fill
1 setlinewidth
solid
0.66667 1 1 edgecolor
newpath 650.21 268.25 moveto
650.46 257.66 lineto
643.66 265.78 lineto
closepath stroke
grestore
% 12->4
gsave
1 setlinewidth
0 0 0 edgecolor
newpath 412.38 383.44 moveto
443.31 391.61 496.86 405.74 531.85 414.98 curveto
stroke
0 0 0 edgecolor
newpath 531.07 418.4 moveto
541.63 417.57 lineto
532.86 411.63 lineto
closepath fill
1 setlinewidth
solid
0 0 0 edgecolor
newpath 531.07 418.4 moveto
541.63 417.57 lineto
532.86 411.63 lineto
closepath stroke
grestore
% 12->3
gsave
1 setlinewidth
0 0 0.82745 edgecolor
newpath 402.53 392.19 moveto
416.76 407.06 438.58 429.88 454.75 446.79 curveto
stroke
0 0 0.82745 edgecolor
newpath 452.3 449.28 moveto
461.74 454.09 lineto
457.36 444.45 lineto
closepath fill
1 setlinewidth
solid
0 0 0.82745 edgecolor
newpath 452.3 449.28 moveto
461.74 454.09 lineto
457.36 444.45 lineto
closepath stroke
grestore
% 14->1
gsave
1 setlinewidth
0.66667 1 1 edgecolor
newpath 409.42 133.55 moveto
449.04 115.86 535.08 85.26 594 121 curveto
626.46 140.69 642.72 183.54 650.25 212.08 curveto
stroke
0.66667 1 1 edgecolor
newpath 646.87 213 moveto
652.64 221.88 lineto
653.67 211.34 lineto
closepath fill
1 setlinewidth
solid
0.66667 1 1 edgecolor
newpath 646.87 213 moveto
652.64 221.88 lineto
653.67 211.34 lineto
closepath stroke
grestore
% 14->7
gsave
1 setlinewidth
0 0 0.82745 edgecolor
newpath 408.85 154.9 moveto
420.03 160.74 434 168.04 446.29 174.47 curveto
stroke
0 0 0.82745 edgecolor
newpath 444.81 177.65 moveto
455.29 179.18 lineto
448.05 171.44 lineto
closepath fill
1 setlinewidth
solid
0 0 0.82745 edgecolor
newpath 444.81 177.65 moveto
455.29 179.18 lineto
448.05 171.44 lineto
closepath stroke
grestore
% 14->8
gsave
1 setlinewidth
0 0 0 edgecolor
newpath 414.26 144.59 moveto
444.85 145.28 495.55 146.42 529.84 147.19 curveto
stroke
0 0 0 edgecolor
newpath 529.84 150.69 moveto
539.92 147.41 lineto
530 143.69 lineto
closepath fill
1 setlinewidth
solid
0 0 0 edgecolor
newpath 529.84 150.69 moveto
539.92 147.41 lineto
530 143.69 lineto
closepath stroke
grestore
% 15
gsave
1 setlinewidth
0 0 0 nodecolor
297 333 27 18 ellipse_path stroke
0 0 0 nodecolor
14 /Times-Roman set_font
289.5 329.3 moveto 15 (15) alignedtext
grestore
% 15->3
gsave
1 setlinewidth
0.66667 1 1 edgecolor
newpath 309.48 349.08 moveto
321.01 364.48 339.93 387.7 360 404 curveto
374.39 415.68 416.39 438.29 445.68 453.52 curveto
stroke
0.66667 1 1 edgecolor
newpath 444.21 456.7 moveto
454.7 458.18 lineto
447.42 450.48 lineto
closepath fill
1 setlinewidth
solid
0.66667 1 1 edgecolor
newpath 444.21 456.7 moveto
454.7 458.18 lineto
447.42 450.48 lineto
closepath stroke
grestore
% 15->15
gsave
1 setlinewidth
0 0 0.82745 edgecolor
newpath 281.77 348.17 moveto
277.16 358.66 282.23 369 297 369 curveto
306.92 369 312.47 364.33 313.64 358.09 curveto
stroke
0 0 0.82745 edgecolor
newpath 317.1 357.57 moveto
312.23 348.17 lineto
310.17 358.56 lineto
closepath fill
1 setlinewidth
solid
0 0 0.82745 edgecolor
newpath 317.1 357.57 moveto
312.23 348.17 lineto
310.17 358.56 lineto
closepath stroke
grestore
% 24
gsave
1 setlinewidth
0 0 0 nodecolor
387 323 27 18 ellipse_path stroke
0 0 0 nodecolor
14 /Times-Roman set_font
379 319.3 moveto 16 (24) alignedtext
grestore
% 15->24
gsave
1 setlinewidth
0 0 0 edgecolor
newpath 323.93 330.05 moveto
332.16 329.12 341.42 328.07 350.22 327.07 curveto
stroke
0 0 0 edgecolor
newpath 350.72 330.53 moveto
360.26 325.93 lineto
349.93 323.58 lineto
closepath fill
1 setlinewidth
solid
0 0 0 edgecolor
newpath 350.72 330.53 moveto
360.26 325.93 lineto
349.93 323.58 lineto
closepath stroke
grestore
% 24->1
gsave
1 setlinewidth
0.66667 1 1 edgecolor
newpath 412.44 329.31 moveto
452.71 338.32 534.5 350.75 594 321 curveto
616.76 309.62 633.51 285.49 643.82 266.51 curveto
stroke
0.66667 1 1 edgecolor
newpath 647.03 267.91 moveto
648.49 257.42 lineto
640.81 264.71 lineto
closepath fill
1 setlinewidth
solid
0.66667 1 1 edgecolor
newpath 647.03 267.91 moveto
648.49 257.42 lineto
640.81 264.71 lineto
closepath stroke
grestore
% 24->4
gsave
1 setlinewidth
0 0 0 edgecolor
newpath 408.07 334.39 moveto
439.54 352.24 500.62 386.9 536.91 407.49 curveto
stroke
0 0 0 edgecolor
newpath 535.58 410.76 moveto
546 412.65 lineto
539.03 404.67 lineto
closepath fill
1 setlinewidth
solid
0 0 0 edgecolor
newpath 535.58 410.76 moveto
546 412.65 lineto
539.03 404.67 lineto
closepath stroke
grestore
% 24->3
gsave
1 setlinewidth
0 0 0.82745 edgecolor
newpath 403.39 337.46 moveto
407.1 341.34 410.88 345.67 414 350 curveto
435.25 379.55 453.66 417.36 464.78 442.34 curveto
stroke
0 0 0.82745 edgecolor
newpath 461.59 443.8 moveto
468.81 451.56 lineto
468.01 441 lineto
closepath fill
1 setlinewidth
solid
0 0 0.82745 edgecolor
newpath 461.59 443.8 moveto
468.81 451.56 lineto
468.01 441 lineto
closepath stroke
grestore
% 17
gsave
1 setlinewidth
0 0 0 nodecolor
27 167 27 18 ellipse_path stroke
0 0 0 nodecolor
14 /Times-Roman set_font
20 163.3 moveto 14 (17) alignedtext
grestore
% 17->9
gsave
1 setlinewidth
0.66667 1 1 edgecolor
newpath 53.5 171.01 moveto
84.17 175.84 135.82 183.96 170.4 189.4 curveto
stroke
0.66667 1 1 edgecolor
newpath 170.12 192.9 moveto
180.54 191 lineto
171.21 185.98 lineto
closepath fill
1 setlinewidth
solid
0.66667 1 1 edgecolor
newpath 170.12 192.9 moveto
180.54 191 lineto
171.21 185.98 lineto
closepath stroke
grestore
% 17->17
gsave
1 setlinewidth
0 0 0.82745 edgecolor
newpath 11.77 182.17 moveto
7.16 192.66 12.23 203 27 203 curveto
36.92 203 42.47 198.33 43.64 192.09 curveto
stroke
0 0 0.82745 edgecolor
newpath 47.1 191.57 moveto
42.23 182.17 lineto
40.17 192.56 lineto
closepath fill
1 setlinewidth
solid
0 0 0.82745 edgecolor
newpath 47.1 191.57 moveto
42.23 182.17 lineto
40.17 192.56 lineto
closepath stroke
grestore
% 18
gsave
1 setlinewidth
0 0 0 nodecolor
117 143 27 18 ellipse_path stroke
0 0 0 nodecolor
14 /Times-Roman set_font
110 139.3 moveto 14 (18) alignedtext
grestore
% 17->18
gsave
1 setlinewidth
0 0 0 edgecolor
newpath 52.51 160.31 moveto
61.57 157.84 72.01 155 81.78 152.33 curveto
stroke
0 0 0 edgecolor
newpath 82.89 155.66 moveto
91.62 149.65 lineto
81.05 148.9 lineto
closepath fill
1 setlinewidth
solid
0 0 0 edgecolor
newpath 82.89 155.66 moveto
91.62 149.65 lineto
81.05 148.9 lineto
closepath stroke
grestore
% 18->9
gsave
1 setlinewidth
0 0 0.82745 edgecolor
newpath 137.97 154.8 moveto
149.56 161.65 164.35 170.39 177.19 177.97 curveto
stroke
0 0 0.82745 edgecolor
newpath 175.72 181.17 moveto
186.11 183.25 lineto
179.28 175.15 lineto
closepath fill
1 setlinewidth
solid
0 0 0.82745 edgecolor
newpath 175.72 181.17 moveto
186.11 183.25 lineto
179.28 175.15 lineto
closepath stroke
grestore
% 18->13
gsave
1 setlinewidth
0 0 0 edgecolor
newpath 144.26 141.59 moveto
175.64 143.59 228.18 150.52 262.46 157.06 curveto
stroke
0 0 0 edgecolor
newpath 261.98 160.54 moveto
272.47 159.08 lineto
263.36 153.67 lineto
closepath fill
1 setlinewidth
solid
0 0 0 edgecolor
newpath 261.98 160.54 moveto
272.47 159.08 lineto
263.36 153.67 lineto
closepath stroke
grestore
% 18->13
gsave
1 setlinewidth
0.66667 1 1 edgecolor
newpath 141.64 150.95 moveto
171.8 157.36 224.3 164.71 259.59 167.66 curveto
stroke
0.66667 1 1 edgecolor
newpath 259.72 171.18 moveto
269.95 168.43 lineto
260.24 164.2 lineto
closepath fill
1 setlinewidth
solid
0.66667 1 1 edgecolor
newpath 259.72 171.18 moveto
269.95 168.43 lineto
260.24 164.2 lineto
closepath stroke
grestore
% 19
gsave
1 setlinewidth
0 0 0 nodecolor
117 617 27 18 ellipse_path stroke
0 0 0 nodecolor
14 /Times-Roman set_font
109.5 613.3 moveto 15 (19) alignedtext
grestore
% 19->5
gsave
1 setlinewidth
0.66667 1 1 edgecolor
newpath 143.13 612.2 moveto
173.78 606.34 225.81 596.41 260.54 589.77 curveto
stroke
0.66667 1 1 edgecolor
newpath 261.55 593.14 moveto
270.71 587.83 lineto
260.24 586.27 lineto
closepath fill
1 setlinewidth
solid
0.66667 1 1 edgecolor
newpath 261.55 593.14 moveto
270.71 587.83 lineto
260.24 586.27 lineto
closepath stroke
grestore
% 19->19
gsave
1 setlinewidth
0 0 0.82745 edgecolor
newpath 101.77 632.17 moveto
97.16 642.66 102.23 653 117 653 curveto
126.92 653 132.47 648.33 133.64 642.09 curveto
stroke
0 0 0.82745 edgecolor
newpath 137.1 641.57 moveto
132.23 632.17 lineto
130.17 642.56 lineto
closepath fill
1 setlinewidth
solid
0 0 0.82745 edgecolor
newpath 137.1 641.57 moveto
132.23 632.17 lineto
130.17 642.56 lineto
closepath stroke
grestore
% 20
gsave
1 setlinewidth
0 0 0 nodecolor
207 642 27 18 ellipse_path stroke
0 0 0 nodecolor
14 /Times-Roman set_font
199.5 638.3 moveto 15 (20) alignedtext
grestore
% 19->20
gsave
1 setlinewidth
0 0 0 edgecolor
newpath 142.05 623.83 moveto
151.36 626.48 162.18 629.55 172.25 632.41 curveto
stroke
0 0 0 edgecolor
newpath 171.41 635.81 moveto
181.98 635.18 lineto
173.32 629.08 lineto
closepath fill
1 setlinewidth
solid
0 0 0 edgecolor
newpath 171.41 635.81 moveto
181.98 635.18 lineto
173.32 629.08 lineto
closepath stroke
grestore
% 20->3
gsave
1 setlinewidth
0.66667 1 1 edgecolor
newpath 233.28 646.49 moveto
276.68 652.6 365.4 657.88 414 610 curveto
445.83 578.64 462.52 528.14 470.28 496.85 curveto
stroke
0.66667 1 1 edgecolor
newpath 473.71 497.57 moveto
472.58 487.03 lineto
466.89 495.97 lineto
closepath fill
1 setlinewidth
solid
0.66667 1 1 edgecolor
newpath 473.71 497.57 moveto
472.58 487.03 lineto
466.89 495.97 lineto
closepath stroke
grestore
% 20->5
gsave
1 setlinewidth
0 0 0.82745 edgecolor
newpath 226.66 629.49 moveto
238.91 621.27 255.14 610.4 268.81 601.23 curveto
stroke
0 0 0.82745 edgecolor
newpath 271.01 603.97 moveto
277.36 595.49 lineto
267.11 598.16 lineto
closepath fill
1 setlinewidth
solid
0 0 0.82745 edgecolor
newpath 271.01 603.97 moveto
277.36 595.49 lineto
267.11 598.16 lineto
closepath stroke
grestore
% 20->6
gsave
1 setlinewidth
0 0 0 edgecolor
newpath 234.25 642.55 moveto
258.38 642.2 294.73 639.49 324 628 curveto
338.11 622.46 351.94 612.94 362.95 604.07 curveto
stroke
0 0 0 edgecolor
newpath 365.37 606.61 moveto
370.77 597.5 lineto
360.87 601.25 lineto
closepath fill
1 setlinewidth
solid
0 0 0 edgecolor
newpath 365.37 606.61 moveto
370.77 597.5 lineto
360.87 601.25 lineto
closepath stroke
grestore
% 21
gsave
1 setlinewidth
0 0 0 nodecolor
477 28 27 18 ellipse_path stroke
0 0 0 nodecolor
14 /Times-Roman set_font
470 24.3 moveto 14 (21) alignedtext
grestore
% 21->1
gsave
1 setlinewidth
0.66667 1 1 edgecolor
newpath 501.99 34.89 moveto
527.87 43.44 568.76 60.38 594 88 curveto
626.61 123.69 643.23 178.83 650.73 211.96 curveto
stroke
0.66667 1 1 edgecolor
newpath 647.34 212.85 moveto
652.85 221.9 lineto
654.18 211.39 lineto
closepath fill
1 setlinewidth
solid
0.66667 1 1 edgecolor
newpath 647.34 212.85 moveto
652.85 221.9 lineto
654.18 211.39 lineto
closepath stroke
grestore
% 21->21
gsave
1 setlinewidth
0 0 0.82745 edgecolor
newpath 461.77 43.17 moveto
457.16 53.66 462.23 64 477 64 curveto
486.92 64 492.47 59.33 493.64 53.09 curveto
stroke
0 0 0.82745 edgecolor
newpath 497.1 52.57 moveto
492.23 43.17 lineto
490.17 53.56 lineto
closepath fill
1 setlinewidth
solid
0 0 0.82745 edgecolor
newpath 497.1 52.57 moveto
492.23 43.17 lineto
490.17 53.56 lineto
closepath stroke
grestore
% 32
gsave
1 setlinewidth
0 0 0 nodecolor
567 18 27 18 ellipse_path stroke
0 0 0 nodecolor
14 /Times-Roman set_font
560 14.3 moveto 14 (32) alignedtext
grestore
% 21->32
gsave
1 setlinewidth
0 0 0 edgecolor
newpath 503.93 25.05 moveto
512.16 24.12 521.42 23.07 530.22 22.07 curveto
stroke
0 0 0 edgecolor
newpath 530.72 25.53 moveto
540.26 20.93 lineto
529.93 18.58 lineto
closepath fill
1 setlinewidth
solid
0 0 0 edgecolor
newpath 530.72 25.53 moveto
540.26 20.93 lineto
529.93 18.58 lineto
closepath stroke
grestore
% 32->1
gsave
1 setlinewidth
0 0 0 edgecolor
newpath 590.85 26.77 moveto
591.98 28.48 593.04 30.24 594 32 curveto
626.14 90.99 645.13 169.42 652.47 211.93 curveto
stroke
0 0 0 edgecolor
newpath 649.04 212.62 moveto
654.09 221.93 lineto
655.95 211.5 lineto
closepath fill
1 setlinewidth
solid
0 0 0 edgecolor
newpath 649.04 212.62 moveto
654.09 221.93 lineto
655.95 211.5 lineto
closepath stroke
grestore
% 32->1
gsave
1 setlinewidth
0.66667 1 1 edgecolor
newpath 582.19 33.13 moveto
586.42 38.21 590.78 44.09 594 50 curveto
623.36 103.89 641.75 174.01 650.31 212.21 curveto
stroke
0.66667 1 1 edgecolor
newpath 646.91 213.07 moveto
652.46 222.1 lineto
653.75 211.58 lineto
closepath fill
1 setlinewidth
solid
0.66667 1 1 edgecolor
newpath 646.91 213.07 moveto
652.46 222.1 lineto
653.75 211.58 lineto
closepath stroke
grestore
% 32->1
gsave
1 setlinewidth
0 0 0.82745 edgecolor
newpath 573.07 35.91 moveto
578.85 46.96 588.25 57.44 594 68 curveto
620.21 116.11 637.68 177.16 647.21 212.66 curveto
stroke
0 0 0.82745 edgecolor
newpath 643.85 213.63 moveto
649.81 222.39 lineto
650.61 211.82 lineto
closepath fill
1 setlinewidth
solid
0 0 0.82745 edgecolor
newpath 643.85 213.63 moveto
649.81 222.39 lineto
650.61 211.82 lineto
closepath stroke
grestore
endpage
showpage
grestore
%%PageTrailer
%%EndPage: 1
%%Trailer
end
restore
%%EOF
