%!PS-Adobe-3.0 EPSF-3.0
%%Creator: graphviz version 2.38.0 (20140413.2041)
%%Title: sigma odd 1 to 51 (sigma_odd in black, varsigma_odd in blue, Odd in gray)
%%Pages: 1
%%BoundingBox: 36 36 818 1681
%%EndComments
save
%%BeginProlog
/DotDict 200 dict def
DotDict begin

/setupLatin1 {
mark
/EncodingVector 256 array def
 EncodingVector 0

ISOLatin1Encoding 0 255 getinterval putinterval
EncodingVector 45 /hyphen put

% Set up ISO Latin 1 character encoding
/starnetISO {
        dup dup findfont dup length dict begin
        { 1 index /FID ne { def }{ pop pop } ifelse
        } forall
        /Encoding EncodingVector def
        currentdict end definefont
} def
/Times-Roman starnetISO def
/Times-Italic starnetISO def
/Times-Bold starnetISO def
/Times-BoldItalic starnetISO def
/Helvetica starnetISO def
/Helvetica-Oblique starnetISO def
/Helvetica-Bold starnetISO def
/Helvetica-BoldOblique starnetISO def
/Courier starnetISO def
/Courier-Oblique starnetISO def
/Courier-Bold starnetISO def
/Courier-BoldOblique starnetISO def
cleartomark
} bind def

%%BeginResource: procset graphviz 0 0
/coord-font-family /Times-Roman def
/default-font-family /Times-Roman def
/coordfont coord-font-family findfont 8 scalefont def

/InvScaleFactor 1.0 def
/set_scale {
       dup 1 exch div /InvScaleFactor exch def
       scale
} bind def

% styles
/solid { [] 0 setdash } bind def
/dashed { [9 InvScaleFactor mul dup ] 0 setdash } bind def
/dotted { [1 InvScaleFactor mul 6 InvScaleFactor mul] 0 setdash } bind def
/invis {/fill {newpath} def /stroke {newpath} def /show {pop newpath} def} bind def
/bold { 2 setlinewidth } bind def
/filled { } bind def
/unfilled { } bind def
/rounded { } bind def
/diagonals { } bind def
/tapered { } bind def

% hooks for setting color 
/nodecolor { sethsbcolor } bind def
/edgecolor { sethsbcolor } bind def
/graphcolor { sethsbcolor } bind def
/nopcolor {pop pop pop} bind def

/beginpage {	% i j npages
	/npages exch def
	/j exch def
	/i exch def
	/str 10 string def
	npages 1 gt {
		gsave
			coordfont setfont
			0 0 moveto
			(\() show i str cvs show (,) show j str cvs show (\)) show
		grestore
	} if
} bind def

/set_font {
	findfont exch
	scalefont setfont
} def

% draw text fitted to its expected width
/alignedtext {			% width text
	/text exch def
	/width exch def
	gsave
		width 0 gt {
			[] 0 setdash
			text stringwidth pop width exch sub text length div 0 text ashow
		} if
	grestore
} def

/boxprim {				% xcorner ycorner xsize ysize
		4 2 roll
		moveto
		2 copy
		exch 0 rlineto
		0 exch rlineto
		pop neg 0 rlineto
		closepath
} bind def

/ellipse_path {
	/ry exch def
	/rx exch def
	/y exch def
	/x exch def
	matrix currentmatrix
	newpath
	x y translate
	rx ry scale
	0 0 1 0 360 arc
	setmatrix
} bind def

/endpage { showpage } bind def
/showpage { } def

/layercolorseq
	[	% layer color sequence - darkest to lightest
		[0 0 0]
		[.2 .8 .8]
		[.4 .8 .8]
		[.6 .8 .8]
		[.8 .8 .8]
	]
def

/layerlen layercolorseq length def

/setlayer {/maxlayer exch def /curlayer exch def
	layercolorseq curlayer 1 sub layerlen mod get
	aload pop sethsbcolor
	/nodecolor {nopcolor} def
	/edgecolor {nopcolor} def
	/graphcolor {nopcolor} def
} bind def

/onlayer { curlayer ne {invis} if } def

/onlayers {
	/myupper exch def
	/mylower exch def
	curlayer mylower lt
	curlayer myupper gt
	or
	{invis} if
} def

/curlayer 0 def

%%EndResource
%%EndProlog
%%BeginSetup
14 default-font-family set_font
1 setmiterlimit
% /arrowlength 10 def
% /arrowwidth 5 def

% make sure pdfmark is harmless for PS-interpreters other than Distiller
/pdfmark where {pop} {userdict /pdfmark /cleartomark load put} ifelse
% make '<<' and '>>' safe on PS Level 1 devices
/languagelevel where {pop languagelevel}{1} ifelse
2 lt {
    userdict (<<) cvn ([) cvn load put
    userdict (>>) cvn ([) cvn load put
} if

%%EndSetup
setupLatin1
%%Page: 1 1
%%PageBoundingBox: 36 36 818 1681
%%PageOrientation: Portrait
0 0 1 beginpage
gsave
36 36 782 1645 boxprim clip newpath
1 1 set_scale 0 rotate 40 40 translate
% 1
gsave
0 0 0.82745 nodecolor
747 544 27 18 ellipse_path fill
1 setlinewidth
filled
0 0 0 nodecolor
747 544 27 18 ellipse_path stroke
0 0 0 nodecolor
14 /Times-Roman set_font
743.5 540.3 moveto 7 (1) alignedtext
grestore
% 1->1
gsave
1 setlinewidth
0 0 0 edgecolor
newpath 741.61 561.78 moveto
740.69 571.31 742.49 580 747 580 curveto
749.75 580 751.49 576.77 752.22 572.1 curveto
stroke
0 0 0 edgecolor
newpath 755.73 571.84 moveto
752.39 561.78 lineto
748.73 571.72 lineto
closepath fill
1 setlinewidth
solid
0 0 0 edgecolor
newpath 755.73 571.84 moveto
752.39 561.78 lineto
748.73 571.72 lineto
closepath stroke
grestore
% 1->1
gsave
1 setlinewidth
0.66667 1 1 edgecolor
newpath 738.22 561.14 moveto
733.06 578.58 735.98 598 747 598 curveto
755.95 598 759.56 585.18 757.83 571.02 curveto
stroke
0.66667 1 1 edgecolor
newpath 761.24 570.22 moveto
755.78 561.14 lineto
754.38 571.64 lineto
closepath fill
1 setlinewidth
solid
0.66667 1 1 edgecolor
newpath 761.24 570.22 moveto
755.78 561.14 lineto
754.38 571.64 lineto
closepath stroke
grestore
% 1->1
gsave
1 setlinewidth
0 0 0.82745 edgecolor
newpath 736.23 560.63 moveto
725.39 585.22 728.98 616 747 616 curveto
762.77 616 767.48 592.43 761.16 570.07 curveto
stroke
0 0 0.82745 edgecolor
newpath 764.44 568.86 moveto
757.77 560.63 lineto
757.85 571.23 lineto
closepath fill
1 setlinewidth
solid
0 0 0.82745 edgecolor
newpath 764.44 568.86 moveto
757.77 560.63 lineto
757.85 571.23 lineto
closepath stroke
grestore
% 4
gsave
0.10588 1 1 nodecolor
657 863 27 18 ellipse_path fill
1 setlinewidth
filled
0.10588 1 1 nodecolor
657 863 27 18 ellipse_path stroke
0 0 0 nodecolor
14 /Times-Roman set_font
652.5 859.3 moveto 9 (4) alignedtext
grestore
% 4->1
gsave
1 setlinewidth
0 0 0 edgecolor
newpath 662.81 845.28 moveto
668.71 833.19 678.59 821.1 684 809 curveto
720.54 727.3 736.24 622.45 742.41 572.14 curveto
stroke
0 0 0 edgecolor
newpath 745.92 572.33 moveto
743.62 561.98 lineto
738.97 571.5 lineto
closepath fill
1 setlinewidth
solid
0 0 0 edgecolor
newpath 745.92 572.33 moveto
743.62 561.98 lineto
738.97 571.5 lineto
closepath stroke
grestore
% 4->1
gsave
1 setlinewidth
0.66667 1 1 edgecolor
newpath 671.42 847.38 moveto
676.01 841.35 680.79 834.18 684 827 curveto
723.3 739.13 738.49 624.47 743.66 572.19 curveto
stroke
0.66667 1 1 edgecolor
newpath 747.16 572.3 moveto
744.61 562.01 lineto
740.19 571.64 lineto
closepath fill
1 setlinewidth
solid
0.66667 1 1 edgecolor
newpath 747.16 572.3 moveto
744.61 562.01 lineto
740.19 571.64 lineto
closepath stroke
grestore
% 4->1
gsave
1 setlinewidth
0 0 0.82745 edgecolor
newpath 679.85 852.9 moveto
681.39 850.35 682.8 847.67 684 845 curveto
725.68 751.81 740.24 628.49 744.49 572.43 curveto
stroke
0 0 0.82745 edgecolor
newpath 748 572.37 moveto
745.2 562.15 lineto
741.02 571.88 lineto
closepath fill
1 setlinewidth
solid
0 0 0.82745 edgecolor
newpath 748 572.37 moveto
745.2 562.15 lineto
741.02 571.88 lineto
closepath stroke
grestore
% 9
gsave
0.10588 1 1 nodecolor
297 324 27 18 ellipse_path fill
1 setlinewidth
filled
0.10588 1 1 nodecolor
297 324 27 18 ellipse_path stroke
0 0 0 nodecolor
14 /Times-Roman set_font
293 320.3 moveto 8 (9) alignedtext
grestore
% 9->9
gsave
1 setlinewidth
0 0 0.82745 edgecolor
newpath 281.77 339.17 moveto
277.16 349.66 282.23 360 297 360 curveto
306.92 360 312.47 355.33 313.64 349.09 curveto
stroke
0 0 0.82745 edgecolor
newpath 317.1 348.57 moveto
312.23 339.17 lineto
310.17 349.56 lineto
closepath fill
1 setlinewidth
solid
0 0 0.82745 edgecolor
newpath 317.1 348.57 moveto
312.23 339.17 lineto
310.17 349.56 lineto
closepath stroke
grestore
% 13
gsave
1 setlinewidth
0 0 0 nodecolor
387 388 27 18 ellipse_path stroke
0 0 0 nodecolor
14 /Times-Roman set_font
380 384.3 moveto 14 (13) alignedtext
grestore
% 9->13
gsave
1 setlinewidth
0 0 0 edgecolor
newpath 319.75 333.9 moveto
333.32 342.66 350.73 355.32 364.29 366.3 curveto
stroke
0 0 0 edgecolor
newpath 362.25 369.16 moveto
372.17 372.87 lineto
366.73 363.78 lineto
closepath fill
1 setlinewidth
solid
0 0 0 edgecolor
newpath 362.25 369.16 moveto
372.17 372.87 lineto
366.73 363.78 lineto
closepath stroke
grestore
% 9->13
gsave
1 setlinewidth
0.66667 1 1 edgecolor
newpath 312.14 339.4 moveto
323.92 349.53 341.1 362.47 355.93 372.57 curveto
stroke
0.66667 1 1 edgecolor
newpath 354.06 375.53 moveto
364.33 378.15 lineto
357.94 369.7 lineto
closepath fill
1 setlinewidth
solid
0.66667 1 1 edgecolor
newpath 354.06 375.53 moveto
364.33 378.15 lineto
357.94 369.7 lineto
closepath stroke
grestore
% 16
gsave
0.10588 1 1 nodecolor
657 598 27 18 ellipse_path fill
1 setlinewidth
filled
0.10588 1 1 nodecolor
657 598 27 18 ellipse_path stroke
0 0 0 nodecolor
14 /Times-Roman set_font
649.5 594.3 moveto 15 (16) alignedtext
grestore
% 16->1
gsave
1 setlinewidth
0 0 0 edgecolor
newpath 669.15 581.81 moveto
679.72 571.86 696.16 560.47 711.14 552.16 curveto
stroke
0 0 0 edgecolor
newpath 712.96 555.15 moveto
720.2 547.41 lineto
709.72 548.95 lineto
closepath fill
1 setlinewidth
solid
0 0 0 edgecolor
newpath 712.96 555.15 moveto
720.2 547.41 lineto
709.72 548.95 lineto
closepath stroke
grestore
% 16->1
gsave
1 setlinewidth
0.66667 1 1 edgecolor
newpath 677.53 586.02 moveto
689.38 578.74 704.7 569.34 717.84 561.28 curveto
stroke
0.66667 1 1 edgecolor
newpath 719.83 564.16 moveto
726.52 555.95 lineto
716.17 558.2 lineto
closepath fill
1 setlinewidth
solid
0.66667 1 1 edgecolor
newpath 719.83 564.16 moveto
726.52 555.95 lineto
716.17 558.2 lineto
closepath stroke
grestore
% 16->1
gsave
1 setlinewidth
0 0 0.82745 edgecolor
newpath 683.93 594.52 moveto
697.73 587.77 714.42 577.17 727.01 566.99 curveto
stroke
0 0 0.82745 edgecolor
newpath 729.35 569.6 moveto
734.62 560.41 lineto
724.77 564.3 lineto
closepath fill
1 setlinewidth
solid
0 0 0.82745 edgecolor
newpath 729.35 569.6 moveto
734.62 560.41 lineto
724.77 564.3 lineto
closepath stroke
grestore
% 25
gsave
0.10588 1 1 nodecolor
477 166 27 18 ellipse_path fill
1 setlinewidth
filled
0.10588 1 1 nodecolor
477 166 27 18 ellipse_path stroke
0 0 0 nodecolor
14 /Times-Roman set_font
469.5 162.3 moveto 15 (25) alignedtext
grestore
% 25->25
gsave
1 setlinewidth
0 0 0.82745 edgecolor
newpath 461.77 181.17 moveto
457.16 191.66 462.23 202 477 202 curveto
486.92 202 492.47 197.33 493.64 191.09 curveto
stroke
0 0 0.82745 edgecolor
newpath 497.1 190.57 moveto
492.23 181.17 lineto
490.17 191.56 lineto
closepath fill
1 setlinewidth
solid
0 0 0.82745 edgecolor
newpath 497.1 190.57 moveto
492.23 181.17 lineto
490.17 191.56 lineto
closepath stroke
grestore
% 31
gsave
1 setlinewidth
0 0 0 nodecolor
567 166 27 18 ellipse_path stroke
0 0 0 nodecolor
14 /Times-Roman set_font
560 162.3 moveto 14 (31) alignedtext
grestore
% 25->31
gsave
1 setlinewidth
0 0 0 edgecolor
newpath 502.51 159.88 moveto
511.4 159.27 521.62 159.1 531.22 159.38 curveto
stroke
0 0 0 edgecolor
newpath 531.16 162.88 moveto
541.31 159.86 lineto
531.49 155.89 lineto
closepath fill
1 setlinewidth
solid
0 0 0 edgecolor
newpath 531.16 162.88 moveto
541.31 159.86 lineto
531.49 155.89 lineto
closepath stroke
grestore
% 25->31
gsave
1 setlinewidth
0.66667 1 1 edgecolor
newpath 502.51 172.12 moveto
511.4 172.73 521.62 172.9 531.22 172.62 curveto
stroke
0.66667 1 1 edgecolor
newpath 531.49 176.11 moveto
541.31 172.14 lineto
531.16 169.12 lineto
closepath fill
1 setlinewidth
solid
0.66667 1 1 edgecolor
newpath 531.49 176.11 moveto
541.31 172.14 lineto
531.16 169.12 lineto
closepath stroke
grestore
% 36
gsave
0.10588 1 1 nodecolor
207 404 27 18 ellipse_path fill
1 setlinewidth
filled
0.10588 1 1 nodecolor
207 404 27 18 ellipse_path stroke
0 0 0 nodecolor
14 /Times-Roman set_font
199.5 400.3 moveto 15 (36) alignedtext
grestore
% 36->9
gsave
1 setlinewidth
0 0 0.82745 edgecolor
newpath 223.73 389.7 moveto
237.29 377.37 257.05 359.41 272.49 345.38 curveto
stroke
0 0 0.82745 edgecolor
newpath 275.06 347.76 moveto
280.11 338.45 lineto
270.35 342.59 lineto
closepath fill
1 setlinewidth
solid
0 0 0.82745 edgecolor
newpath 275.06 347.76 moveto
280.11 338.45 lineto
270.35 342.59 lineto
closepath stroke
grestore
% 36->13
gsave
1 setlinewidth
0 0 0 edgecolor
newpath 232.01 397.05 moveto
262.28 392.01 314.61 387.05 349.76 385.7 curveto
stroke
0 0 0 edgecolor
newpath 350.18 389.19 moveto
360.07 385.4 lineto
349.97 382.19 lineto
closepath fill
1 setlinewidth
solid
0 0 0 edgecolor
newpath 350.18 389.19 moveto
360.07 385.4 lineto
349.97 382.19 lineto
closepath stroke
grestore
% 36->13
gsave
1 setlinewidth
0.66667 1 1 edgecolor
newpath 233.88 406.6 moveto
265.08 406.04 317.59 401.49 352.02 396.49 curveto
stroke
0.66667 1 1 edgecolor
newpath 352.74 399.92 moveto
362.08 394.93 lineto
351.66 393.01 lineto
closepath fill
1 setlinewidth
solid
0.66667 1 1 edgecolor
newpath 352.74 399.92 moveto
362.08 394.93 lineto
351.66 393.01 lineto
closepath stroke
grestore
% 49
gsave
0.10588 1 1 nodecolor
117 1456 27 18 ellipse_path fill
1 setlinewidth
filled
0.10588 1 1 nodecolor
117 1456 27 18 ellipse_path stroke
0 0 0 nodecolor
14 /Times-Roman set_font
109 1452.3 moveto 16 (49) alignedtext
grestore
% 49->49
gsave
1 setlinewidth
0 0 0.82745 edgecolor
newpath 101.77 1471.17 moveto
97.16 1481.66 102.23 1492 117 1492 curveto
126.92 1492 132.47 1487.33 133.64 1481.09 curveto
stroke
0 0 0.82745 edgecolor
newpath 137.1 1480.57 moveto
132.23 1471.17 lineto
130.17 1481.56 lineto
closepath fill
1 setlinewidth
solid
0 0 0.82745 edgecolor
newpath 137.1 1480.57 moveto
132.23 1471.17 lineto
130.17 1481.56 lineto
closepath stroke
grestore
% 57
gsave
1 setlinewidth
0 0 0 nodecolor
207 1456 27 18 ellipse_path stroke
0 0 0 nodecolor
14 /Times-Roman set_font
199.5 1452.3 moveto 15 (57) alignedtext
grestore
% 49->57
gsave
1 setlinewidth
0 0 0 edgecolor
newpath 142.51 1449.88 moveto
151.4 1449.27 161.62 1449.1 171.22 1449.38 curveto
stroke
0 0 0 edgecolor
newpath 171.16 1452.88 moveto
181.31 1449.86 lineto
171.49 1445.89 lineto
closepath fill
1 setlinewidth
solid
0 0 0 edgecolor
newpath 171.16 1452.88 moveto
181.31 1449.86 lineto
171.49 1445.89 lineto
closepath stroke
grestore
% 49->57
gsave
1 setlinewidth
0.66667 1 1 edgecolor
newpath 142.51 1462.12 moveto
151.4 1462.73 161.62 1462.9 171.22 1462.62 curveto
stroke
0.66667 1 1 edgecolor
newpath 171.49 1466.11 moveto
181.31 1462.14 lineto
171.16 1459.12 lineto
closepath fill
1 setlinewidth
solid
0.66667 1 1 edgecolor
newpath 171.49 1466.11 moveto
181.31 1462.14 lineto
171.16 1459.12 lineto
closepath stroke
grestore
% 2
gsave
1 setlinewidth
0 0 0 nodecolor
657 544 27 18 ellipse_path stroke
0 0 0 nodecolor
14 /Times-Roman set_font
653.5 540.3 moveto 7 (2) alignedtext
grestore
% 2->1
gsave
1 setlinewidth
0 0 0 edgecolor
newpath 677.97 532.48 moveto
689.22 530.41 703.5 529.97 716.06 531.13 curveto
stroke
0 0 0 edgecolor
newpath 715.73 534.62 moveto
726.11 532.49 lineto
716.67 527.68 lineto
closepath fill
1 setlinewidth
solid
0 0 0 edgecolor
newpath 715.73 534.62 moveto
726.11 532.49 lineto
716.67 527.68 lineto
closepath stroke
grestore
% 2->1
gsave
1 setlinewidth
0.66667 1 1 edgecolor
newpath 684.4 544 moveto
692.39 544 701.31 544 709.82 544 curveto
stroke
0.66667 1 1 edgecolor
newpath 709.92 547.5 moveto
719.92 544 lineto
709.92 540.5 lineto
closepath fill
1 setlinewidth
solid
0.66667 1 1 edgecolor
newpath 709.92 547.5 moveto
719.92 544 lineto
709.92 540.5 lineto
closepath stroke
grestore
% 2->1
gsave
1 setlinewidth
0 0 0.82745 edgecolor
newpath 677.97 555.52 moveto
689.22 557.59 703.5 558.03 716.06 556.87 curveto
stroke
0 0 0.82745 edgecolor
newpath 716.67 560.32 moveto
726.11 555.51 lineto
715.73 553.38 lineto
closepath fill
1 setlinewidth
solid
0 0 0.82745 edgecolor
newpath 716.67 560.32 moveto
726.11 555.51 lineto
715.73 553.38 lineto
closepath stroke
grestore
% 3
gsave
1 setlinewidth
0 0 0 nodecolor
567 1010 27 18 ellipse_path stroke
0 0 0 nodecolor
14 /Times-Roman set_font
563.5 1006.3 moveto 7 (3) alignedtext
grestore
% 3->1
gsave
1 setlinewidth
0.66667 1 1 edgecolor
newpath 571.68 992.09 moveto
578.98 959.22 597.5 887.92 630 836 curveto
648.18 806.96 667.1 810.8 684 781 curveto
722.95 712.34 738.01 618.65 743.35 572.32 curveto
stroke
0.66667 1 1 edgecolor
newpath 746.86 572.45 moveto
744.45 562.13 lineto
739.9 571.69 lineto
closepath fill
1 setlinewidth
solid
0.66667 1 1 edgecolor
newpath 746.86 572.45 moveto
744.45 562.13 lineto
739.9 571.69 lineto
closepath stroke
grestore
% 3->4
gsave
1 setlinewidth
0 0 0 edgecolor
newpath 577.92 993.42 moveto
593.24 967.84 622.75 918.54 640.78 888.42 curveto
stroke
0 0 0 edgecolor
newpath 643.84 890.12 moveto
645.98 879.74 lineto
637.84 886.52 lineto
closepath fill
1 setlinewidth
solid
0 0 0 edgecolor
newpath 643.84 890.12 moveto
645.98 879.74 lineto
637.84 886.52 lineto
closepath stroke
grestore
% 3->3
gsave
1 setlinewidth
0 0 0.82745 edgecolor
newpath 551.77 1025.17 moveto
547.16 1035.66 552.23 1046 567 1046 curveto
576.92 1046 582.47 1041.33 583.64 1035.09 curveto
stroke
0 0 0.82745 edgecolor
newpath 587.1 1034.57 moveto
582.23 1025.17 lineto
580.17 1035.56 lineto
closepath fill
1 setlinewidth
solid
0 0 0.82745 edgecolor
newpath 587.1 1034.57 moveto
582.23 1025.17 lineto
580.17 1035.56 lineto
closepath stroke
grestore
% 5
gsave
1 setlinewidth
0 0 0 nodecolor
387 1500 27 18 ellipse_path stroke
0 0 0 nodecolor
14 /Times-Roman set_font
383 1496.3 moveto 8 (5) alignedtext
grestore
% 5->3
gsave
1 setlinewidth
0.66667 1 1 edgecolor
newpath 411 1491.7 moveto
438.01 1480.67 481.92 1458.46 504 1424 curveto
545.27 1359.58 560.59 1121.08 564.73 1038.43 curveto
stroke
0.66667 1 1 edgecolor
newpath 568.24 1038.42 moveto
565.22 1028.26 lineto
561.25 1038.08 lineto
closepath fill
1 setlinewidth
solid
0.66667 1 1 edgecolor
newpath 568.24 1038.42 moveto
565.22 1028.26 lineto
561.25 1038.08 lineto
closepath stroke
grestore
% 5->5
gsave
1 setlinewidth
0 0 0.82745 edgecolor
newpath 371.77 1515.17 moveto
367.16 1525.66 372.23 1536 387 1536 curveto
396.92 1536 402.47 1531.33 403.64 1525.09 curveto
stroke
0 0 0.82745 edgecolor
newpath 407.1 1524.57 moveto
402.23 1515.17 lineto
400.17 1525.56 lineto
closepath fill
1 setlinewidth
solid
0 0 0.82745 edgecolor
newpath 407.1 1524.57 moveto
402.23 1515.17 lineto
400.17 1525.56 lineto
closepath stroke
grestore
% 6
gsave
1 setlinewidth
0 0 0 nodecolor
477 1397 27 18 ellipse_path stroke
0 0 0 nodecolor
14 /Times-Roman set_font
473 1393.3 moveto 8 (6) alignedtext
grestore
% 5->6
gsave
1 setlinewidth
0 0 0 edgecolor
newpath 401.37 1484.36 moveto
415.92 1467.32 439.36 1439.89 456.09 1420.31 curveto
stroke
0 0 0 edgecolor
newpath 458.96 1422.33 moveto
462.8 1412.45 lineto
453.64 1417.78 lineto
closepath fill
1 setlinewidth
solid
0 0 0 edgecolor
newpath 458.96 1422.33 moveto
462.8 1412.45 lineto
453.64 1417.78 lineto
closepath stroke
grestore
% 6->1
gsave
1 setlinewidth
0.66667 1 1 edgecolor
newpath 487.36 1380.21 moveto
507.54 1343.88 556.34 1255.07 594 1179 curveto
636.53 1093.1 657.01 1074.98 684 983 curveto
728.12 832.62 741.28 643.75 744.82 572.74 curveto
stroke
0.66667 1 1 edgecolor
newpath 748.33 572.53 moveto
745.3 562.38 lineto
741.34 572.2 lineto
closepath fill
1 setlinewidth
solid
0.66667 1 1 edgecolor
newpath 748.33 572.53 moveto
745.3 562.38 lineto
741.34 572.2 lineto
closepath stroke
grestore
% 6->4
gsave
1 setlinewidth
0 0 0 edgecolor
newpath 486.53 1379.96 moveto
507.34 1337.82 561.44 1224.93 594 1126 curveto
621.61 1042.11 642.14 939.37 651.07 890.88 curveto
stroke
0 0 0 edgecolor
newpath 654.55 891.3 moveto
652.9 880.84 lineto
647.67 890.05 lineto
closepath fill
1 setlinewidth
solid
0 0 0 edgecolor
newpath 654.55 891.3 moveto
652.9 880.84 lineto
647.67 890.05 lineto
closepath stroke
grestore
% 6->3
gsave
1 setlinewidth
0 0 0.82745 edgecolor
newpath 483.85 1379.34 moveto
489.46 1362.05 497.94 1334.89 504 1311 curveto
529.21 1211.57 551.52 1091.72 561.07 1038.2 curveto
stroke
0 0 0.82745 edgecolor
newpath 564.56 1038.57 moveto
562.86 1028.11 lineto
557.67 1037.35 lineto
closepath fill
1 setlinewidth
solid
0 0 0.82745 edgecolor
newpath 564.56 1038.57 moveto
562.86 1028.11 lineto
557.67 1037.35 lineto
closepath stroke
grestore
% 7
gsave
1 setlinewidth
0 0 0 nodecolor
567 402 27 18 ellipse_path stroke
0 0 0 nodecolor
14 /Times-Roman set_font
563.5 398.3 moveto 7 (7) alignedtext
grestore
% 7->1
gsave
1 setlinewidth
0.66667 1 1 edgecolor
newpath 587.13 414.22 moveto
610.68 429.54 651.53 457.08 684 484 curveto
698.19 495.76 713.06 510.08 724.68 521.78 curveto
stroke
0.66667 1 1 edgecolor
newpath 722.31 524.35 moveto
731.81 529.03 lineto
727.3 519.45 lineto
closepath fill
1 setlinewidth
solid
0.66667 1 1 edgecolor
newpath 722.31 524.35 moveto
731.81 529.03 lineto
727.3 519.45 lineto
closepath stroke
grestore
% 7->7
gsave
1 setlinewidth
0 0 0.82745 edgecolor
newpath 551.77 417.17 moveto
547.16 427.66 552.23 438 567 438 curveto
576.92 438 582.47 433.33 583.64 427.09 curveto
stroke
0 0 0.82745 edgecolor
newpath 587.1 426.57 moveto
582.23 417.17 lineto
580.17 427.56 lineto
closepath fill
1 setlinewidth
solid
0 0 0.82745 edgecolor
newpath 587.1 426.57 moveto
582.23 417.17 lineto
580.17 427.56 lineto
closepath stroke
grestore
% 8
gsave
1 setlinewidth
0 0 0 nodecolor
657 414 27 18 ellipse_path stroke
0 0 0 nodecolor
14 /Times-Roman set_font
653.5 410.3 moveto 7 (8) alignedtext
grestore
% 7->8
gsave
1 setlinewidth
0 0 0 edgecolor
newpath 593.93 405.54 moveto
602.16 406.66 611.42 407.92 620.22 409.12 curveto
stroke
0 0 0 edgecolor
newpath 619.88 412.61 moveto
630.26 410.49 lineto
620.82 405.67 lineto
closepath fill
1 setlinewidth
solid
0 0 0 edgecolor
newpath 619.88 412.61 moveto
630.26 410.49 lineto
620.82 405.67 lineto
closepath stroke
grestore
% 8->1
gsave
1 setlinewidth
0 0 0 edgecolor
newpath 680.35 423.09 moveto
681.61 424.72 682.83 426.37 684 428 curveto
704.44 456.43 725.72 491.46 737.27 516.65 curveto
stroke
0 0 0 edgecolor
newpath 734.17 518.31 moveto
741.33 526.12 lineto
740.6 515.55 lineto
closepath fill
1 setlinewidth
solid
0 0 0 edgecolor
newpath 734.17 518.31 moveto
741.33 526.12 lineto
740.6 515.55 lineto
closepath stroke
grestore
% 8->1
gsave
1 setlinewidth
0.66667 1 1 edgecolor
newpath 671.34 429.66 moveto
675.52 434.77 680.07 440.54 684 446 curveto
701.22 469.96 719.04 498.6 731.14 518.72 curveto
stroke
0.66667 1 1 edgecolor
newpath 728.13 520.52 moveto
736.27 527.31 lineto
734.15 516.93 lineto
closepath fill
1 setlinewidth
solid
0.66667 1 1 edgecolor
newpath 728.13 520.52 moveto
736.27 527.31 lineto
734.15 516.93 lineto
closepath stroke
grestore
% 8->1
gsave
1 setlinewidth
0 0 0.82745 edgecolor
newpath 662.43 431.79 moveto
667.76 443.25 676.9 454.12 684 464 curveto
697.68 483.04 711.74 505.03 723.01 521.66 curveto
stroke
0 0 0.82745 edgecolor
newpath 720.4 524.04 moveto
728.96 530.29 lineto
726.17 520.07 lineto
closepath fill
1 setlinewidth
solid
0 0 0.82745 edgecolor
newpath 720.4 524.04 moveto
728.96 530.29 lineto
726.17 520.07 lineto
closepath stroke
grestore
% 13->7
gsave
1 setlinewidth
0.66667 1 1 edgecolor
newpath 413.88 390.04 moveto
444.47 392.44 495.54 396.46 529.97 399.17 curveto
stroke
0.66667 1 1 edgecolor
newpath 529.84 402.67 moveto
540.09 399.96 lineto
530.39 395.69 lineto
closepath fill
1 setlinewidth
solid
0.66667 1 1 edgecolor
newpath 529.84 402.67 moveto
540.09 399.96 lineto
530.39 395.69 lineto
closepath stroke
grestore
% 13->13
gsave
1 setlinewidth
0 0 0.82745 edgecolor
newpath 371.77 403.17 moveto
367.16 413.66 372.23 424 387 424 curveto
396.92 424 402.47 419.33 403.64 413.09 curveto
stroke
0 0 0.82745 edgecolor
newpath 407.1 412.57 moveto
402.23 403.17 lineto
400.17 413.56 lineto
closepath fill
1 setlinewidth
solid
0 0 0.82745 edgecolor
newpath 407.1 412.57 moveto
402.23 403.17 lineto
400.17 413.56 lineto
closepath stroke
grestore
% 14
gsave
1 setlinewidth
0 0 0 nodecolor
477 498 27 18 ellipse_path stroke
0 0 0 nodecolor
14 /Times-Roman set_font
469 494.3 moveto 16 (14) alignedtext
grestore
% 13->14
gsave
1 setlinewidth
0 0 0 edgecolor
newpath 400.61 403.76 moveto
415.38 422.22 439.99 452.99 457.06 474.32 curveto
stroke
0 0 0 edgecolor
newpath 454.44 476.65 moveto
463.42 482.27 lineto
459.9 472.27 lineto
closepath fill
1 setlinewidth
solid
0 0 0 edgecolor
newpath 454.44 476.65 moveto
463.42 482.27 lineto
459.9 472.27 lineto
closepath stroke
grestore
% 10
gsave
1 setlinewidth
0 0 0 nodecolor
297 1413 27 18 ellipse_path stroke
0 0 0 nodecolor
14 /Times-Roman set_font
289.5 1409.3 moveto 15 (10) alignedtext
grestore
% 10->3
gsave
1 setlinewidth
0.66667 1 1 edgecolor
newpath 314.44 1399.17 moveto
318.13 1395.28 321.65 1390.79 324 1386 curveto
372.16 1288.02 299.28 1233.74 360 1143 curveto
370.36 1127.51 488.55 1067.42 504 1057 curveto
516.49 1048.57 529.87 1038.56 540.99 1029.95 curveto
stroke
0.66667 1 1 edgecolor
newpath 543.28 1032.61 moveto
549 1023.69 lineto
538.97 1027.09 lineto
closepath fill
1 setlinewidth
solid
0.66667 1 1 edgecolor
newpath 543.28 1032.61 moveto
549 1023.69 lineto
538.97 1027.09 lineto
closepath stroke
grestore
% 10->5
gsave
1 setlinewidth
0 0 0.82745 edgecolor
newpath 312.93 1427.76 moveto
326.83 1441.51 347.75 1462.19 363.65 1477.9 curveto
stroke
0 0 0.82745 edgecolor
newpath 361.43 1480.63 moveto
371 1485.17 lineto
366.35 1475.65 lineto
closepath fill
1 setlinewidth
solid
0 0 0.82745 edgecolor
newpath 361.43 1480.63 moveto
371 1485.17 lineto
366.35 1475.65 lineto
closepath stroke
grestore
% 10->6
gsave
1 setlinewidth
0 0 0 edgecolor
newpath 320.93 1421.56 moveto
344.52 1429.17 382.21 1437.93 414 1430 curveto
426.17 1426.96 438.57 1421.04 449.05 1415.04 curveto
stroke
0 0 0 edgecolor
newpath 450.96 1417.98 moveto
457.71 1409.81 lineto
447.34 1411.98 lineto
closepath fill
1 setlinewidth
solid
0 0 0 edgecolor
newpath 450.96 1417.98 moveto
457.71 1409.81 lineto
447.34 1411.98 lineto
closepath stroke
grestore
% 11
gsave
1 setlinewidth
0 0 0 nodecolor
387 908 27 18 ellipse_path stroke
0 0 0 nodecolor
14 /Times-Roman set_font
380 904.3 moveto 14 (11) alignedtext
grestore
% 11->3
gsave
1 setlinewidth
0.66667 1 1 edgecolor
newpath 408.07 919.5 moveto
439.54 937.53 500.62 972.54 536.91 993.33 curveto
stroke
0.66667 1 1 edgecolor
newpath 535.58 996.6 moveto
546 998.54 lineto
539.06 990.53 lineto
closepath fill
1 setlinewidth
solid
0.66667 1 1 edgecolor
newpath 535.58 996.6 moveto
546 998.54 lineto
539.06 990.53 lineto
closepath stroke
grestore
% 11->11
gsave
1 setlinewidth
0 0 0.82745 edgecolor
newpath 371.77 923.17 moveto
367.16 933.66 372.23 944 387 944 curveto
396.92 944 402.47 939.33 403.64 933.09 curveto
stroke
0 0 0.82745 edgecolor
newpath 407.1 932.57 moveto
402.23 923.17 lineto
400.17 933.56 lineto
closepath fill
1 setlinewidth
solid
0 0 0.82745 edgecolor
newpath 407.1 932.57 moveto
402.23 923.17 lineto
400.17 933.56 lineto
closepath stroke
grestore
% 12
gsave
1 setlinewidth
0 0 0 nodecolor
477 889 27 18 ellipse_path stroke
0 0 0 nodecolor
14 /Times-Roman set_font
470 885.3 moveto 14 (12) alignedtext
grestore
% 11->12
gsave
1 setlinewidth
0 0 0 edgecolor
newpath 412.98 902.61 moveto
421.71 900.72 431.68 898.57 441.08 896.54 curveto
stroke
0 0 0 edgecolor
newpath 441.92 899.94 moveto
450.96 894.41 lineto
440.44 893.1 lineto
closepath fill
1 setlinewidth
solid
0 0 0 edgecolor
newpath 441.92 899.94 moveto
450.96 894.41 lineto
440.44 893.1 lineto
closepath stroke
grestore
% 12->1
gsave
1 setlinewidth
0.66667 1 1 edgecolor
newpath 492.46 873.96 moveto
527.49 837.13 618.86 738.78 684 648 curveto
702.25 622.56 720.26 591.51 732.12 570 curveto
stroke
0.66667 1 1 edgecolor
newpath 735.25 571.58 moveto
736.96 561.12 lineto
729.1 568.22 lineto
closepath fill
1 setlinewidth
solid
0.66667 1 1 edgecolor
newpath 735.25 571.58 moveto
736.96 561.12 lineto
729.1 568.22 lineto
closepath stroke
grestore
% 12->4
gsave
1 setlinewidth
0 0 0 edgecolor
newpath 503.5 885.27 moveto
534.17 880.8 585.82 873.25 620.4 868.2 curveto
stroke
0 0 0 edgecolor
newpath 621.16 871.63 moveto
630.54 866.72 lineto
620.14 864.7 lineto
closepath fill
1 setlinewidth
solid
0 0 0 edgecolor
newpath 621.16 871.63 moveto
630.54 866.72 lineto
620.14 864.7 lineto
closepath stroke
grestore
% 12->3
gsave
1 setlinewidth
0 0 0.82745 edgecolor
newpath 489.87 905.32 moveto
504.91 926 530.97 961.83 548.35 985.73 curveto
stroke
0 0 0.82745 edgecolor
newpath 545.61 987.91 moveto
554.32 993.94 lineto
551.27 983.79 lineto
closepath fill
1 setlinewidth
solid
0 0 0.82745 edgecolor
newpath 545.61 987.91 moveto
554.32 993.94 lineto
551.27 983.79 lineto
closepath stroke
grestore
% 14->1
gsave
1 setlinewidth
0.66667 1 1 edgecolor
newpath 504.14 497.77 moveto
543.7 498.01 620.86 500.79 684 517 curveto
694.86 519.79 706.24 524.25 716.25 528.75 curveto
stroke
0.66667 1 1 edgecolor
newpath 714.82 531.95 moveto
725.36 533.03 lineto
717.79 525.61 lineto
closepath fill
1 setlinewidth
solid
0.66667 1 1 edgecolor
newpath 714.82 531.95 moveto
725.36 533.03 lineto
717.79 525.61 lineto
closepath stroke
grestore
% 14->7
gsave
1 setlinewidth
0 0 0.82745 edgecolor
newpath 492.14 482.58 moveto
506.46 466.95 528.78 442.6 545.14 424.76 curveto
stroke
0 0 0.82745 edgecolor
newpath 548.01 426.81 moveto
552.19 417.07 lineto
542.85 422.08 lineto
closepath fill
1 setlinewidth
solid
0 0 0.82745 edgecolor
newpath 548.01 426.81 moveto
552.19 417.07 lineto
542.85 422.08 lineto
closepath stroke
grestore
% 14->8
gsave
1 setlinewidth
0 0 0 edgecolor
newpath 500.46 488.71 moveto
524 478.85 561.93 462.56 594 447 curveto
604.84 441.74 616.54 435.63 626.83 430.11 curveto
stroke
0 0 0 edgecolor
newpath 628.69 433.08 moveto
635.81 425.24 lineto
625.35 426.92 lineto
closepath fill
1 setlinewidth
solid
0 0 0 edgecolor
newpath 628.69 433.08 moveto
635.81 425.24 lineto
625.35 426.92 lineto
closepath stroke
grestore
% 15
gsave
1 setlinewidth
0 0 0 nodecolor
387 536 27 18 ellipse_path stroke
0 0 0 nodecolor
14 /Times-Roman set_font
379.5 532.3 moveto 15 (15) alignedtext
grestore
% 15->3
gsave
1 setlinewidth
0.66667 1 1 edgecolor
newpath 410.51 545.08 moveto
437.45 557.21 481.73 581.39 504 617 curveto
542.3 678.25 559.4 901.76 564.38 981.5 curveto
stroke
0.66667 1 1 edgecolor
newpath 560.9 981.99 moveto
565 991.76 lineto
567.89 981.57 lineto
closepath fill
1 setlinewidth
solid
0.66667 1 1 edgecolor
newpath 560.9 981.99 moveto
565 991.76 lineto
567.89 981.57 lineto
closepath stroke
grestore
% 15->15
gsave
1 setlinewidth
0 0 0.82745 edgecolor
newpath 371.77 551.17 moveto
367.16 561.66 372.23 572 387 572 curveto
396.92 572 402.47 567.33 403.64 561.09 curveto
stroke
0 0 0.82745 edgecolor
newpath 407.1 560.57 moveto
402.23 551.17 lineto
400.17 561.56 lineto
closepath fill
1 setlinewidth
solid
0 0 0.82745 edgecolor
newpath 407.1 560.57 moveto
402.23 551.17 lineto
400.17 561.56 lineto
closepath stroke
grestore
% 24
gsave
1 setlinewidth
0 0 0 nodecolor
477 644 27 18 ellipse_path stroke
0 0 0 nodecolor
14 /Times-Roman set_font
469 640.3 moveto 16 (24) alignedtext
grestore
% 15->24
gsave
1 setlinewidth
0 0 0 edgecolor
newpath 400.98 551.94 moveto
415.69 569.99 439.81 599.58 456.71 620.33 curveto
stroke
0 0 0 edgecolor
newpath 454.22 622.81 moveto
463.25 628.35 lineto
459.64 618.39 lineto
closepath fill
1 setlinewidth
solid
0 0 0 edgecolor
newpath 454.22 622.81 moveto
463.25 628.35 lineto
459.64 618.39 lineto
closepath stroke
grestore
% 24->1
gsave
1 setlinewidth
0.66667 1 1 edgecolor
newpath 503.66 647.88 moveto
544.6 652.77 626 657.04 684 625 curveto
706.15 612.77 722.88 588.96 733.35 570.31 curveto
stroke
0.66667 1 1 edgecolor
newpath 736.5 571.85 moveto
738.12 561.38 lineto
730.32 568.55 lineto
closepath fill
1 setlinewidth
solid
0.66667 1 1 edgecolor
newpath 736.5 571.85 moveto
738.12 561.38 lineto
730.32 568.55 lineto
closepath stroke
grestore
% 24->4
gsave
1 setlinewidth
0 0 0 edgecolor
newpath 490.8 659.75 moveto
521.66 697.71 600.27 794.43 636.8 839.38 curveto
stroke
0 0 0 edgecolor
newpath 634.29 841.84 moveto
643.31 847.39 lineto
639.72 837.43 lineto
closepath fill
1 setlinewidth
solid
0 0 0 edgecolor
newpath 634.29 841.84 moveto
643.31 847.39 lineto
639.72 837.43 lineto
closepath stroke
grestore
% 24->3
gsave
1 setlinewidth
0 0 0.82745 edgecolor
newpath 489.57 660.04 moveto
494.69 667.84 500.37 677.55 504 687 curveto
544.01 791.16 559.06 924.5 563.95 981.78 curveto
stroke
0 0 0.82745 edgecolor
newpath 560.47 982.2 moveto
564.77 991.89 lineto
567.45 981.63 lineto
closepath fill
1 setlinewidth
solid
0 0 0.82745 edgecolor
newpath 560.47 982.2 moveto
564.77 991.89 lineto
567.45 981.63 lineto
closepath stroke
grestore
% 17
gsave
1 setlinewidth
0 0 0 nodecolor
117 256 27 18 ellipse_path stroke
0 0 0 nodecolor
14 /Times-Roman set_font
110 252.3 moveto 14 (17) alignedtext
grestore
% 17->9
gsave
1 setlinewidth
0.66667 1 1 edgecolor
newpath 140.91 264.75 moveto
172.15 276.69 228.28 298.13 263.76 311.68 curveto
stroke
0.66667 1 1 edgecolor
newpath 262.59 314.98 moveto
273.18 315.28 lineto
265.09 308.44 lineto
closepath fill
1 setlinewidth
solid
0.66667 1 1 edgecolor
newpath 262.59 314.98 moveto
273.18 315.28 lineto
265.09 308.44 lineto
closepath stroke
grestore
% 17->17
gsave
1 setlinewidth
0 0 0.82745 edgecolor
newpath 101.77 271.17 moveto
97.16 281.66 102.23 292 117 292 curveto
126.92 292 132.47 287.33 133.64 281.09 curveto
stroke
0 0 0.82745 edgecolor
newpath 137.1 280.57 moveto
132.23 271.17 lineto
130.17 281.56 lineto
closepath fill
1 setlinewidth
solid
0 0 0.82745 edgecolor
newpath 137.1 280.57 moveto
132.23 271.17 lineto
130.17 281.56 lineto
closepath stroke
grestore
% 18
gsave
1 setlinewidth
0 0 0 nodecolor
207 236 27 18 ellipse_path stroke
0 0 0 nodecolor
14 /Times-Roman set_font
200 232.3 moveto 14 (18) alignedtext
grestore
% 17->18
gsave
1 setlinewidth
0 0 0 edgecolor
newpath 142.98 250.32 moveto
151.79 248.32 161.85 246.03 171.32 243.88 curveto
stroke
0 0 0 edgecolor
newpath 172.28 247.25 moveto
181.26 241.62 lineto
170.73 240.43 lineto
closepath fill
1 setlinewidth
solid
0 0 0 edgecolor
newpath 172.28 247.25 moveto
181.26 241.62 lineto
170.73 240.43 lineto
closepath stroke
grestore
% 18->9
gsave
1 setlinewidth
0 0 0.82745 edgecolor
newpath 222.93 250.93 moveto
236.92 264.92 258.01 286.01 273.94 301.94 curveto
stroke
0 0 0.82745 edgecolor
newpath 271.75 304.7 moveto
281.29 309.29 lineto
276.7 299.75 lineto
closepath fill
1 setlinewidth
solid
0 0 0.82745 edgecolor
newpath 271.75 304.7 moveto
281.29 309.29 lineto
276.7 299.75 lineto
closepath stroke
grestore
% 18->13
gsave
1 setlinewidth
0 0 0 edgecolor
newpath 234.17 237.93 moveto
259.59 245.36 298.06 262.78 324 288 curveto
347.4 310.75 340.52 325.81 360 352 curveto
362.91 355.91 366.33 359.84 369.73 363.67 curveto
stroke
0 0 0 edgecolor
newpath 367.25 366.15 moveto
376.48 371.35 lineto
372.51 361.52 lineto
closepath fill
1 setlinewidth
solid
0 0 0 edgecolor
newpath 367.25 366.15 moveto
376.48 371.35 lineto
372.51 361.52 lineto
closepath stroke
grestore
% 18->13
gsave
1 setlinewidth
0.66667 1 1 edgecolor
newpath 226.92 248.25 moveto
251.73 259.93 295.45 278.24 324 306 curveto
345.3 326.7 341.52 341.04 359.54 368.32 curveto
stroke
0.66667 1 1 edgecolor
newpath 356.91 370.67 moveto
365.56 376.8 lineto
362.62 366.62 lineto
closepath fill
1 setlinewidth
solid
0.66667 1 1 edgecolor
newpath 356.91 370.67 moveto
365.56 376.8 lineto
362.62 366.62 lineto
closepath stroke
grestore
% 19
gsave
1 setlinewidth
0 0 0 nodecolor
207 1581 27 18 ellipse_path stroke
0 0 0 nodecolor
14 /Times-Roman set_font
199.5 1577.3 moveto 15 (19) alignedtext
grestore
% 19->5
gsave
1 setlinewidth
0.66667 1 1 edgecolor
newpath 233.5 1577 moveto
257.74 1572.5 294.74 1563.82 324 1549 curveto
338.18 1541.81 352.23 1531.09 363.35 1521.51 curveto
stroke
0.66667 1 1 edgecolor
newpath 365.75 1524.06 moveto
370.9 1514.8 lineto
361.1 1518.83 lineto
closepath fill
1 setlinewidth
solid
0.66667 1 1 edgecolor
newpath 365.75 1524.06 moveto
370.9 1514.8 lineto
361.1 1518.83 lineto
closepath stroke
grestore
% 19->19
gsave
1 setlinewidth
0 0 0.82745 edgecolor
newpath 191.77 1596.17 moveto
187.16 1606.66 192.23 1617 207 1617 curveto
216.92 1617 222.47 1612.33 223.64 1606.09 curveto
stroke
0 0 0.82745 edgecolor
newpath 227.1 1605.57 moveto
222.23 1596.17 lineto
220.17 1606.56 lineto
closepath fill
1 setlinewidth
solid
0 0 0.82745 edgecolor
newpath 227.1 1605.57 moveto
222.23 1596.17 lineto
220.17 1606.56 lineto
closepath stroke
grestore
% 20
gsave
1 setlinewidth
0 0 0 nodecolor
297 1619 27 18 ellipse_path stroke
0 0 0 nodecolor
14 /Times-Roman set_font
289.5 1615.3 moveto 15 (20) alignedtext
grestore
% 19->20
gsave
1 setlinewidth
0 0 0 edgecolor
newpath 230.21 1590.59 moveto
240.63 1595.09 253.23 1600.53 264.61 1605.44 curveto
stroke
0 0 0 edgecolor
newpath 263.23 1608.66 moveto
273.8 1609.41 lineto
266.01 1602.24 lineto
closepath fill
1 setlinewidth
solid
0 0 0 edgecolor
newpath 263.23 1608.66 moveto
273.8 1609.41 lineto
266.01 1602.24 lineto
closepath stroke
grestore
% 20->3
gsave
1 setlinewidth
0.66667 1 1 edgecolor
newpath 323.53 1614.94 moveto
348.47 1610 386.58 1599.73 414 1580 curveto
467.82 1541.27 478.66 1522.28 504 1461 curveto
536.07 1383.43 557.61 1124.08 564.01 1038.02 curveto
stroke
0.66667 1 1 edgecolor
newpath 567.51 1038.19 moveto
564.75 1027.96 lineto
560.53 1037.68 lineto
closepath fill
1 setlinewidth
solid
0.66667 1 1 edgecolor
newpath 567.51 1038.19 moveto
564.75 1027.96 lineto
560.53 1037.68 lineto
closepath stroke
grestore
% 20->5
gsave
1 setlinewidth
0 0 0.82745 edgecolor
newpath 310.9 1603.53 moveto
315.14 1598.33 319.84 1592.47 324 1587 curveto
339.69 1566.39 356.71 1542.38 368.95 1524.8 curveto
stroke
0 0 0.82745 edgecolor
newpath 372.05 1526.47 moveto
374.87 1516.26 lineto
366.3 1522.48 lineto
closepath fill
1 setlinewidth
solid
0 0 0.82745 edgecolor
newpath 372.05 1526.47 moveto
374.87 1516.26 lineto
366.3 1522.48 lineto
closepath stroke
grestore
% 20->6
gsave
1 setlinewidth
0 0 0 edgecolor
newpath 320.53 1609.66 moveto
346.27 1597.97 388.15 1575.7 414 1545 curveto
444.15 1509.2 461.43 1456.64 469.75 1424.75 curveto
stroke
0 0 0 edgecolor
newpath 473.21 1425.32 moveto
472.23 1414.77 lineto
466.42 1423.63 lineto
closepath fill
1 setlinewidth
solid
0 0 0 edgecolor
newpath 473.21 1425.32 moveto
472.23 1414.77 lineto
466.42 1423.63 lineto
closepath stroke
grestore
% 21
gsave
1 setlinewidth
0 0 0 nodecolor
567 18 27 18 ellipse_path stroke
0 0 0 nodecolor
14 /Times-Roman set_font
560 14.3 moveto 14 (21) alignedtext
grestore
% 21->1
gsave
1 setlinewidth
0.66667 1 1 edgecolor
newpath 593.78 21.61 moveto
620.82 26.85 662.33 39.3 684 68 curveto
737.8 139.26 744.97 424.75 745.88 515.88 curveto
stroke
0.66667 1 1 edgecolor
newpath 742.38 516.04 moveto
745.97 526.01 lineto
749.38 515.98 lineto
closepath fill
1 setlinewidth
solid
0.66667 1 1 edgecolor
newpath 742.38 516.04 moveto
745.97 526.01 lineto
749.38 515.98 lineto
closepath stroke
grestore
% 21->21
gsave
1 setlinewidth
0 0 0.82745 edgecolor
newpath 551.77 33.17 moveto
547.16 43.66 552.23 54 567 54 curveto
576.92 54 582.47 49.33 583.64 43.09 curveto
stroke
0 0 0.82745 edgecolor
newpath 587.1 42.57 moveto
582.23 33.17 lineto
580.17 43.56 lineto
closepath fill
1 setlinewidth
solid
0 0 0.82745 edgecolor
newpath 587.1 42.57 moveto
582.23 33.17 lineto
580.17 43.56 lineto
closepath stroke
grestore
% 32
gsave
1 setlinewidth
0 0 0 nodecolor
657 158 27 18 ellipse_path stroke
0 0 0 nodecolor
14 /Times-Roman set_font
650 154.3 moveto 14 (32) alignedtext
grestore
% 21->32
gsave
1 setlinewidth
0 0 0 edgecolor
newpath 578.44 34.61 moveto
593.72 58.92 622.3 104.39 640.18 132.83 curveto
stroke
0 0 0 edgecolor
newpath 637.29 134.81 moveto
645.57 141.41 lineto
643.21 131.08 lineto
closepath fill
1 setlinewidth
solid
0 0 0 edgecolor
newpath 637.29 134.81 moveto
645.57 141.41 lineto
643.21 131.08 lineto
closepath stroke
grestore
% 32->1
gsave
1 setlinewidth
0 0 0 edgecolor
newpath 681.16 166.62 moveto
682.21 168.37 683.17 170.18 684 172 curveto
737.84 290.06 745.12 449.93 745.96 515.41 curveto
stroke
0 0 0 edgecolor
newpath 742.46 515.83 moveto
746.05 525.8 lineto
749.46 515.77 lineto
closepath fill
1 setlinewidth
solid
0 0 0 edgecolor
newpath 742.46 515.83 moveto
746.05 525.8 lineto
749.46 515.77 lineto
closepath stroke
grestore
% 32->1
gsave
1 setlinewidth
0.66667 1 1 edgecolor
newpath 672.7 172.87 moveto
676.96 177.94 681.21 183.88 684 190 curveto
735.41 302.73 744.37 453.57 745.8 515.57 curveto
stroke
0.66667 1 1 edgecolor
newpath 742.3 515.82 moveto
745.98 525.75 lineto
749.3 515.69 lineto
closepath fill
1 setlinewidth
solid
0.66667 1 1 edgecolor
newpath 742.3 515.82 moveto
745.98 525.75 lineto
749.3 515.69 lineto
closepath stroke
grestore
% 32->1
gsave
1 setlinewidth
0 0 0.82745 edgecolor
newpath 663.34 175.78 moveto
669.37 186.7 679.01 197.06 684 208 curveto
732.62 314.62 743.27 455.33 745.5 515.62 curveto
stroke
0 0 0.82745 edgecolor
newpath 742.01 516.03 moveto
745.82 525.91 lineto
749 515.81 lineto
closepath fill
1 setlinewidth
solid
0 0 0.82745 edgecolor
newpath 742.01 516.03 moveto
745.82 525.91 lineto
749 515.81 lineto
closepath stroke
grestore
% 22
gsave
1 setlinewidth
0 0 0 nodecolor
297 862 27 18 ellipse_path stroke
0 0 0 nodecolor
14 /Times-Roman set_font
290 858.3 moveto 14 (22) alignedtext
grestore
% 22->3
gsave
1 setlinewidth
0.66667 1 1 edgecolor
newpath 321.71 854.21 moveto
362.71 842.31 447.87 824.66 504 862 curveto
544.15 888.71 558.35 946.96 563.34 981.89 curveto
stroke
0.66667 1 1 edgecolor
newpath 559.88 982.44 moveto
564.61 991.92 lineto
566.82 981.56 lineto
closepath fill
1 setlinewidth
solid
0.66667 1 1 edgecolor
newpath 559.88 982.44 moveto
564.61 991.92 lineto
566.82 981.56 lineto
closepath stroke
grestore
% 22->11
gsave
1 setlinewidth
0 0 0.82745 edgecolor
newpath 318.85 872.9 moveto
330.03 878.74 344 886.04 356.29 892.47 curveto
stroke
0 0 0.82745 edgecolor
newpath 354.81 895.65 moveto
365.29 897.18 lineto
358.05 889.44 lineto
closepath fill
1 setlinewidth
solid
0 0 0.82745 edgecolor
newpath 354.81 895.65 moveto
365.29 897.18 lineto
358.05 889.44 lineto
closepath stroke
grestore
% 22->12
gsave
1 setlinewidth
0 0 0 edgecolor
newpath 323.5 865.87 moveto
354.17 870.52 405.82 878.35 440.4 883.6 curveto
stroke
0 0 0 edgecolor
newpath 440.13 887.1 moveto
450.54 885.14 lineto
441.18 880.18 lineto
closepath fill
1 setlinewidth
solid
0 0 0 edgecolor
newpath 440.13 887.1 moveto
450.54 885.14 lineto
441.18 880.18 lineto
closepath stroke
grestore
% 23
gsave
1 setlinewidth
0 0 0 nodecolor
387 684 27 18 ellipse_path stroke
0 0 0 nodecolor
14 /Times-Roman set_font
380 680.3 moveto 14 (23) alignedtext
grestore
% 23->3
gsave
1 setlinewidth
0.66667 1 1 edgecolor
newpath 413.77 688.11 moveto
440.39 693.74 481.18 706.49 504 734 curveto
535.35 771.8 555.56 918.98 562.9 981.58 curveto
stroke
0.66667 1 1 edgecolor
newpath 559.46 982.36 moveto
564.08 991.89 lineto
566.42 981.56 lineto
closepath fill
1 setlinewidth
solid
0.66667 1 1 edgecolor
newpath 559.46 982.36 moveto
564.08 991.89 lineto
566.42 981.56 lineto
closepath stroke
grestore
% 23->24
gsave
1 setlinewidth
0 0 0 edgecolor
newpath 409.75 674.11 moveto
420.33 669.3 433.23 663.44 444.83 658.17 curveto
stroke
0 0 0 edgecolor
newpath 446.54 661.24 moveto
454.19 653.91 lineto
443.64 654.86 lineto
closepath fill
1 setlinewidth
solid
0 0 0 edgecolor
newpath 446.54 661.24 moveto
454.19 653.91 lineto
443.64 654.86 lineto
closepath stroke
grestore
% 23->23
gsave
1 setlinewidth
0 0 0.82745 edgecolor
newpath 371.77 699.17 moveto
367.16 709.66 372.23 720 387 720 curveto
396.92 720 402.47 715.33 403.64 709.09 curveto
stroke
0 0 0.82745 edgecolor
newpath 407.1 708.57 moveto
402.23 699.17 lineto
400.17 709.56 lineto
closepath fill
1 setlinewidth
solid
0 0 0.82745 edgecolor
newpath 407.1 708.57 moveto
402.23 699.17 lineto
400.17 709.56 lineto
closepath stroke
grestore
% 31->1
gsave
1 setlinewidth
0.66667 1 1 edgecolor
newpath 592.57 172.3 moveto
619.38 180.5 661.46 197.52 684 228 curveto
717.92 273.87 737.16 447.43 743.57 515.94 curveto
stroke
0.66667 1 1 edgecolor
newpath 740.09 516.36 moveto
744.49 526 lineto
747.06 515.72 lineto
closepath fill
1 setlinewidth
solid
0.66667 1 1 edgecolor
newpath 740.09 516.36 moveto
744.49 526 lineto
747.06 515.72 lineto
closepath stroke
grestore
% 31->32
gsave
1 setlinewidth
0 0 0 edgecolor
newpath 593.93 163.64 moveto
602.09 162.9 611.26 162.07 619.99 161.27 curveto
stroke
0 0 0 edgecolor
newpath 620.31 164.76 moveto
629.95 160.37 lineto
619.68 157.79 lineto
closepath fill
1 setlinewidth
solid
0 0 0 edgecolor
newpath 620.31 164.76 moveto
629.95 160.37 lineto
619.68 157.79 lineto
closepath stroke
grestore
% 31->31
gsave
1 setlinewidth
0 0 0.82745 edgecolor
newpath 551.77 181.17 moveto
547.16 191.66 552.23 202 567 202 curveto
576.92 202 582.47 197.33 583.64 191.09 curveto
stroke
0 0 0.82745 edgecolor
newpath 587.1 190.57 moveto
582.23 181.17 lineto
580.17 191.56 lineto
closepath fill
1 setlinewidth
solid
0 0 0.82745 edgecolor
newpath 587.1 190.57 moveto
582.23 181.17 lineto
580.17 191.56 lineto
closepath stroke
grestore
% 26
gsave
1 setlinewidth
0 0 0 nodecolor
297 508 27 18 ellipse_path stroke
0 0 0 nodecolor
14 /Times-Roman set_font
289.5 504.3 moveto 15 (26) alignedtext
grestore
% 26->7
gsave
1 setlinewidth
0.66667 1 1 edgecolor
newpath 320.85 498.96 moveto
368.52 480.11 478.67 436.54 533.62 414.81 curveto
stroke
0.66667 1 1 edgecolor
newpath 535.2 417.95 moveto
543.21 411.01 lineto
532.62 411.44 lineto
closepath fill
1 setlinewidth
solid
0.66667 1 1 edgecolor
newpath 535.2 417.95 moveto
543.21 411.01 lineto
532.62 411.44 lineto
closepath stroke
grestore
% 26->13
gsave
1 setlinewidth
0 0 0.82745 edgecolor
newpath 310.91 492.55 moveto
315.16 487.35 319.85 481.48 324 476 curveto
339.75 455.19 356.77 430.9 368.98 413.11 curveto
stroke
0 0 0.82745 edgecolor
newpath 372.15 414.69 moveto
374.9 404.46 lineto
366.37 410.74 lineto
closepath fill
1 setlinewidth
solid
0 0 0.82745 edgecolor
newpath 372.15 414.69 moveto
374.9 404.46 lineto
366.37 410.74 lineto
closepath stroke
grestore
% 26->14
gsave
1 setlinewidth
0 0 0 edgecolor
newpath 324.26 506.52 moveto
354.85 504.81 405.55 501.96 439.84 500.03 curveto
stroke
0 0 0 edgecolor
newpath 440.13 503.52 moveto
449.92 499.47 lineto
439.74 496.53 lineto
closepath fill
1 setlinewidth
solid
0 0 0 edgecolor
newpath 440.13 503.52 moveto
449.92 499.47 lineto
439.74 496.53 lineto
closepath stroke
grestore
% 27
gsave
1 setlinewidth
0 0 0 nodecolor
207 1348 27 18 ellipse_path stroke
0 0 0 nodecolor
14 /Times-Roman set_font
200 1344.3 moveto 14 (27) alignedtext
grestore
% 27->5
gsave
1 setlinewidth
0.66667 1 1 edgecolor
newpath 216.19 1365.15 moveto
226.46 1385.19 245.69 1418.35 270 1440 curveto
283.52 1452.04 325.32 1472.41 354.85 1486.03 curveto
stroke
0.66667 1 1 edgecolor
newpath 353.41 1489.22 moveto
363.96 1490.2 lineto
356.32 1482.85 lineto
closepath fill
1 setlinewidth
solid
0.66667 1 1 edgecolor
newpath 353.41 1489.22 moveto
363.96 1490.2 lineto
356.32 1482.85 lineto
closepath stroke
grestore
% 27->27
gsave
1 setlinewidth
0 0 0.82745 edgecolor
newpath 191.77 1363.17 moveto
187.16 1373.66 192.23 1384 207 1384 curveto
216.92 1384 222.47 1379.33 223.64 1373.09 curveto
stroke
0 0 0.82745 edgecolor
newpath 227.1 1372.57 moveto
222.23 1363.17 lineto
220.17 1373.56 lineto
closepath fill
1 setlinewidth
solid
0 0 0.82745 edgecolor
newpath 227.1 1372.57 moveto
222.23 1363.17 lineto
220.17 1373.56 lineto
closepath stroke
grestore
% 40
gsave
1 setlinewidth
0 0 0 nodecolor
297 1305 27 18 ellipse_path stroke
0 0 0 nodecolor
14 /Times-Roman set_font
289 1301.3 moveto 16 (40) alignedtext
grestore
% 27->40
gsave
1 setlinewidth
0 0 0 edgecolor
newpath 229.3 1337.59 moveto
240.14 1332.3 253.51 1325.76 265.42 1319.94 curveto
stroke
0 0 0 edgecolor
newpath 267.14 1323 moveto
274.59 1315.46 lineto
264.07 1316.71 lineto
closepath fill
1 setlinewidth
solid
0 0 0 edgecolor
newpath 267.14 1323 moveto
274.59 1315.46 lineto
264.07 1316.71 lineto
closepath stroke
grestore
% 40->3
gsave
1 setlinewidth
0.66667 1 1 edgecolor
newpath 297.27 1286.7 moveto
296.56 1243.24 301.04 1132.9 360 1072 curveto
405.07 1025.45 483.66 1013.52 529.64 1010.66 curveto
stroke
0.66667 1 1 edgecolor
newpath 529.95 1014.15 moveto
539.76 1010.15 lineto
529.59 1007.16 lineto
closepath fill
1 setlinewidth
solid
0.66667 1 1 edgecolor
newpath 529.95 1014.15 moveto
539.76 1010.15 lineto
529.59 1007.16 lineto
closepath stroke
grestore
% 40->5
gsave
1 setlinewidth
0 0 0.82745 edgecolor
newpath 313.78 1319.2 moveto
317.48 1323.08 321.17 1327.48 324 1332 curveto
352.44 1377.35 370.67 1437.7 379.56 1472.35 curveto
stroke
0 0 0.82745 edgecolor
newpath 376.21 1473.38 moveto
382.02 1482.24 lineto
383 1471.69 lineto
closepath fill
1 setlinewidth
solid
0 0 0.82745 edgecolor
newpath 376.21 1473.38 moveto
382.02 1482.24 lineto
383 1471.69 lineto
closepath stroke
grestore
% 40->6
gsave
1 setlinewidth
0 0 0 edgecolor
newpath 311.99 1320.15 moveto
323.78 1332.15 341.63 1348.57 360 1359 curveto
385.36 1373.41 416.98 1383.3 440.8 1389.38 curveto
stroke
0 0 0 edgecolor
newpath 440.27 1392.85 moveto
450.82 1391.83 lineto
441.93 1386.05 lineto
closepath fill
1 setlinewidth
solid
0 0 0 edgecolor
newpath 440.27 1392.85 moveto
450.82 1391.83 lineto
441.93 1386.05 lineto
closepath stroke
grestore
% 28
gsave
1 setlinewidth
0 0 0 nodecolor
477 238 27 18 ellipse_path stroke
0 0 0 nodecolor
14 /Times-Roman set_font
470 234.3 moveto 14 (28) alignedtext
grestore
% 28->1
gsave
1 setlinewidth
0.66667 1 1 edgecolor
newpath 502.93 243.21 moveto
546.21 253.56 635.27 280.8 684 338 curveto
728.32 390.03 740.96 472.93 744.56 515.99 curveto
stroke
0.66667 1 1 edgecolor
newpath 741.08 516.31 moveto
745.3 526.03 lineto
748.06 515.8 lineto
closepath fill
1 setlinewidth
solid
0.66667 1 1 edgecolor
newpath 741.08 516.31 moveto
745.3 526.03 lineto
748.06 515.8 lineto
closepath stroke
grestore
% 28->7
gsave
1 setlinewidth
0 0 0.82745 edgecolor
newpath 493.56 252.34 moveto
497.26 256.23 501.01 260.58 504 265 curveto
527.75 300.03 546.28 345.62 556.68 374.36 curveto
stroke
0 0 0.82745 edgecolor
newpath 553.5 375.88 moveto
560.14 384.13 lineto
560.1 373.54 lineto
closepath fill
1 setlinewidth
solid
0 0 0.82745 edgecolor
newpath 553.5 375.88 moveto
560.14 384.13 lineto
560.1 373.54 lineto
closepath stroke
grestore
% 28->8
gsave
1 setlinewidth
0 0 0 edgecolor
newpath 496.43 250.77 moveto
520.33 267.8 562.65 299.58 594 332 curveto
611.22 349.81 627.99 372.41 639.74 389.38 curveto
stroke
0 0 0 edgecolor
newpath 636.88 391.39 moveto
645.4 397.68 lineto
642.66 387.44 lineto
closepath fill
1 setlinewidth
solid
0 0 0 edgecolor
newpath 636.88 391.39 moveto
645.4 397.68 lineto
642.66 387.44 lineto
closepath stroke
grestore
% 29
gsave
1 setlinewidth
0 0 0 nodecolor
207 577 27 18 ellipse_path stroke
0 0 0 nodecolor
14 /Times-Roman set_font
199.5 573.3 moveto 15 (29) alignedtext
grestore
% 29->15
gsave
1 setlinewidth
0.66667 1 1 edgecolor
newpath 232.75 571.3 moveto
263.62 564.19 316.56 552 351.42 543.97 curveto
stroke
0.66667 1 1 edgecolor
newpath 352.21 547.37 moveto
361.17 541.72 lineto
350.64 540.55 lineto
closepath fill
1 setlinewidth
solid
0.66667 1 1 edgecolor
newpath 352.21 547.37 moveto
361.17 541.72 lineto
350.64 540.55 lineto
closepath stroke
grestore
% 29->29
gsave
1 setlinewidth
0 0 0.82745 edgecolor
newpath 191.77 592.17 moveto
187.16 602.66 192.23 613 207 613 curveto
216.92 613 222.47 608.33 223.64 602.09 curveto
stroke
0 0 0.82745 edgecolor
newpath 227.1 601.57 moveto
222.23 592.17 lineto
220.17 602.56 lineto
closepath fill
1 setlinewidth
solid
0 0 0.82745 edgecolor
newpath 227.1 601.57 moveto
222.23 592.17 lineto
220.17 602.56 lineto
closepath stroke
grestore
% 30
gsave
1 setlinewidth
0 0 0 nodecolor
297 600 27 18 ellipse_path stroke
0 0 0 nodecolor
14 /Times-Roman set_font
289.5 596.3 moveto 15 (30) alignedtext
grestore
% 29->30
gsave
1 setlinewidth
0 0 0 edgecolor
newpath 232.51 583.41 moveto
241.57 585.77 252.01 588.5 261.78 591.05 curveto
stroke
0 0 0 edgecolor
newpath 261.06 594.49 moveto
271.62 593.63 lineto
262.83 587.71 lineto
closepath fill
1 setlinewidth
solid
0 0 0 edgecolor
newpath 261.06 594.49 moveto
271.62 593.63 lineto
262.83 587.71 lineto
closepath stroke
grestore
% 30->3
gsave
1 setlinewidth
0.66667 1 1 edgecolor
newpath 305.91 617.23 moveto
321.63 651.37 355.68 724.71 360 729 curveto
410.22 778.88 458.06 743.16 504 797 curveto
550.08 851 561.94 937.64 564.98 981.94 curveto
stroke
0.66667 1 1 edgecolor
newpath 561.49 982.21 moveto
565.56 991.99 lineto
568.48 981.81 lineto
closepath fill
1 setlinewidth
solid
0.66667 1 1 edgecolor
newpath 561.49 982.21 moveto
565.56 991.99 lineto
568.48 981.81 lineto
closepath stroke
grestore
% 30->15
gsave
1 setlinewidth
0 0 0.82745 edgecolor
newpath 315.81 587.05 moveto
328.45 577.85 345.63 565.36 359.83 555.03 curveto
stroke
0 0 0.82745 edgecolor
newpath 362.19 557.64 moveto
368.22 548.93 lineto
358.07 551.98 lineto
closepath fill
1 setlinewidth
solid
0 0 0.82745 edgecolor
newpath 362.19 557.64 moveto
368.22 548.93 lineto
358.07 551.98 lineto
closepath stroke
grestore
% 30->24
gsave
1 setlinewidth
0 0 0 edgecolor
newpath 322.75 606.12 moveto
353.7 613.77 406.85 626.91 441.71 635.52 curveto
stroke
0 0 0 edgecolor
newpath 440.91 638.93 moveto
451.46 637.93 lineto
442.59 632.14 lineto
closepath fill
1 setlinewidth
solid
0 0 0 edgecolor
newpath 440.91 638.93 moveto
451.46 637.93 lineto
442.59 632.14 lineto
closepath stroke
grestore
% 33
gsave
1 setlinewidth
0 0 0 nodecolor
387 1314 27 18 ellipse_path stroke
0 0 0 nodecolor
14 /Times-Roman set_font
380 1310.3 moveto 14 (33) alignedtext
grestore
% 33->3
gsave
1 setlinewidth
0.66667 1 1 edgecolor
newpath 403.38 1299.66 moveto
433.24 1271.72 496.75 1211.7 504 1200 curveto
536.41 1147.7 553.67 1076.69 561.22 1037.98 curveto
stroke
0.66667 1 1 edgecolor
newpath 564.69 1038.44 moveto
563.09 1027.97 lineto
557.81 1037.15 lineto
closepath fill
1 setlinewidth
solid
0.66667 1 1 edgecolor
newpath 564.69 1038.44 moveto
563.09 1027.97 lineto
557.81 1037.15 lineto
closepath stroke
grestore
% 33->33
gsave
1 setlinewidth
0 0 0.82745 edgecolor
newpath 371.77 1329.17 moveto
367.16 1339.66 372.23 1350 387 1350 curveto
396.92 1350 402.47 1345.33 403.64 1339.09 curveto
stroke
0 0 0.82745 edgecolor
newpath 407.1 1338.57 moveto
402.23 1329.17 lineto
400.17 1339.56 lineto
closepath fill
1 setlinewidth
solid
0 0 0.82745 edgecolor
newpath 407.1 1338.57 moveto
402.23 1329.17 lineto
400.17 1339.56 lineto
closepath stroke
grestore
% 48
gsave
1 setlinewidth
0 0 0 nodecolor
477 1284 27 18 ellipse_path stroke
0 0 0 nodecolor
14 /Times-Roman set_font
469 1280.3 moveto 16 (48) alignedtext
grestore
% 33->48
gsave
1 setlinewidth
0 0 0 edgecolor
newpath 411.58 1305.96 moveto
421.23 1302.67 432.56 1298.81 443 1295.25 curveto
stroke
0 0 0 edgecolor
newpath 444.32 1298.5 moveto
452.66 1291.96 lineto
442.06 1291.87 lineto
closepath fill
1 setlinewidth
solid
0 0 0 edgecolor
newpath 444.32 1298.5 moveto
452.66 1291.96 lineto
442.06 1291.87 lineto
closepath stroke
grestore
% 48->1
gsave
1 setlinewidth
0.66667 1 1 edgecolor
newpath 491.73 1268.37 moveto
515.18 1241.06 563.4 1182.18 594 1126 curveto
700 931.42 734.7 659.59 743.48 572.22 curveto
stroke
0.66667 1 1 edgecolor
newpath 746.99 572.34 moveto
744.47 562.04 lineto
740.02 571.66 lineto
closepath fill
1 setlinewidth
solid
0.66667 1 1 edgecolor
newpath 746.99 572.34 moveto
744.47 562.04 lineto
740.02 571.66 lineto
closepath stroke
grestore
% 48->4
gsave
1 setlinewidth
0 0 0 edgecolor
newpath 488.2 1267.47 moveto
493.13 1259.29 499.04 1249.22 504 1240 curveto
547.29 1159.46 559.87 1139.83 594 1055 curveto
617.07 997.67 637.79 928.18 648.44 890.51 curveto
stroke
0 0 0 edgecolor
newpath 651.84 891.34 moveto
651.17 880.77 lineto
645.1 889.45 lineto
closepath fill
1 setlinewidth
solid
0 0 0 edgecolor
newpath 651.84 891.34 moveto
651.17 880.77 lineto
645.1 889.45 lineto
closepath stroke
grestore
% 48->3
gsave
1 setlinewidth
0 0 0.82745 edgecolor
newpath 492.42 1268.99 moveto
496.66 1263.92 500.97 1258.01 504 1252 curveto
513.71 1232.72 545.8 1097.12 559.6 1037.74 curveto
stroke
0 0 0.82745 edgecolor
newpath 563.03 1038.44 moveto
561.88 1027.91 lineto
556.21 1036.86 lineto
closepath fill
1 setlinewidth
solid
0 0 0.82745 edgecolor
newpath 563.03 1038.44 moveto
561.88 1027.91 lineto
556.21 1036.86 lineto
closepath stroke
grestore
% 34
gsave
1 setlinewidth
0 0 0 nodecolor
27 256 27 18 ellipse_path stroke
0 0 0 nodecolor
14 /Times-Roman set_font
19 252.3 moveto 16 (34) alignedtext
grestore
% 34->9
gsave
1 setlinewidth
0.66667 1 1 edgecolor
newpath 43.21 270.55 moveto
55 280.89 72.26 294.13 90 301 curveto
146.46 322.87 217.68 325.93 259.88 325.45 curveto
stroke
0.66667 1 1 edgecolor
newpath 260.02 328.95 moveto
269.95 325.27 lineto
259.89 321.95 lineto
closepath fill
1 setlinewidth
solid
0.66667 1 1 edgecolor
newpath 260.02 328.95 moveto
269.95 325.27 lineto
259.89 321.95 lineto
closepath stroke
grestore
% 34->17
gsave
1 setlinewidth
0 0 0.82745 edgecolor
newpath 54.4 256 moveto
62.39 256 71.31 256 79.82 256 curveto
stroke
0 0 0.82745 edgecolor
newpath 79.92 259.5 moveto
89.92 256 lineto
79.92 252.5 lineto
closepath fill
1 setlinewidth
solid
0 0 0.82745 edgecolor
newpath 79.92 259.5 moveto
89.92 256 lineto
79.92 252.5 lineto
closepath stroke
grestore
% 34->18
gsave
1 setlinewidth
0 0 0 edgecolor
newpath 48.24 244.66 moveto
60.03 238.71 75.4 232.04 90 229 curveto
116.72 223.43 147.59 225.71 170.77 229.09 curveto
stroke
0 0 0 edgecolor
newpath 170.41 232.57 moveto
180.83 230.69 lineto
171.51 225.66 lineto
closepath fill
1 setlinewidth
solid
0 0 0 edgecolor
newpath 170.41 232.57 moveto
180.83 230.69 lineto
171.51 225.66 lineto
closepath stroke
grestore
% 35
gsave
1 setlinewidth
0 0 0 nodecolor
387 1242 27 18 ellipse_path stroke
0 0 0 nodecolor
14 /Times-Roman set_font
379.5 1238.3 moveto 15 (35) alignedtext
grestore
% 35->3
gsave
1 setlinewidth
0.66667 1 1 edgecolor
newpath 410.14 1232.14 moveto
435.9 1219.66 478.19 1195.87 504 1164 curveto
534.77 1126.01 551.99 1070.74 560.1 1037.78 curveto
stroke
0.66667 1 1 edgecolor
newpath 563.54 1038.45 moveto
562.42 1027.91 lineto
556.72 1036.85 lineto
closepath fill
1 setlinewidth
solid
0.66667 1 1 edgecolor
newpath 563.54 1038.45 moveto
562.42 1027.91 lineto
556.72 1036.85 lineto
closepath stroke
grestore
% 35->48
gsave
1 setlinewidth
0 0 0 edgecolor
newpath 409.3 1252.17 moveto
420.14 1257.34 433.51 1263.72 445.42 1269.41 curveto
stroke
0 0 0 edgecolor
newpath 444.06 1272.63 moveto
454.59 1273.78 lineto
447.07 1266.31 lineto
closepath fill
1 setlinewidth
solid
0 0 0 edgecolor
newpath 444.06 1272.63 moveto
454.59 1273.78 lineto
447.07 1266.31 lineto
closepath stroke
grestore
% 35->35
gsave
1 setlinewidth
0 0 0.82745 edgecolor
newpath 371.77 1257.17 moveto
367.16 1267.66 372.23 1278 387 1278 curveto
396.92 1278 402.47 1273.33 403.64 1267.09 curveto
stroke
0 0 0.82745 edgecolor
newpath 407.1 1266.57 moveto
402.23 1257.17 lineto
400.17 1267.56 lineto
closepath fill
1 setlinewidth
solid
0 0 0.82745 edgecolor
newpath 407.1 1266.57 moveto
402.23 1257.17 lineto
400.17 1267.56 lineto
closepath stroke
grestore
% 37
gsave
1 setlinewidth
0 0 0 nodecolor
27 1572 27 18 ellipse_path stroke
0 0 0 nodecolor
14 /Times-Roman set_font
20 1568.3 moveto 14 (37) alignedtext
grestore
% 37->19
gsave
1 setlinewidth
0.66667 1 1 edgecolor
newpath 53.94 1573.8 moveto
65.04 1574.53 78.15 1575.36 90 1576 curveto
116.59 1577.43 146.62 1578.72 169.46 1579.63 curveto
stroke
0.66667 1 1 edgecolor
newpath 169.6 1583.13 moveto
179.73 1580.03 lineto
169.88 1576.14 lineto
closepath fill
1 setlinewidth
solid
0.66667 1 1 edgecolor
newpath 169.6 1583.13 moveto
179.73 1580.03 lineto
169.88 1576.14 lineto
closepath stroke
grestore
% 37->37
gsave
1 setlinewidth
0 0 0.82745 edgecolor
newpath 11.77 1587.17 moveto
7.16 1597.66 12.23 1608 27 1608 curveto
36.92 1608 42.47 1603.33 43.64 1597.09 curveto
stroke
0 0 0.82745 edgecolor
newpath 47.1 1596.57 moveto
42.23 1587.17 lineto
40.17 1597.56 lineto
closepath fill
1 setlinewidth
solid
0 0 0.82745 edgecolor
newpath 47.1 1596.57 moveto
42.23 1587.17 lineto
40.17 1597.56 lineto
closepath stroke
grestore
% 38
gsave
1 setlinewidth
0 0 0 nodecolor
117 1549 27 18 ellipse_path stroke
0 0 0 nodecolor
14 /Times-Roman set_font
110 1545.3 moveto 14 (38) alignedtext
grestore
% 37->38
gsave
1 setlinewidth
0 0 0 edgecolor
newpath 52.51 1565.59 moveto
61.57 1563.23 72.01 1560.5 81.78 1557.95 curveto
stroke
0 0 0 edgecolor
newpath 82.83 1561.29 moveto
91.62 1555.37 lineto
81.06 1554.51 lineto
closepath fill
1 setlinewidth
solid
0 0 0 edgecolor
newpath 82.83 1561.29 moveto
91.62 1555.37 lineto
81.06 1554.51 lineto
closepath stroke
grestore
% 38->5
gsave
1 setlinewidth
0.66667 1 1 edgecolor
newpath 143.21 1544.39 moveto
191.2 1535.62 295.76 1516.5 350.69 1506.46 curveto
stroke
0.66667 1 1 edgecolor
newpath 351.45 1509.87 moveto
360.66 1504.63 lineto
350.19 1502.99 lineto
closepath fill
1 setlinewidth
solid
0.66667 1 1 edgecolor
newpath 351.45 1509.87 moveto
360.66 1504.63 lineto
350.19 1502.99 lineto
closepath stroke
grestore
% 38->19
gsave
1 setlinewidth
0 0 0.82745 edgecolor
newpath 141.12 1557.41 moveto
151.02 1561.01 162.76 1565.28 173.52 1569.19 curveto
stroke
0 0 0.82745 edgecolor
newpath 172.44 1572.52 moveto
183.03 1572.65 lineto
174.83 1565.94 lineto
closepath fill
1 setlinewidth
solid
0 0 0.82745 edgecolor
newpath 172.44 1572.52 moveto
183.03 1572.65 lineto
174.83 1565.94 lineto
closepath stroke
grestore
% 38->20
gsave
1 setlinewidth
0 0 0 edgecolor
newpath 126.07 1566.3 moveto
135.86 1584.97 154.3 1613.7 180 1626 curveto
205.8 1638.35 238.59 1634.88 262.72 1629.32 curveto
stroke
0 0 0 edgecolor
newpath 263.65 1632.69 moveto
272.49 1626.85 lineto
261.94 1625.91 lineto
closepath fill
1 setlinewidth
solid
0 0 0 edgecolor
newpath 263.65 1632.69 moveto
272.49 1626.85 lineto
261.94 1625.91 lineto
closepath stroke
grestore
% 39
gsave
1 setlinewidth
0 0 0 nodecolor
387 316 27 18 ellipse_path stroke
0 0 0 nodecolor
14 /Times-Roman set_font
379.5 312.3 moveto 15 (39) alignedtext
grestore
% 39->7
gsave
1 setlinewidth
0.66667 1 1 edgecolor
newpath 407.22 327.96 moveto
419.3 335.27 435.33 344.61 450 352 curveto
477.76 365.98 510.35 379.81 533.9 389.37 curveto
stroke
0.66667 1 1 edgecolor
newpath 532.82 392.7 moveto
543.4 393.19 lineto
535.43 386.21 lineto
closepath fill
1 setlinewidth
solid
0.66667 1 1 edgecolor
newpath 532.82 392.7 moveto
543.4 393.19 lineto
535.43 386.21 lineto
closepath stroke
grestore
% 39->39
gsave
1 setlinewidth
0 0 0.82745 edgecolor
newpath 371.77 331.17 moveto
367.16 341.66 372.23 352 387 352 curveto
396.92 352 402.47 347.33 403.64 341.09 curveto
stroke
0 0 0.82745 edgecolor
newpath 407.1 340.57 moveto
402.23 331.17 lineto
400.17 341.56 lineto
closepath fill
1 setlinewidth
solid
0 0 0.82745 edgecolor
newpath 407.1 340.57 moveto
402.23 331.17 lineto
400.17 341.56 lineto
closepath stroke
grestore
% 56
gsave
1 setlinewidth
0 0 0 nodecolor
477 292 27 18 ellipse_path stroke
0 0 0 nodecolor
14 /Times-Roman set_font
469 288.3 moveto 16 (56) alignedtext
grestore
% 39->56
gsave
1 setlinewidth
0 0 0 edgecolor
newpath 412.51 309.31 moveto
421.57 306.84 432.01 304 441.78 301.33 curveto
stroke
0 0 0 edgecolor
newpath 442.89 304.66 moveto
451.62 298.65 lineto
441.05 297.9 lineto
closepath fill
1 setlinewidth
solid
0 0 0 edgecolor
newpath 442.89 304.66 moveto
451.62 298.65 lineto
441.05 297.9 lineto
closepath stroke
grestore
% 56->1
gsave
1 setlinewidth
0.66667 1 1 edgecolor
newpath 503.54 296.4 moveto
547.36 305.33 636.68 329.8 684 387 curveto
715.86 425.51 732.79 482.39 740.54 516.07 curveto
stroke
0.66667 1 1 edgecolor
newpath 737.18 517.12 moveto
742.74 526.14 lineto
744.02 515.62 lineto
closepath fill
1 setlinewidth
solid
0.66667 1 1 edgecolor
newpath 737.18 517.12 moveto
742.74 526.14 lineto
744.02 515.62 lineto
closepath stroke
grestore
% 56->7
gsave
1 setlinewidth
0 0 0.82745 edgecolor
newpath 490.75 307.58 moveto
494.99 312.78 499.72 318.63 504 324 curveto
520.19 344.3 523.81 349.7 540 370 curveto
542.21 372.77 544.54 375.67 546.85 378.53 curveto
stroke
0 0 0.82745 edgecolor
newpath 544.23 380.86 moveto
553.25 386.42 lineto
549.67 376.45 lineto
closepath fill
1 setlinewidth
solid
0 0 0.82745 edgecolor
newpath 544.23 380.86 moveto
553.25 386.42 lineto
549.67 376.45 lineto
closepath stroke
grestore
% 56->8
gsave
1 setlinewidth
0 0 0 edgecolor
newpath 496.38 304.6 moveto
527.82 326.15 592.09 370.2 628.76 395.33 curveto
stroke
0 0 0 edgecolor
newpath 627.23 398.52 moveto
637.45 401.29 lineto
631.18 392.75 lineto
closepath fill
1 setlinewidth
solid
0 0 0 edgecolor
newpath 627.23 398.52 moveto
637.45 401.29 lineto
631.18 392.75 lineto
closepath stroke
grestore
% 41
gsave
1 setlinewidth
0 0 0 nodecolor
387 24 27 18 ellipse_path stroke
0 0 0 nodecolor
14 /Times-Roman set_font
379 20.3 moveto 16 (41) alignedtext
grestore
% 41->21
gsave
1 setlinewidth
0.66667 1 1 edgecolor
newpath 414.26 23.11 moveto
444.85 22.08 495.55 20.37 529.84 19.22 curveto
stroke
0.66667 1 1 edgecolor
newpath 530.04 22.71 moveto
539.92 18.88 lineto
529.81 15.72 lineto
closepath fill
1 setlinewidth
solid
0.66667 1 1 edgecolor
newpath 530.04 22.71 moveto
539.92 18.88 lineto
529.81 15.72 lineto
closepath stroke
grestore
% 41->41
gsave
1 setlinewidth
0 0 0.82745 edgecolor
newpath 371.77 39.17 moveto
367.16 49.66 372.23 60 387 60 curveto
396.92 60 402.47 55.33 403.64 49.09 curveto
stroke
0 0 0.82745 edgecolor
newpath 407.1 48.57 moveto
402.23 39.17 lineto
400.17 49.56 lineto
closepath fill
1 setlinewidth
solid
0 0 0.82745 edgecolor
newpath 407.1 48.57 moveto
402.23 39.17 lineto
400.17 49.56 lineto
closepath stroke
grestore
% 42
gsave
1 setlinewidth
0 0 0 nodecolor
477 56 27 18 ellipse_path stroke
0 0 0 nodecolor
14 /Times-Roman set_font
469 52.3 moveto 16 (42) alignedtext
grestore
% 41->42
gsave
1 setlinewidth
0 0 0 edgecolor
newpath 411.12 32.41 moveto
421.02 36.01 432.76 40.28 443.52 44.19 curveto
stroke
0 0 0 edgecolor
newpath 442.44 47.52 moveto
453.03 47.65 lineto
444.83 40.94 lineto
closepath fill
1 setlinewidth
solid
0 0 0 edgecolor
newpath 442.44 47.52 moveto
453.03 47.65 lineto
444.83 40.94 lineto
closepath stroke
grestore
% 42->1
gsave
1 setlinewidth
0.66667 1 1 edgecolor
newpath 502.8 61.63 moveto
552.33 73.38 660.71 101.87 684 131 curveto
731.77 190.75 742.91 432.63 745.36 515.77 curveto
stroke
0.66667 1 1 edgecolor
newpath 741.86 516.08 moveto
745.63 525.98 lineto
748.86 515.89 lineto
closepath fill
1 setlinewidth
solid
0.66667 1 1 edgecolor
newpath 741.86 516.08 moveto
745.63 525.98 lineto
748.86 515.89 lineto
closepath stroke
grestore
% 42->21
gsave
1 setlinewidth
0 0 0.82745 edgecolor
newpath 500.21 46.41 moveto
510.63 41.91 523.23 36.47 534.61 31.56 curveto
stroke
0 0 0.82745 edgecolor
newpath 536.01 34.76 moveto
543.8 27.59 lineto
533.23 28.34 lineto
closepath fill
1 setlinewidth
solid
0 0 0.82745 edgecolor
newpath 536.01 34.76 moveto
543.8 27.59 lineto
533.23 28.34 lineto
closepath stroke
grestore
% 42->32
gsave
1 setlinewidth
0 0 0 edgecolor
newpath 496.47 68.48 moveto
508.67 76.59 525.1 87.23 540 96 curveto
568.54 112.8 601.97 130.46 625.59 142.62 curveto
stroke
0 0 0 edgecolor
newpath 624.26 145.87 moveto
634.76 147.31 lineto
627.45 139.64 lineto
closepath fill
1 setlinewidth
solid
0 0 0 edgecolor
newpath 624.26 145.87 moveto
634.76 147.31 lineto
627.45 139.64 lineto
closepath stroke
grestore
% 43
gsave
1 setlinewidth
0 0 0 nodecolor
207 941 27 18 ellipse_path stroke
0 0 0 nodecolor
14 /Times-Roman set_font
199 937.3 moveto 16 (43) alignedtext
grestore
% 43->11
gsave
1 setlinewidth
0.66667 1 1 edgecolor
newpath 233.13 936.34 moveto
263.78 930.66 315.81 921.01 350.54 914.57 curveto
stroke
0.66667 1 1 edgecolor
newpath 351.52 917.95 moveto
360.71 912.69 lineto
350.24 911.07 lineto
closepath fill
1 setlinewidth
solid
0.66667 1 1 edgecolor
newpath 351.52 917.95 moveto
360.71 912.69 lineto
350.24 911.07 lineto
closepath stroke
grestore
% 43->43
gsave
1 setlinewidth
0 0 0.82745 edgecolor
newpath 191.77 956.17 moveto
187.16 966.66 192.23 977 207 977 curveto
216.92 977 222.47 972.33 223.64 966.09 curveto
stroke
0 0 0.82745 edgecolor
newpath 227.1 965.57 moveto
222.23 956.17 lineto
220.17 966.56 lineto
closepath fill
1 setlinewidth
solid
0 0 0.82745 edgecolor
newpath 227.1 965.57 moveto
222.23 956.17 lineto
220.17 966.56 lineto
closepath stroke
grestore
% 44
gsave
1 setlinewidth
0 0 0 nodecolor
297 968 27 18 ellipse_path stroke
0 0 0 nodecolor
14 /Times-Roman set_font
288.5 964.3 moveto 17 (44) alignedtext
grestore
% 43->44
gsave
1 setlinewidth
0 0 0 edgecolor
newpath 232.05 948.38 moveto
241.44 951.26 252.36 954.61 262.5 957.72 curveto
stroke
0 0 0 edgecolor
newpath 261.7 961.14 moveto
272.29 960.72 lineto
263.75 954.45 lineto
closepath fill
1 setlinewidth
solid
0 0 0 edgecolor
newpath 261.7 961.14 moveto
272.29 960.72 lineto
263.75 954.45 lineto
closepath stroke
grestore
% 44->3
gsave
1 setlinewidth
0.66667 1 1 edgecolor
newpath 323.7 972.03 moveto
371.82 979.57 475.61 995.83 530.42 1004.42 curveto
stroke
0.66667 1 1 edgecolor
newpath 529.96 1007.89 moveto
540.38 1005.99 lineto
531.04 1000.98 lineto
closepath fill
1 setlinewidth
solid
0.66667 1 1 edgecolor
newpath 529.96 1007.89 moveto
540.38 1005.99 lineto
531.04 1000.98 lineto
closepath stroke
grestore
% 44->11
gsave
1 setlinewidth
0 0 0.82745 edgecolor
newpath 316.66 955.28 moveto
328.91 946.92 345.14 935.86 358.81 926.54 curveto
stroke
0 0 0.82745 edgecolor
newpath 361.07 929.23 moveto
367.36 920.71 lineto
357.13 923.45 lineto
closepath fill
1 setlinewidth
solid
0 0 0.82745 edgecolor
newpath 361.07 929.23 moveto
367.36 920.71 lineto
357.13 923.45 lineto
closepath stroke
grestore
% 44->12
gsave
1 setlinewidth
0 0 0 edgecolor
newpath 324.31 969.42 moveto
348.8 969.67 385.68 967.2 414 953 curveto
431.98 943.98 447.69 927.62 458.79 913.69 curveto
stroke
0 0 0 edgecolor
newpath 461.82 915.5 moveto
465.1 905.43 lineto
456.25 911.26 lineto
closepath fill
1 setlinewidth
solid
0 0 0 edgecolor
newpath 461.82 915.5 moveto
465.1 905.43 lineto
456.25 911.26 lineto
closepath stroke
grestore
% 45
gsave
1 setlinewidth
0 0 0 nodecolor
207 164 27 18 ellipse_path stroke
0 0 0 nodecolor
14 /Times-Roman set_font
199 160.3 moveto 16 (45) alignedtext
grestore
% 45->39
gsave
1 setlinewidth
0.66667 1 1 edgecolor
newpath 225.67 177.42 moveto
248.75 195.1 290.18 227.45 324 257 curveto
337.58 268.87 352.23 282.75 363.87 294.07 curveto
stroke
0.66667 1 1 edgecolor
newpath 361.45 296.6 moveto
371.05 301.08 lineto
366.35 291.59 lineto
closepath fill
1 setlinewidth
solid
0.66667 1 1 edgecolor
newpath 361.45 296.6 moveto
371.05 301.08 lineto
366.35 291.59 lineto
closepath stroke
grestore
% 45->45
gsave
1 setlinewidth
0 0 0.82745 edgecolor
newpath 191.77 179.17 moveto
187.16 189.66 192.23 200 207 200 curveto
216.92 200 222.47 195.33 223.64 189.09 curveto
stroke
0 0 0.82745 edgecolor
newpath 227.1 188.57 moveto
222.23 179.17 lineto
220.17 189.56 lineto
closepath fill
1 setlinewidth
solid
0 0 0.82745 edgecolor
newpath 227.1 188.57 moveto
222.23 179.17 lineto
220.17 189.56 lineto
closepath stroke
grestore
% 78
gsave
1 setlinewidth
0 0 0 nodecolor
297 176 27 18 ellipse_path stroke
0 0 0 nodecolor
14 /Times-Roman set_font
290 172.3 moveto 14 (78) alignedtext
grestore
% 45->78
gsave
1 setlinewidth
0 0 0 edgecolor
newpath 233.93 167.54 moveto
242.16 168.66 251.42 169.92 260.22 171.12 curveto
stroke
0 0 0 edgecolor
newpath 259.88 174.61 moveto
270.26 172.49 lineto
260.82 167.67 lineto
closepath fill
1 setlinewidth
solid
0 0 0 edgecolor
newpath 259.88 174.61 moveto
270.26 172.49 lineto
260.82 167.67 lineto
closepath stroke
grestore
% 78->7
gsave
1 setlinewidth
0.66667 1 1 edgecolor
newpath 310.83 191.67 moveto
325.8 209.8 349.79 238.39 360 248 curveto
381.95 268.64 390.42 270.24 414 289 curveto
430.3 301.97 433.07 306.87 450 319 curveto
472.86 335.38 481 335.8 504 352 curveto
517.01 361.16 530.85 372.19 542.15 381.56 curveto
stroke
0.66667 1 1 edgecolor
newpath 539.96 384.29 moveto
549.87 388.03 lineto
544.46 378.92 lineto
closepath fill
1 setlinewidth
solid
0.66667 1 1 edgecolor
newpath 539.96 384.29 moveto
549.87 388.03 lineto
544.46 378.92 lineto
closepath stroke
grestore
% 78->39
gsave
1 setlinewidth
0 0 0.82745 edgecolor
newpath 311.75 191.39 moveto
315.95 196.48 320.41 202.31 324 208 curveto
343.93 239.62 340.07 252.38 360 284 curveto
361.79 286.85 363.81 289.73 365.89 292.53 curveto
stroke
0 0 0.82745 edgecolor
newpath 363.32 294.92 moveto
372.25 300.61 lineto
368.82 290.59 lineto
closepath fill
1 setlinewidth
solid
0 0 0.82745 edgecolor
newpath 363.32 294.92 moveto
372.25 300.61 lineto
368.82 290.59 lineto
closepath stroke
grestore
% 78->56
gsave
1 setlinewidth
0 0 0 edgecolor
newpath 317.05 188.41 moveto
348.63 209 411.97 250.27 448.43 274.03 curveto
stroke
0 0 0 edgecolor
newpath 446.8 277.15 moveto
457.09 279.68 lineto
450.62 271.28 lineto
closepath fill
1 setlinewidth
solid
0 0 0 edgecolor
newpath 446.8 277.15 moveto
457.09 279.68 lineto
450.62 271.28 lineto
closepath stroke
grestore
% 46
gsave
1 setlinewidth
0 0 0 nodecolor
297 684 27 18 ellipse_path stroke
0 0 0 nodecolor
14 /Times-Roman set_font
289 680.3 moveto 16 (46) alignedtext
grestore
% 46->3
gsave
1 setlinewidth
0.66667 1 1 edgecolor
newpath 308.21 700.59 moveto
319.33 717.63 338.43 744.11 360 762 curveto
415.7 808.2 456.52 783.38 504 838 curveto
540.49 879.97 556.07 945.06 562.27 981.96 curveto
stroke
0.66667 1 1 edgecolor
newpath 558.84 982.68 moveto
563.85 992.01 lineto
565.76 981.59 lineto
closepath fill
1 setlinewidth
solid
0.66667 1 1 edgecolor
newpath 558.84 982.68 moveto
563.85 992.01 lineto
565.76 981.59 lineto
closepath stroke
grestore
% 46->24
gsave
1 setlinewidth
0 0 0 edgecolor
newpath 318.67 673.14 moveto
330.47 667.42 345.71 660.82 360 657 curveto
386.15 650.01 416.58 646.78 439.71 645.28 curveto
stroke
0 0 0 edgecolor
newpath 440 648.77 moveto
449.79 644.71 lineto
439.61 641.78 lineto
closepath fill
1 setlinewidth
solid
0 0 0 edgecolor
newpath 440 648.77 moveto
449.79 644.71 lineto
439.61 641.78 lineto
closepath stroke
grestore
% 46->23
gsave
1 setlinewidth
0 0 0.82745 edgecolor
newpath 324.4 684 moveto
332.39 684 341.31 684 349.82 684 curveto
stroke
0 0 0.82745 edgecolor
newpath 349.92 687.5 moveto
359.92 684 lineto
349.92 680.5 lineto
closepath fill
1 setlinewidth
solid
0 0 0.82745 edgecolor
newpath 349.92 687.5 moveto
359.92 684 lineto
349.92 680.5 lineto
closepath stroke
grestore
% 47
gsave
1 setlinewidth
0 0 0 nodecolor
387 1170 27 18 ellipse_path stroke
0 0 0 nodecolor
14 /Times-Roman set_font
379 1166.3 moveto 16 (47) alignedtext
grestore
% 47->3
gsave
1 setlinewidth
0.66667 1 1 edgecolor
newpath 414.35 1168.85 moveto
439.91 1166.45 478.48 1159.26 504 1138 curveto
535.09 1112.1 551.78 1066.91 559.77 1037.74 curveto
stroke
0.66667 1 1 edgecolor
newpath 563.23 1038.34 moveto
562.33 1027.78 lineto
556.45 1036.59 lineto
closepath fill
1 setlinewidth
solid
0.66667 1 1 edgecolor
newpath 563.23 1038.34 moveto
562.33 1027.78 lineto
556.45 1036.59 lineto
closepath stroke
grestore
% 47->48
gsave
1 setlinewidth
0 0 0 edgecolor
newpath 400.24 1185.85 moveto
415.06 1205.06 440.19 1237.6 457.41 1259.92 curveto
stroke
0 0 0 edgecolor
newpath 454.7 1262.14 moveto
463.58 1267.92 lineto
460.24 1257.86 lineto
closepath fill
1 setlinewidth
solid
0 0 0 edgecolor
newpath 454.7 1262.14 moveto
463.58 1267.92 lineto
460.24 1257.86 lineto
closepath stroke
grestore
% 47->47
gsave
1 setlinewidth
0 0 0.82745 edgecolor
newpath 371.77 1185.17 moveto
367.16 1195.66 372.23 1206 387 1206 curveto
396.92 1206 402.47 1201.33 403.64 1195.09 curveto
stroke
0 0 0.82745 edgecolor
newpath 407.1 1194.57 moveto
402.23 1185.17 lineto
400.17 1195.56 lineto
closepath fill
1 setlinewidth
solid
0 0 0.82745 edgecolor
newpath 407.1 1194.57 moveto
402.23 1185.17 lineto
400.17 1195.56 lineto
closepath stroke
grestore
% 57->5
gsave
1 setlinewidth
0.66667 1 1 edgecolor
newpath 232.09 1462.84 moveto
243.54 1466.03 257.45 1469.82 270 1473 curveto
297.12 1479.87 327.97 1487.02 351.03 1492.23 curveto
stroke
0.66667 1 1 edgecolor
newpath 350.52 1495.71 moveto
361.04 1494.49 lineto
352.05 1488.88 lineto
closepath fill
1 setlinewidth
solid
0.66667 1 1 edgecolor
newpath 350.52 1495.71 moveto
361.04 1494.49 lineto
352.05 1488.88 lineto
closepath stroke
grestore
% 57->57
gsave
1 setlinewidth
0 0 0.82745 edgecolor
newpath 191.77 1471.17 moveto
187.16 1481.66 192.23 1492 207 1492 curveto
216.92 1492 222.47 1487.33 223.64 1481.09 curveto
stroke
0 0 0.82745 edgecolor
newpath 227.1 1480.57 moveto
222.23 1471.17 lineto
220.17 1481.56 lineto
closepath fill
1 setlinewidth
solid
0 0 0.82745 edgecolor
newpath 227.1 1480.57 moveto
222.23 1471.17 lineto
220.17 1481.56 lineto
closepath stroke
grestore
% 80
gsave
1 setlinewidth
0 0 0 nodecolor
297 1359 27 18 ellipse_path stroke
0 0 0 nodecolor
14 /Times-Roman set_font
289.5 1355.3 moveto 15 (80) alignedtext
grestore
% 57->80
gsave
1 setlinewidth
0 0 0 edgecolor
newpath 221.36 1440.54 moveto
233.8 1426.25 252.93 1404.49 270 1386 curveto
271.36 1384.53 272.76 1383.02 274.19 1381.51 curveto
stroke
0 0 0 edgecolor
newpath 276.95 1383.69 moveto
281.31 1374.03 lineto
271.88 1378.86 lineto
closepath fill
1 setlinewidth
solid
0 0 0 edgecolor
newpath 276.95 1383.69 moveto
281.31 1374.03 lineto
271.88 1378.86 lineto
closepath stroke
grestore
% 50
gsave
1 setlinewidth
0 0 0 nodecolor
387 111 27 18 ellipse_path stroke
0 0 0 nodecolor
14 /Times-Roman set_font
379 107.3 moveto 16 (50) alignedtext
grestore
% 50->25
gsave
1 setlinewidth
0 0 0.82745 edgecolor
newpath 407.53 123.21 moveto
419.46 130.66 434.91 140.32 448.12 148.57 curveto
stroke
0 0 0.82745 edgecolor
newpath 446.49 151.69 moveto
456.83 154.02 lineto
450.2 145.75 lineto
closepath fill
1 setlinewidth
solid
0 0 0.82745 edgecolor
newpath 446.49 151.69 moveto
456.83 154.02 lineto
450.2 145.75 lineto
closepath stroke
grestore
% 50->31
gsave
1 setlinewidth
0 0 0 edgecolor
newpath 414.17 108.92 moveto
437.92 111.78 473.75 119.85 504 130 curveto
516.87 134.32 530.76 140.24 542.13 146.27 curveto
stroke
0 0 0 edgecolor
newpath 540.58 149.42 moveto
551 151.33 lineto
544.05 143.34 lineto
closepath fill
1 setlinewidth
solid
0 0 0 edgecolor
newpath 540.58 149.42 moveto
551 151.33 lineto
544.05 143.34 lineto
closepath stroke
grestore
% 50->31
gsave
1 setlinewidth
0.66667 1 1 edgecolor
newpath 409.27 121.57 moveto
432.77 128.64 471.59 137.12 504 148 curveto
512.9 150.99 522.28 154.74 530.98 158.21 curveto
stroke
0.66667 1 1 edgecolor
newpath 529.86 161.54 moveto
540.45 161.97 lineto
532.44 155.03 lineto
closepath fill
1 setlinewidth
solid
0.66667 1 1 edgecolor
newpath 529.86 161.54 moveto
540.45 161.97 lineto
532.44 155.03 lineto
closepath stroke
grestore
% 51
gsave
1 setlinewidth
0 0 0 nodecolor
117 412 27 18 ellipse_path stroke
0 0 0 nodecolor
14 /Times-Roman set_font
109.5 408.3 moveto 15 (51) alignedtext
grestore
% 51->9
gsave
1 setlinewidth
0.66667 1 1 edgecolor
newpath 137.87 400.21 moveto
149.92 393.21 165.68 384.3 180 377 curveto
208.14 362.66 240.93 347.85 264.45 337.54 curveto
stroke
0.66667 1 1 edgecolor
newpath 266.16 340.62 moveto
273.93 333.41 lineto
263.36 334.2 lineto
closepath fill
1 setlinewidth
solid
0.66667 1 1 edgecolor
newpath 266.16 340.62 moveto
273.93 333.41 lineto
263.36 334.2 lineto
closepath stroke
grestore
% 51->51
gsave
1 setlinewidth
0 0 0.82745 edgecolor
newpath 101.77 427.17 moveto
97.16 437.66 102.23 448 117 448 curveto
126.92 448 132.47 443.33 133.64 437.09 curveto
stroke
0 0 0.82745 edgecolor
newpath 137.1 436.57 moveto
132.23 427.17 lineto
130.17 437.56 lineto
closepath fill
1 setlinewidth
solid
0 0 0.82745 edgecolor
newpath 137.1 436.57 moveto
132.23 427.17 lineto
130.17 437.56 lineto
closepath stroke
grestore
% 72
gsave
1 setlinewidth
0 0 0 nodecolor
207 458 27 18 ellipse_path stroke
0 0 0 nodecolor
14 /Times-Roman set_font
200 454.3 moveto 14 (72) alignedtext
grestore
% 51->72
gsave
1 setlinewidth
0 0 0 edgecolor
newpath 138.85 422.9 moveto
150.03 428.74 164 436.04 176.29 442.47 curveto
stroke
0 0 0 edgecolor
newpath 174.81 445.65 moveto
185.29 447.18 lineto
178.05 439.44 lineto
closepath fill
1 setlinewidth
solid
0 0 0 edgecolor
newpath 174.81 445.65 moveto
185.29 447.18 lineto
178.05 439.44 lineto
closepath stroke
grestore
% 72->9
gsave
1 setlinewidth
0 0 0.82745 edgecolor
newpath 223.25 443.44 moveto
226.97 439.56 230.79 435.26 234 431 curveto
253.47 405.16 271.5 372.67 283.04 350.3 curveto
stroke
0 0 0.82745 edgecolor
newpath 286.31 351.6 moveto
287.72 341.1 lineto
280.07 348.42 lineto
closepath fill
1 setlinewidth
solid
0 0 0.82745 edgecolor
newpath 286.31 351.6 moveto
287.72 341.1 lineto
280.07 348.42 lineto
closepath stroke
grestore
% 72->13
gsave
1 setlinewidth
0 0 0 edgecolor
newpath 227.6 445.91 moveto
250.91 436.37 290.84 423.78 324 410 curveto
333.14 406.2 342.81 401.64 351.72 397.5 curveto
stroke
0 0 0 edgecolor
newpath 353.4 400.58 moveto
361.03 393.23 lineto
350.48 394.22 lineto
closepath fill
1 setlinewidth
solid
0 0 0 edgecolor
newpath 353.4 400.58 moveto
361.03 393.23 lineto
350.48 394.22 lineto
closepath stroke
grestore
% 72->13
gsave
1 setlinewidth
0.66667 1 1 edgecolor
newpath 234.18 457.38 moveto
257.95 452.12 293.79 440.56 324 428 curveto
337.15 422.53 351.4 415.49 362.91 408.62 curveto
stroke
0.66667 1 1 edgecolor
newpath 364.92 411.48 moveto
371.49 403.17 lineto
361.17 405.58 lineto
closepath fill
1 setlinewidth
solid
0.66667 1 1 edgecolor
newpath 364.92 411.48 moveto
371.49 403.17 lineto
361.17 405.58 lineto
closepath stroke
grestore
% 80->3
gsave
1 setlinewidth
0.66667 1 1 edgecolor
newpath 314.4 1345.15 moveto
318.09 1341.26 321.61 1336.77 324 1332 curveto
368.7 1242.6 300.32 1190.18 360 1110 curveto
382.08 1080.34 480.83 1040.99 533.18 1021.69 curveto
stroke
0.66667 1 1 edgecolor
newpath 534.5 1024.93 moveto
542.69 1018.21 lineto
532.09 1018.35 lineto
closepath fill
1 setlinewidth
solid
0.66667 1 1 edgecolor
newpath 534.5 1024.93 moveto
542.69 1018.21 lineto
532.09 1018.35 lineto
closepath stroke
grestore
% 80->5
gsave
1 setlinewidth
0 0 0.82745 edgecolor
newpath 313.34 1373.5 moveto
317.05 1377.38 320.85 1381.7 324 1386 curveto
344.48 1413.95 362.73 1449.47 374.04 1473.37 curveto
stroke
0 0 0.82745 edgecolor
newpath 370.91 1474.95 moveto
378.31 1482.54 lineto
377.26 1471.99 lineto
closepath fill
1 setlinewidth
solid
0 0 0.82745 edgecolor
newpath 370.91 1474.95 moveto
378.31 1482.54 lineto
377.26 1471.99 lineto
closepath stroke
grestore
% 80->6
gsave
1 setlinewidth
0 0 0 edgecolor
newpath 316.35 1371.58 moveto
328.23 1378.99 344.35 1387.74 360 1392 curveto
386.14 1399.13 416.81 1400.15 440.05 1399.51 curveto
stroke
0 0 0 edgecolor
newpath 440.3 1403 moveto
450.16 1399.12 lineto
440.03 1396.01 lineto
closepath fill
1 setlinewidth
solid
0 0 0 edgecolor
newpath 440.3 1403 moveto
450.16 1399.12 lineto
440.03 1396.01 lineto
closepath stroke
grestore
endpage
showpage
grestore
%%PageTrailer
%%EndPage: 1
%%Trailer
end
restore
%%EOF
